[
    {
        "ItemBrandId": -1500000000,
        "ItemBrandCode": "Brand1",
        "ItemBrandName": "Brand1",
        "ItemBrandIsSelected": 1,
        "ItemBrandRemarks": "BMWW",
        "ItemBrandIsAsset": 1,
        "ItemBrandIsItem": 0,
        "ItemBrandCreatedById": -1900000000,
        "ItemBrandCreatedOn": "/Date(1456718656000)/",
        "ItemBrandCreatedByName": null,
        "ItemBrandModifiedById": -1499998941,
        "ItemBrandModifiedOn": "/Date(1627733550000)/",
        "ItemBrandModifiedByName": null,
        "ItemBrandSortOrder": 0,
        "ItemBrandStatus": 1,
        "ItemBrandVersion": 23,
        "ItemBrandScreenOperationMode": 1
    },
    {
        "ItemBrandId": -1499999999,
        "ItemBrandCode": "ITBRNLDELL",
        "ItemBrandName": "ITEM BRAND DELL",
        "ItemBrandIsSelected": 1,
        "ItemBrandRemarks": "",
        "ItemBrandIsAsset": 0,
        "ItemBrandIsItem": 0,
        "ItemBrandCreatedById": -1900000000,
        "ItemBrandCreatedOn": "/Date(1458282245000)/",
        "ItemBrandCreatedByName": null,
        "ItemBrandModifiedById": -1499998941,
        "ItemBrandModifiedOn": "/Date(1622108990000)/",
        "ItemBrandModifiedByName": null,
        "ItemBrandSortOrder": 9999,
        "ItemBrandStatus": 1,
        "ItemBrandVersion": 4,
        "ItemBrandScreenOperationMode": 1
    },
    {
        "ItemBrandId": -1499999998,
        "ItemBrandCode": "ITBRHP",
        "ItemBrandName": "ITEM BRAND HP",
        "ItemBrandIsSelected": 1,
        "ItemBrandRemarks": "",
        "ItemBrandIsAsset": 0,
        "ItemBrandIsItem": 0,
        "ItemBrandCreatedById": -1900000000,
        "ItemBrandCreatedOn": "/Date(1458282273000)/",
        "ItemBrandCreatedByName": null,
        "ItemBrandModifiedById": -1,
        "ItemBrandModifiedOn": "/Date(1477639466000)/",
        "ItemBrandModifiedByName": null,
        "ItemBrandSortOrder": 9999,
        "ItemBrandStatus": 1,
        "ItemBrandVersion": 4,
        "ItemBrandScreenOperationMode": 1
    },
    {
        "ItemBrandId": -1499999997,
        "ItemBrandCode": "ITBRLEN",
        "ItemBrandName": "ITEM BRAND LENOVA",
        "ItemBrandIsSelected": 1,
        "ItemBrandRemarks": "",
        "ItemBrandIsAsset": 0,
        "ItemBrandIsItem": 0,
        "ItemBrandCreatedById": -1900000000,
        "ItemBrandCreatedOn": "/Date(1458282314000)/",
        "ItemBrandCreatedByName": null,
        "ItemBrandModifiedById": -1499998941,
        "ItemBrandModifiedOn": "/Date(1616679103000)/",
        "ItemBrandModifiedByName": null,
        "ItemBrandSortOrder": 9999,
        "ItemBrandStatus": 1,
        "ItemBrandVersion": 3,
        "ItemBrandScreenOperationMode": 1
    },
    {
        "ItemBrandId": -1499999996,
        "ItemBrandCode": "ITBRAPPLE",
        "ItemBrandName": "ITEM BRAND APPLE",
        "ItemBrandIsSelected": 1,
        "ItemBrandRemarks": "",
        "ItemBrandIsAsset": 0,
        "ItemBrandIsItem": 0,
        "ItemBrandCreatedById": -1900000000,
        "ItemBrandCreatedOn": "/Date(1458282457000)/",
        "ItemBrandCreatedByName": null,
        "ItemBrandModifiedById": -1,
        "ItemBrandModifiedOn": "/Date(1477652857000)/",
        "ItemBrandModifiedByName": null,
        "ItemBrandSortOrder": 9999,
        "ItemBrandStatus": 1,
        "ItemBrandVersion": 2,
        "ItemBrandScreenOperationMode": 1
    },
    {
        "ItemBrandId": -1499999995,
        "ItemBrandCode": "ITBRTOS",
        "ItemBrandName": "ITEM BRAND TOSHIBA",
        "ItemBrandIsSelected": 1,
        "ItemBrandRemarks": "",
        "ItemBrandIsAsset": 0,
        "ItemBrandIsItem": 0,
        "ItemBrandCreatedById": -1900000000,
        "ItemBrandCreatedOn": "/Date(1458282485000)/",
        "ItemBrandCreatedByName": null,
        "ItemBrandModifiedById": -1499998941,
        "ItemBrandModifiedOn": "/Date(1611233068000)/",
        "ItemBrandModifiedByName": null,
        "ItemBrandSortOrder": 9999,
        "ItemBrandStatus": 1,
        "ItemBrandVersion": 3,
        "ItemBrandScreenOperationMode": 1
    },
    {
        "ItemBrandId": -1499998520,
        "ItemBrandCode": "ITBRAND01",
        "ItemBrandName": "ITEM BRAND01",
        "ItemBrandIsSelected": 1,
        "ItemBrandRemarks": "ITEM BRAND011",
        "ItemBrandIsAsset": 0,
        "ItemBrandIsItem": 0,
        "ItemBrandCreatedById": -1499998941,
        "ItemBrandCreatedOn": "/Date(1538744398000)/",
        "ItemBrandCreatedByName": null,
        "ItemBrandModifiedById": -1499998941,
        "ItemBrandModifiedOn": "/Date(1538744466000)/",
        "ItemBrandModifiedByName": null,
        "ItemBrandSortOrder": 9999,
        "ItemBrandStatus": 1,
        "ItemBrandVersion": 4,
        "ItemBrandScreenOperationMode": 1
    },
    {
        "ItemBrandId": -1499998504,
        "ItemBrandCode": "Cream",
        "ItemBrandName": "Talk Cream",
        "ItemBrandIsSelected": 1,
        "ItemBrandRemarks": "Talk Cream",
        "ItemBrandIsAsset": 0,
        "ItemBrandIsItem": 0,
        "ItemBrandCreatedById": -1499998941,
        "ItemBrandCreatedOn": "/Date(1573797798000)/",
        "ItemBrandCreatedByName": null,
        "ItemBrandModifiedById": -1499998941,
        "ItemBrandModifiedOn": "/Date(1573802443000)/",
        "ItemBrandModifiedByName": null,
        "ItemBrandSortOrder": 9999,
        "ItemBrandStatus": 1,
        "ItemBrandVersion": 5,
        "ItemBrandScreenOperationMode": 1
    },
    {
        "ItemBrandId": -1499998502,
        "ItemBrandCode": "Talk",
        "ItemBrandName": "Talk Powder",
        "ItemBrandIsSelected": 1,
        "ItemBrandRemarks": "Talk powder brand",
        "ItemBrandIsAsset": 0,
        "ItemBrandIsItem": 0,
        "ItemBrandCreatedById": -1499998941,
        "ItemBrandCreatedOn": "/Date(1574232368000)/",
        "ItemBrandCreatedByName": null,
        "ItemBrandModifiedById": -1499998941,
        "ItemBrandModifiedOn": "/Date(1574232368000)/",
        "ItemBrandModifiedByName": null,
        "ItemBrandSortOrder": 9999,
        "ItemBrandStatus": 1,
        "ItemBrandVersion": 1,
        "ItemBrandScreenOperationMode": 1
    },
    {
        "ItemBrandId": -1499998489,
        "ItemBrandCode": "ss",
        "ItemBrandName": "vv",
        "ItemBrandIsSelected": 0,
        "ItemBrandRemarks": "vv",
        "ItemBrandIsAsset": 0,
        "ItemBrandIsItem": 0,
        "ItemBrandCreatedById": -1499998941,
        "ItemBrandCreatedOn": "/Date(1616747280000)/",
        "ItemBrandCreatedByName": null,
        "ItemBrandModifiedById": -1499998941,
        "ItemBrandModifiedOn": "/Date(1616747280000)/",
        "ItemBrandModifiedByName": null,
        "ItemBrandSortOrder": 0,
        "ItemBrandStatus": 1,
        "ItemBrandVersion": 1,
        "ItemBrandScreenOperationMode": 1
    }
]