{
  "npmScope": "goodbooks",
  "affected": {
    "defaultBase": "master"
  },
  "implicitDependencies": {
    "angular.json": "*",
    "package.json": {
      "dependencies": "*",
      "devDependencies": "*"
    },
    "tsconfig.base.json": "*",
    "tslint.json": "*",
    "nx.json": "*"
  },
  "tasksRunnerOptions": {
    "default": {
      "runner": "@nrwl/workspace/tasks-runners/default",
      "options": {
        "cacheableOperations": ["build", "lint", "test", "e2e"]
      }
    }
  },
  "projects": {
    "gb-gb": {
      "tags": []
    },
    "gb-gb-e2e": {
      "tags": [],
      "implicitDependencies": ["gb-gb"]
    },
    "gbcommon": {
      "tags": []
    },
    "gbdata": {
      "tags": []
    },
    "uicore": {
      "tags": []
    },
    "uifwk-uifwkmaterial": {
      "tags": []
    },
    "uifwk-uifwkhtml": {
      "tags": []
    },
    "uifwk-uifwkprime-ng": {
      "tags": []
    },
    "Goodbooks-Goodbooks": {
      "tags": []
    },
    "Goodbooks-Goodbooks-e2e": {
      "tags": [],
      "implicitDependencies": ["Goodbooks-Goodbooks"]
    },
    "uifwk-uifwkbootstrap": {
      "tags": []
    },
    "uifwk-uifwkionic": {
      "tags": []
    },
    "customerportal-customerportal": {
      "tags": []
    },
    "customerportal-customerportal-e2e": {
      "tags": [],
      "implicitDependencies": ["customerportal-customerportal"]
    },
    "mwsampleapp": {
      "tags": []
    },
    "mwsampleapp-e2e": {
      "tags": [],
      "implicitDependencies": ["mwsampleapp"]
    },
    "mwsampletest": {
      "tags": []
    },
    "mwsampletest-e2e": {
      "tags": [],
      "implicitDependencies": ["mwsampletest"]
    },
    
    "gbui": {
      "tags": []
    },
    "ng-bre": {
      "tags": []
    }
  }
}
