{
  "ObjectFields": [
    {
      "ActivityCode": {
        "PicklistUrl": "ActivityRecruitmentProcess",
        "PicklistDisplayText": "Code,Name",
        "PicklistSearchFields": "Code,Name",
        "Multiple": false,
        "PicklistSelection": "Id",
        "PicklistTitle": "Code",
        "Label": "Code*",
        "Width": 160,
        "AddNew": true,
        "SLno":1,
        "MaxLength": 10,
        "PlaceHolder": "Enter Code",
        "ColumnWidth": "200,300",
        "ColumnType": "string,string",
        "isKeyField": true
    },
    "ActivityName": {
        "PicklistUrl": "ActivityRecruitmentProcess",
        "PicklistDisplayText": "Code,Name",
        "PicklistSearchFields": "Code,Name",
        "Multiple": false,
        "PicklistSelection": "Id",
        "PicklistTitle": "Name",
        "Label": "Name*",
        "Width": 360,
        "AddNew": true,
        "PlaceHolder": "Enter Name",
        "MaxLength": 35,
        "ColumnWidth": "200,300",
        "ColumnType": "string,string",
        "isKeyField": true
    },
    "ActivityTypeName": {
      "PicklistUrl": "ActivityType",
      "PicklistDisplayText": "Code,Name",
      "PicklistSearchFields": "Code,Name",
      "Multiple": false,
      "PicklistSelection": "Id",
      "PicklistTitle": "Name",
      "AddNew": false,
      "MaxLength": 10,
      "Label": "Activity Type*",
      "Width":360,
      "LinkId":"ActivityTypeId",
      "PlaceHolder": "Select Activity Type ",
      "ColumnWidth": "200,300",
      "LabelWidth":132,
      "ColumnType": "string,string"
    
  },
  "ActivityApplicableResultsValue": {
      "PicklistUrl": "Stage",
      "PicklistDisplayText": "Name",
      "PicklistSearchFields": "Name",
      "Multiple": true,
      "PicklistSelection": "Id",
      "PicklistTitle": "Name",
      "Label": "Applicable Results",
      "Width": 360,
      "LabelWidth":132,
      "AddNew": false,
      "PlaceHolder": "Select Applicable Results",
      "MaxLength": 50,
      "ColumnWidth": "200",
      "ColumnType": "string,string",
      "LinkId":"ActivityApplicableResults",
      "PicklistCriteria":"GcmActivityprocess"
  },
  "ActivityApplicableStagesValue": {
    "PicklistUrl": "ActivityGCM",
    "PicklistDisplayText": "Name",
    "PicklistSearchFields": "Name",
    "Multiple": true,
    "PicklistSelection": "Id",
    "PicklistTitle": "Name",
    "Label": "Applicable Stages",
    "Width": 360,
    "AddNew": false,
    "PlaceHolder": "Select Applicable Stages",
    "LinkId":"ActivityApplicableStages",
    "MaxLength": 35,
    "ColumnWidth": "200",
    "LabelWidth":131,
    "ColumnType": "string,string",
    "PicklistCriteria":"Activityrequirementprocessing"
 
}

    },
    {
      "Name": "ActivityId",
      "Type": "number",
      "Required": true,
      "ValidRegEx": "",
      "DefaultValue": 0,
      "PostData":true,
      "width": "400px"
    },
    {
      "Name": "ActivityCode",
      "Type": "string",
      "Required": true,
      "ValidRegEx": "",
      "DefaultValue": "",
      "width": "400px",
      "PostData":true,
      "Label": "Code*"
    },
    {
      "Name": "ActivityName",
      "Type": "string",
      "Required": true,
      "ValidRegEx": "",
      "DefaultValue": "",
      "width": "400px",
      "PostData":true,
      "Label": "Name*"
    },
    {
      "Name": "ActivityNature",
      "Type": "string",
      "Required": false,
      "ValidRegEx": "",
      "DefaultValue": "",
      "PostData":false,
      "width": "400px"
    },
    {
      "Name": "ActivityTypeId",
      "Type": "number",
      "Required": false,
      "ValidRegEx": "",
      "DefaultValue": 0,
      "PostData":true,
      "width": "400px"
    },
    {
      "Name": "ActivityTypeCode",
      "Type": "string",
      "Required": false,
      "ValidRegEx": "",
      "DefaultValue": "",
      "PostData":false,
      "width": "400px"
    },
    {
      "Name": "ActivityTypeName",
      "Type": "string",
      "Required": true,
      "ValidRegEx": "",
      "PostData":false,
      "DefaultValue": "",
      "width": "400px",
      "Label": "Activity Type*"
    },
    {
      "Name": "ActivityTypeGenerateType",
      "Type": "string",
      "Required": false,
      "ValidRegEx": "",
      "PostData":false,
      "DefaultValue": "",
      "width": "400px"
    },
    {
      "Name": "ActivityTypeAutoType",
      "Type": "string",
      "Required": false,
      "ValidRegEx": "",
      "DefaultValue": "",
      "PostData":false,
      "width": "400px"
    },
    {
      "Name": "ActivityTypeAutoTypeProcess",
      "Type": "string",
      "Required": false,
      "ValidRegEx": "",
      "DefaultValue": "",
      "PostData":false,
      "width": "400px"
    },
    {
      "Name": "ActivityTypeClassId",
      "Type": "number",
      "Required": false,
      "ValidRegEx": "",
      "DefaultValue": -1,
      "PostData":false,
      "width": "400px"
    },
    {
      "Name": "ActivityTypeSubClassId",
      "Type": "number",
      "Required": false,
      "ValidRegEx": "",
      "DefaultValue": -1,
      "PostData":false,
      "width": "400px"
    },
    {
      "Name": "ActivityTypeIsActive",
      "Type": "number",
      "Required": false,
      "PostData":false,
      "ValidRegEx": "",
      "DefaultValue": 0,
      "width": "400px"
    },
    {
      "Name": "ActivityRemarks",
      "Type": "string",
      "Required": false,
      "PostData":true,
      "Label":"Remarks",
      "ValidRegEx": "",
      "DefaultValue": "",
     "Width":360,
      "MaxLength":200,
      "LabelWidth":132,
      "Placeholder":"Enter Remarks"
    },
    {
      "Name": "ActivityPrefix",
      "Type": "string",
      "Required": false,
      "ValidRegEx": "",
      "DefaultValue": "",
      "PostData":false,
      "width": "400px"
    },
    {
      "Name": "ActivityIsTakePending",
      "Type": "number",
      "Required": false,
      "ValidRegEx": "",
      "DefaultValue": 0,
      "PostData":false,
      "width": "400px"
    },
    {
      "Name": "ActivityIsAllocReq",
      "Type": "number",
      "Required": false,
      "ValidRegEx": "",
      "DefaultValue": 0,
      "PostData":false,
      "width": "400px"
    },
    {
      "Name": "ActivityIsAllocDirect",
      "Type": "number",
      "Required": false,
      "PostData":false,
      "ValidRegEx": "",
      "DefaultValue": 0,
      "width": "400px"
    },
    {
      "Name": "ActivityIsProductive",
      "Type": "number",
      "Required": false,
      "ValidRegEx": "",
      "DefaultValue": 0,
      "PostData":true,
      "width": "400px"
    },
    {
      "Name": "ActivityIsRepeatable",
      "Type": "number",
      "Required": false,
      "PostData":false,
      "ValidRegEx": "",
      "DefaultValue": 0,
      "width": "400px"
    },
    {
      "Name": "ActivityIsMultiResReq",
      "Type": "number",
      "Required": false,
      "ValidRegEx": "",
      "PostData":false,
      "DefaultValue": 0,
      "width": "400px"
    },
    {
      "Name": "ActivityIsAllowRework",
      "Type": "number",
      "Required": false,
      "PostData":false,
      "ValidRegEx": "",
      "DefaultValue": 0,
      "width": "400px"
    },
    {
      "Name": "ActivityIsOutputBased",
      "Type": "number",
      "Required": false,
      "ValidRegEx": "",
      "PostData":false,
      "DefaultValue": 0,
      "width": "400px"
    },
    {
      "Name": "ActivityIsHavePrecon",
      "Type": "number",
      "Required": false,
      "PostData":false,
      "ValidRegEx": "",
      "DefaultValue": 0,
      "width": "400px"
    },
    {
      "Name": "ActivityPreconChkList",
      "Type": "string",
      "Required": false,
      "PostData":false,
      "ValidRegEx": "",
      "DefaultValue": "",
      "width": "400px"
    },
    {
      "Name": "ActivityIsReviewReq",
      "Type": "number",
      "Required": false,
      "PostData":false,
      "ValidRegEx": "",
      "DefaultValue": 0,
      "width": "400px"
    },
    {
      "Name": "ActivityReviewChkList",
      "Type": "string",
      "Required": false,
      "ValidRegEx": "",
      "DefaultValue": "",
      "PostData":false,
      "width": "400px"
    },
    {
      "Name": "ActivityIsAllocBased",
      "Type": "number",
      "PostData":false,
      "Required": false,
      "ValidRegEx": "",
      "DefaultValue": 0,
      "width": "400px"
    },
    {
      "Name": "ActivityAllocType",
      "Type": "string",
      "Required": false,
      "ValidRegEx": "",
      "PostData":false,
      "DefaultValue": "",
      "width": "400px"
    },
    {
      "Name": "ActivityActGenType",
      "Type": "string",
      "Required": false,
      "ValidRegEx": "",
      "PostData":false,
      "DefaultValue": "",
      "width": "400px"
    },
    {
      "Name": "ActivityAutoType",
      "Type": "string",
      "Required": false,
      "ValidRegEx": "",
      "PostData":false,
      "DefaultValue": "",
      "width": "400px"
    },
    {
      "Name": "ActivityAutoTypeProcess",
      "Type": "string",
      "Required": false,
      "ValidRegEx": "",
      "DefaultValue": "",
      "PostData":false,
      "width": "400px"
    },
    {
      "Name": "ActivityClassId",
      "Type": "number",
      "Required": false,
      "ValidRegEx": "",
      "PostData":false,
      "DefaultValue": 0,
      "width": "400px"
    },
    {
      "Name": "ActivitySubClassId",
      "Type": "number",
      "Required": false,
      "PostData":false,
      "ValidRegEx": "",
      "DefaultValue": -1,
      "width": "400px"
    },
    {
      "Name": "ActivityIsActive",
      "Type": "number",
      "Required": false,
      "PostData":false,
      "ValidRegEx": "",
      "DefaultValue": 0,
      "width": "400px"
    },
   
    {
      "Name": "ActivityIsNoBased",
      "Type": "number",
      "Required": false,
      "ValidRegEx": "",
      "PostData":false,
      "DefaultValue": 0,
      "width": "400px"
    },
    {
      "Name": "ActivityMaxDays",
      "Type": "number",
      "Required": false,
      "ValidRegEx": "",
      "PostData":false,
      "DefaultValue": 0,
      "width": "400px"
    },
    {
      "Name": "ActivityMaxHrs",
      "Type": "number",
      "Required": false,
      "ValidRegEx": "",
      "DefaultValue": 0,
      "PostData":false,
      "width": "400px"
    },
    {
      "Name": "ActivityMinDays",
      "Type": "number",
      "Required": false,
      "ValidRegEx": "",
      "DefaultValue": 0,
      "PostData":false,
      "width": "400px"
    },
    {
      "Name": "ActivityMinHrs",
      "Type": "number",
      "PostData":false,
      "Required": false,
      "ValidRegEx": "",
      "DefaultValue": 0,
      "width": "400px"
    },
    {
      "Name": "ActivityAvgDays",
      "Type": "number",
      "PostData":false,
      "Required": false,
      "ValidRegEx": "",
      "DefaultValue": 0,
      "width": "400px"
    },
    {
      "Name": "ActivityAvgHrs",
      "Type": "number",
      "Required": false,
      "ValidRegEx": "",
      "PostData":false,
      "DefaultValue": 0,
      "width": "400px"
    },
    {
      "Name": "ActivityIsF2F",
      "Type": "number",
      "Required": false,
      "ValidRegEx": "",
      "PostData":false,
      "DefaultValue": 0,
      "width": "400px"
    },
    {
      "Name": "ActivityIsExpense",
      "Type": "number",
      "Required": false,
      "ValidRegEx": "",
      "DefaultValue": 1,
      "PostData":true,
      "width": "400px"
    },
    {
      "Name": "ActivityIsReminder",
      "Type": "number",
      "Required": false,
      "ValidRegEx": "",
      "DefaultValue": 0,
      "PostData":false,
      "width": "400px"
    },
    {
      "Name": "ActivityRMDNoOfDays",
      "Type": "number",
      "Required": false,
      "ValidRegEx": "",
      "DefaultValue": 0,
      "PostData":false,
      "width": "400px"
    },
    {
      "Name": "ActivityRMDNoOfHrs",
      "Type": "number",
      "Required": false,
      "ValidRegEx": "",
      "DefaultValue": 0,
      "PostData":false,
      "width": "400px"
    },
    {
      "Name": "ActivityRMDMode",
      "Type": "string",
      "Required": false,
      "ValidRegEx": "",
      "PostData":false,
      "DefaultValue": "",
      "width": "400px"
    },
    {
      "Name": "ActivityIsHour",
      "Type": "number",
      "Required": false,
      "PostData":false,
      "ValidRegEx": "",
      "DefaultValue": 0,
      "width": "400px"
    },
    {
      "Name": "ActivityIsCharge",
      "Type": "number",
      "Required": false,
      "ValidRegEx": "",
      "DefaultValue": 0,
      "PostData":false,
      "width": "400px"
    },
    {
      "Name": "ActivityLaboutAmt",
      "Type": "number",
      "Required": false,
      "ValidRegEx": "",
      "PostData":false,
      "DefaultValue": 0,
      "width": "400px"
    },
    {
      "Name": "ActivityOHAmt",
      "Type": "number",
      "Required": false,
      "ValidRegEx": "",
      "PostData":false,
      "DefaultValue": 0,
      "width": "400px"
    },
    {
      "Name": "ActivityChargeTypeCode",
      "Type": "string",
      "Required": false,
      "ValidRegEx": "",
      "PostData":false,
      "DefaultValue": "",
      "width": "400px"
    },
    {
      "Name": "ActivityCollAccCode",
      "Type": "string",
      "Required": false,
      "PostData":false,
      "ValidRegEx": "",
      "DefaultValue": "",
      "width": "400px"
    },
    {
      "Name": "ActivityPaidAccCode",
      "Type": "string",
      "Required": false,
      "PostData":false,
      "ValidRegEx": "",
      "DefaultValue": "",
      "width": "400px"
    },
    {
      "Name": "ActivityActivityRef",
      "Type": "string",
      "Required": false,
      "PostData":false,
      "ValidRegEx": "",
      "DefaultValue": "",
      "width": "400px"
    },
    {
      "Name": "ActivityActCostType",
      "Type": "string",
      "Required": false,
      "PostData":false,
      "ValidRegEx": "",
      "DefaultValue": "",
      "width": "400px"
    },
    {
      "Name": "ActivityTimeUOM",
      "Type": "string",
      "Required": false,
      "PostData":false,
      "ValidRegEx": "",
      "DefaultValue": "",
      "width": "400px"
    },
    {
      "Name": "ActivityItemCode",
      "Type": "string",
      "Required": false,
      "PostData":false,
      "ValidRegEx": "",
      "DefaultValue": "",
      "width": "400px"
    },
    {
      "Name": "ActivityCreatedOn",
      "Type": "string",
      "Required": false,
      "PostData":false,
      "ValidRegEx": "",
      "DefaultValue": "/Date(1708322295000)/",
      "width": "400px"
    },
    {
      "Name": "ActivityModifiedOn",
      "Type": "string",
      "Required": false,
      "PostData":false,
      "ValidRegEx": "",
      "DefaultValue": "/Date(1708322295000)/",
      "width": "400px"
    },
    {
      "Name": "ActivityCreatedById",
      "Type": "number",
      "Required": false,
      "PostData":false,
      "ValidRegEx": "",
      "DefaultValue": -1,
      "width": "400px"
    },
    {
      "Name": "ActivityModifiedById",
      "Type": "number",
      "Required": false,
      "PostData":false,
      "ValidRegEx": "",
      "DefaultValue": -1,
      "width": "400px"
    },
    {
      "Name": "ActivitySortOrder",
      "Type": "number",
      "Required": false,
      "ValidRegEx": "",
      "DefaultValue": 0,
      "PostData":false,
      "width": "400px"
    },
    {
      "Name": "ActivityStatus",
      "Type": "number",
      "Required": false,
      "ValidRegEx": "",
      "DefaultValue": 0,
      "PostData":true,
      "width": "400px"
    },
    {
      "Name": "ActivityVersion",
      "Type": "number",
      "Required": false,
      "ValidRegEx": "",
      "DefaultValue": 1,
      "PostData":true,
      "width": "400px"
    },
    {
      "Name": "UOMId",
      "Type": "number",
      "Required": false,
      "ValidRegEx": "",
      "PostData":false,
      "DefaultValue": 0,
      "width": "400px"
    },
    {
      "Name": "UOMCode",
      "Type": "string",
      "Required": false,
      "ValidRegEx": "",
      "PostData":false,
      "DefaultValue": "",
      "width": "400px"
    },
    {
      "Name": "UOMName",
      "Type": "string",
      "Required": false,
      "PostData":false,
      "ValidRegEx": "",
      "DefaultValue": "",
      "width": "400px"
    },
    {
      "Name": "ActivityRecoveryPercentage",
      "Type": "number",
      "Required": false,
      "PostData":false,
      "ValidRegEx": "",
      "DefaultValue": 0,
      "width": "400px"
    },
    {
      "Name": "ActivityIsClaim",
      "Type": "number",
      "Required": false,
      "ValidRegEx": "",
      "DefaultValue": 1,
      "PostData":true,
      "width": "400px"
    },
    {
      "Name": "ExpenseAccountId",
      "Type": "number",
      "Required": false,
      "PostData":false,
      "ValidRegEx": "",
      "DefaultValue": 0,
      "width": "400px"
    },
    {
      "Name": "ExpenseAccountCode",
      "Type": "string",
      "Required": false,
      "PostData":false,
      "ValidRegEx": "",
      "DefaultValue": "",
      "width": "400px"
    },
    {
      "Name": "ExpenseAccountName",
      "Type": "string",
      "Required": false,
      "PostData":false,
      "ValidRegEx": "",
      "DefaultValue": "",
      "width": "400px"
    },
    {
      "Name": "BillAccountCode",
      "Type": "string",
      "Required": false,
      "PostData":false,
      "ValidRegEx": "",
      "DefaultValue": "",
      "width": "400px"
    },
    {
      "Name": "BillAccountName",
      "Type": "string",
      "Required": false,
      "PostData":false,
      "ValidRegEx": "",
      "DefaultValue": "",
      "width": "400px"
    },
    {
      "Name": "BillAccountId",
      "Type": "number",
      "Required": false,
      "PostData":false,
      "ValidRegEx": "",
      "DefaultValue": -1,
      "width": "400px"
    },
    {
      "Name": "ItemCode",
      "Type": "string",
      "Required": false,
      "ValidRegEx": "",
      "PostData":false,
      "DefaultValue": "",
      "width": "400px"
    },
    {
      "Name": "ItemName",
      "Type": "string",
      "Required": false,
      "ValidRegEx": "",
      "PostData":false,
      "DefaultValue": "",
      "width": "400px"
    },
    {
      "Name": "ItemId",
      "Type": "number",
      "Required": false,
      "PostData":false,
      "ValidRegEx": "",
      "DefaultValue": 0,
      "width": "400px"
    },
    {
      "Name": "SKUCode",
      "Type": "string",
      "Required": false,
      "PostData":false,
      "ValidRegEx": "",
      "DefaultValue": "",
      "width": "400px"
    },
    {
      "Name": "SKUName",
      "Type": "string",
      "Required": false,
      "ValidRegEx": "",
      "PostData":false,
      "DefaultValue": "",
      "width": "400px"
    },
    {
      "Name": "SKUId",
      "Type": "number",
      "Required": false,
      "ValidRegEx": "",
      "DefaultValue": 0,
      "PostData":false,
      "width": "400px"
    },
    {
      "Name": "ParameterSetId",
      "Type": "number",
      "Required": false,
      "ValidRegEx": "",
      "DefaultValue": 0,
      "PostData":false,
      "width": "400px"
    },
    {
      "Name": "ParameterSetCode",
      "Type": "string",
      "Required": false,
      "ValidRegEx": "",
      "DefaultValue": "",
      "PostData":false,
      "width": "400px"
    },
    {
      "Name": "ParameterSetName",
      "Type": "string",
      "Required": false,
      "ValidRegEx": "",
      "DefaultValue": "",
      "PostData":false,
      "width": "400px"
    },
    {
      "Name": "PreCheckListId",
      "PostData":true,
      "Type": "number",
      "Required": false,
      "ValidRegEx": "",
      "DefaultValue": 0,
      "width": "400px"
    },
    {
      "Name": "PostCheckListId",
      "Type": "number",
      "Required": false,
      "PostData":true,
      "ValidRegEx": "",
      "DefaultValue": 0,
      "width": "400px"
    },
    {
      "Name": "ForTemplateId",
      "Type": "number",
      "Required": false,
      "ValidRegEx": "",
      "DefaultValue": -1,
      "PostData":true,
      "width": "400px"
    },
    {
      "Name": "ForTemplateCode",
      "Type": "string",
      "Required": false,
      "ValidRegEx": "",
      "PostData":false,
      "DefaultValue": "",
      "width": "400px"
    },
    {
      "Name": "ForTemplateName",
      "Type": "string",
      "Required": false,
      "PostData":false,
      "ValidRegEx": "",
      "DefaultValue": "",
      "width": "400px"
    },
    {
      "Name": "BOMId",
      "Type": "number",
      "PostData":false,
      "Required": false,
      "ValidRegEx": "",
      "DefaultValue": 0,
      "width": "400px"
    },
    {
      "Name": "BORId",
      "Type": "number",
      "PostData":false,
      "Required": false,
      "ValidRegEx": "",
      "DefaultValue": 0,
      "width": "400px"
    },
    {
      "Name": "BOMCode",
      "Type": "string",
      "PostData":false,
      "Required": false,
      "ValidRegEx": "",
      "DefaultValue": "",
      "width": "400px"
    },
    {
      "Name": "BOMName",
      "Type": "string",
      "Required": false,
      "ValidRegEx": "",
      "PostData":false,
      "DefaultValue": "",
      "width": "400px"
    },
    {
      "Name": "ActivityApplicableResults",
      "Type": "number",
      "Required": false,
      "ValidRegEx": "",
      "DefaultValue":-1,
      "PostData":true,
      "width": "400px"
    },
    {
      "Name": "ActivityApplicableResultsValue",
      "Type": "string",
      "Required": false,
      "ValidRegEx": "",
      "PostData":false,
      "DefaultValue": "",
      "width": "400px",
      "Label": " Applicable Results "
    },
    {
      "Name": "ActivityApplicableStages",
      "Type": "number",
      "Required": false,
      "ValidRegEx": "",
      "DefaultValue": -1,
      "PostData":true,
      "width": "400px"
    },
    {
      "Name": "ActivityIsScore",
      "Type": "number",
      "Required": false,
      "ValidRegEx": "",
      "DefaultValue": 1,
    "Width":80,
      "PostData":true,
      "LabelWidth":131,

      "Label": "Is Score"
    },
    {
      "Name": "ActivityIsLetter",
      "Type": "number",
      "Required": false,
      "ValidRegEx": "",
      "DefaultValue": 1,
      "PostData":true,
      "LabelWidth":17,
      "Width":100,
      "Label": "Is Letter"
    },
    {
      "Name": "ActivityApplicableStagesValue",
      "Type": "string",
      "Required": false,
      "ValidRegEx": "",
      "PostData":false,
      "DefaultValue": "",
      "width": "400px",
      "Label": " Applicable Stages "
    },
    {
      "Name": "ActivityFundCode",
      "Type": "string",
      "Required": false,
      "ValidRegEx": "",
      "DefaultValue": "NONE",
      "width": "400px",
      "PostData":true
    },
    {
      "Name": "ReviewCheckListId",
      "Type": "number",
      "Required": false,
      "ValidRegEx": "",
      "DefaultValue": -1,
      "PostData":true,
      "width": "400px"
    },
    {
      "Name": "ActivityIsTravel",
      "Type": "number",
      "Required": false,
      "ValidRegEx": "",
      "DefaultValue": 1,
      "PostData":true,
      "width": "400px"
    },
    {
      "Name": "ActivityRecoveryType",
      "Type": "number",
      "Required": false,
      "ValidRegEx": "",
      "DefaultValue": 1,
      "PostData":true,
      "width": "400px"
    }
  ]
}