{
    "ObjectFields": [
        {
            "ActivityName": {
                "PicklistUrl": "ActivityRecruitmentProcess",
                "PicklistDisplayText": "Code,Name",
                "PicklistSearchFields": "Code,Name",
                "Multiple": false,
                "PicklistSelection": "Id",
                "PicklistTitle": "Code",
                "Label": "Activity*",
                "Width": 300,
                "AddNew": true,
                "MaxLength": 20,
                "ColumnWidth": "200",
                "ColumnType": "string",
                "PlaceHolder": "Enter Activity"
            },
            "AssetTypeName": {
                "PicklistUrl": "AssetType",
                "PicklistDisplayText": "Code,Name",
                "PicklistSearchFields": "Code,Name",
                "Multiple": false,
                "PicklistSelection": "Id",
                "PicklistTitle": "Name",
                "Label": "Asset Type*",
                "Width": 300,
                "AddNew": false,
                "MaxLength": 10,
                "ColumnWidth": "200",
                "ColumnType": "string",
                "LinkId": "AssetTypeId",
                "PlaceHolder": "Select Asset Type"
            },
            "ResourceTypeName": {
                "PicklistUrl": "ResourceType",
                "PicklistDisplayText": "Code,Name",
                "PicklistSearchFields": "Code,Name",
                "Multiple": false,
                "PicklistSelection": "Id",
                "PicklistTitle": "Name",
                "Label": "Resource Type*",
                "Width": 300,
                "AddNew": false,
                "MaxLength": 10,
                "ColumnWidth": "200",
                "ColumnType": "string",
                "LinkId": "ResourceTypeId",
                "PlaceHolder": "Select Resource Type"
            },
            "MachineTypeName": {
                "PicklistUrl": "MachineTypeMaterial",
                "PicklistDisplayText": "MachineTypePicklistCode,MachineTypePicklistName",
                "PicklistSearchFields": "Code,Name",
                "Multiple": false,
                "PicklistSelection": "MachineTypePicklistId",
                "PicklistTitle": "MachineTypePicklistName",
                "Label": "Machine Type*",
                "Width": 300,
                "AddNew": false,
                "MaxLength": 10,
                "ColumnWidth": "200",
                "ColumnType": "string",
                "LinkId": "MachineTypeId",
                "PlaceHolder": "Select Machine Type"
            }
        },
        {
            "Name": "ActivityMaterialNature",
            "Type": "number",
            "Required": true,
            "ValidRegEx": "",
            "DefaultValue": 0,
            "PostData": true,
            "width": "400px",
            "Label": "Nature*",
            "PickLists": [
                {
                    "key": 0,
                    "value": "Asset Type"
                },
                {
                    "key": 1,
                    "value": "Resource Type"
                },
                {
                    "key": 2,
                    "value": "Machine Type"
                }
            ]
        },
        {
            "Name": "AssetTypeId",
            "Type": "number",
            "Required": false,
            "PostData": true,
            "ValidRegEx": "",
            "DefaultValue": -1
        },
        {
            "Name": "AssetTypeName",
            "Type": "string",
            "Label": "Asset Type*",
            "Required": false,
            "ValidRegEx": "",
            "PostData": true,
            "DefaultValue": ""
        },
        {
            "Name": "ActivityCode",
            "Type": "string",
            "Label": "Asset Type*",
            "Required": false,
            "ValidRegEx": "",
            "PostData": true,
            "DefaultValue": ""
        },
        {
            "Name": "ResourceTypeId",
            "Type": "number",
            "Required": false,
            "PostData": true,
            "ValidRegEx": "",
            "DefaultValue": -1
        },
        {
            "Name": "ResourceTypeName",
            "Type": "string",
            "Label": "Resource Type*",
            "Required": false,
            "ValidRegEx": "",
            "PostData": true,
            "DefaultValue": ""
        },
        {
            "Name": "MachineTypeId",
            "Type": "number",
            "Required": false,
            "PostData": true,
            "ValidRegEx": "",
            "DefaultValue": -1
        },
        {
            "Name": "MachineTypeName",
            "Type": "string",
            "Label": "Machine Type*",
            "Required": false,
            "ValidRegEx": "",
            "PostData": true,
            "DefaultValue": ""
        },
        {
            "Name": "ActivityId",
            "Type": "number",
            "Required": false,
            "PostData": true,
            "ValidRegEx": "",
            "DefaultValue": 0
        },
        {
            "Name": "ActivityName",
            "Type": "string",
            "Label": "Activity*",
            "Required": true,
            "ValidRegEx": "",
            "PostData": true,
            "DefaultValue": ""
        },
        {
            "Name": "ActivityCode",
            "Type": "string",
            "Label": "Activity*",
            "Required": false,
            "ValidRegEx": "",
            "PostData": true,
            "DefaultValue": ""
        },
        {
            "Name": "ActivityMaterialRemarks",
            "Type": "string",
            "Label": "Remarks*",
            "Placeholder": "Enter Remarks",
            "Required": true,
            "PostData": true,
            "ValidRegEx": "",
            "DefaultValue": "",
            "Width": 200,
            "MaxLength": 1000
        },
        {
            "Name": "AssetTypeMaterialArray",
            "Type": "string",
            "IsFieldRequired": false,
            "Grid": [
                {
                    "Label": "#",
                    "value": "ActivityMaterialSlNo",
                    "width": 50,
                    "Type": "SNo",
                    "IsVisible": true,
                    "SNo": 1,
                    "sticky": true,
                    "left": 0
                },
                {
                    "value": "ActivityMaterialId",
                    "Type": "number",
                    "Required": false,
                    "IsVisible": false,
                    "DefaultValue": 0
                },
                {
                    "value": "AssetTypeId",
                    "Type": "number",
                    "Required": false,
                    "IsVisible": false,
                    "DefaultValue": 0
                },
                {
                    "Label": "AssetTypeName",
                    "value": "Asset Type*",
                    "width": 200,
                    "Type": "Picklist",
                    "Required": false,
                    "sticky": false,
                    "left": 0,
                    "PicklistDetail": {
                        "PicklistUrl": "AssetType",
                        "PicklistDisplayText": "Code,Name",
                        "PicklistSearchFields": "Code,Name",
                        "Multiple": false,
                        "AddNew": false,
                        "Width": 175,
                        "Label": "",
                        "MaxLength": 35,
                        "PicklistSelection": "Id",
                        "PicklistTitle": "Name",
                        "ColumnWidth": "200",
                        "ColumnType": "string,string",
                        "LinkId": "AssetTypeId"
                    },
                    "IsVisible": false
                },
                {
                    "value": "ResourceTypeId",
                    "Type": "number",
                    "Required": false,
                    "IsVisible": false,
                    "DefaultValue": 0
                },
                {
                    "Label": "ResourceTypeName",
                    "value": "Resource Type*",
                    "width": 200,
                    "Type": "Picklist",
                    "Required": false,
                    "sticky": false,
                    "left": 0,
                    "PicklistDetail": {
                        "PicklistUrl": "ResourceType",
                        "PicklistDisplayText": "Code,Name",
                        "PicklistSearchFields": "Code,Name",
                        "Multiple": false,
                        "AddNew": false,
                        "Width": 175,
                        "Label": "",
                        "MaxLength": 35,
                        "PicklistSelection": "Id",
                        "PicklistTitle": "Name",
                        "ColumnWidth": "200",
                        "ColumnType": "string,string",
                        "LinkId": "ResourceTypeId"
                    },
                    "IsVisible": false
                },
                {
                    "value": "MachineTypeId",
                    "Type": "number",
                    "Required": false,
                    "IsVisible": false,
                    "DefaultValue": 0
                },
                {
                    "Label": "MachineTypeName",
                    "value": "Machine Type*",
                    "width": 200,
                    "Type": "Picklist",
                    "Required": false,
                    "sticky": false,
                    "DefaultId": true,
                    "left": 0,
                    "PicklistDetail": {
                        "PicklistUrl": "MachineTypeMaterial",
                        "PicklistDisplayText": "MachineTypePicklistCode,MachineTypePicklistName",
                        "PicklistSearchFields": "Code,Name",
                        "Multiple": false,
                        "AddNew": false,
                        "Width": 175,
                        "Label": "",
                        "MaxLength": 35,
                        "PicklistSelection": "MachineTypePicklistId",
                        "PicklistTitle": "MachineTypePicklistName",
                        "ColumnWidth": "200",
                        "ColumnType": "string,string",
                        "LinkId": "MachineTypeId"
                    },
                    "IsVisible": false
                },
                {
                    "value": "ActivityId",
                    "Type": "number",
                    "Required": false,
                    "IsVisible": false,
                    "DefaultValue": 0,
                    "DefaultId": true
                },
                {
                    "Label": "ActivityName",
                    "value": "Activity*",
                    "width": 200,
                    "Type": "Picklist",
                    "Required": false,
                    "sticky": false,
                    "left": 0,
                    "PicklistDetail": {
                        "PicklistUrl": "ActivityRecruitmentProcess",
                        "PicklistDisplayText": "Code,Name",
                        "PicklistSearchFields": "Code,Name",
                        "Multiple": false,
                        "AddNew": false,
                        "Width": 175,
                        "Label": "",
                        "MaxLength": 35,
                        "PicklistSelection": "Id",
                        "PicklistTitle": "Name",
                        "ColumnWidth": "200",
                        "ColumnType": "string,string",
                        "LinkId": "ActivityId"
                    },
                    "IsVisible": false
                },
                {
                    "Label": "Remarks",
                    "value": "ActivityMaterialRemarks",
                    "Type": "string",
                    "IsVisible": false,
                    "width": 150,
                    "MaxLength": 200,
                    "Required": true,
                    "sticky": false,
                    "DefaultValue": ""
                },
                {
                    "Label": "Nature",
                    "value": "ActivityMaterialNature",
                    "width": 200,
                    "Type": "ComboBox",
                    "IsVisible": false,
                    "sticky": false,
                    "left": 250,
                    "PickLists": [
                        {
                            "key": 0,
                            "value": "Asset Type"
                        },
                        {
                            "key": 1,
                            "value": "Resource Type"
                        },
                        {
                            "key": 2,
                            "value": "Machine Type"
                        }
                    ],
                    "DefaultValue": 0
                },
                {
                    "Name": "ActivityMaterialVersion",
                    "Type": "number",
                    "Required": false,
                    "PostData": true,
                    "ValidRegEx": "",
                    "DefaultValue": 1
                },
                {
                    "Label": "ItemId",
                    "value": "ItemId",
                    "Type": "number",
                    "Required": false,
                    "IsVisible": false,
                    "DefaultValue": -1,
                    "DefaultId": true
                },
                {
                    "Label": "Item",
                    "value": "ItemName",
                    "Type": "Picklist",
                    "PostData": true,
                    "sticky": false,
                    "width": 160,
                    "left": 50,
                    "PicklistDetail": {
                        "PicklistUrl": "DieMasterItem",
                        "PicklistDisplayText": "Code,Name",
                        "PicklistSearchFields": "Code",
                        "Multiple": false,
                        "AddNew": false,
                        "Required": true,
                        "width": 160,
                        "LinkId": "ItemId,ItemName,ItemStockUOMName",
                        "LinkValue": "Id,Name,StockUOMName",
                        "PicklistSelection": "Id",
                        "PicklistTitle": "Name",
                        "PlaceHolder": "Select Item",
                        "Label": "",
                        "MaxLength": 20,
                        "ColumnWidth": "150,250",
                        "ColumnType": "string,string"
                    },
                    "IsVisible": true,
                    "SNo": 2
                },
                {
                    "value": "SkuId",
                    "Type": "number",
                    "Required": false,
                    "IsVisible": false,
                    "DefaultValue": -1,
                    "DefaultId": true
                },
                {
                    "Label": "SKU",
                    "value": "SKUName",
                    "width": 200,
                    "Type": "Picklist",
                    "Required": false,
                    "sticky": false,
                    "left": 0,
                    "PicklistDetail": {
                        "PicklistUrl": "SKUType",
                        "PicklistDisplayText": "Code,Name",
                        "PicklistSearchFields": "Code,Name",
                        "Multiple": false,
                        "AddNew": false,
                        "Width": 175,
                        "Label": "",
                        "MaxLength": 35,
                        "PicklistSelection": "Id",
                        "PicklistTitle": "Name",
                        "ColumnWidth": "200",
                        "ColumnType": "string,string",
                        "LinkId": "SkuId"
                    },
                    "IsVisible": true,
                    "SNo": 3
                },
                {
                    "Label": "Duration",
                    "value": "ActivityMaterialDuration",
                    "Type": "number",
                    "IsVisible": true,
                    "SNo": 4,
                    "width": 150,
                    "MaxLength": 20,
                    "Required": true,
                    "sticky": false,
                    "DefaultValue": 0
                },
                {
                    "Label": "Quantity",
                    "value": "ActivityMaterialQuantity",
                    "Type": "number",
                    "IsVisible": true,
                    "SNo": 5,
                    "width": 150,
                    "MaxLength": 20,
                    "Required": true,
                    "sticky": false,
                    "DefaultValue": 0
                },
                {
                    "Label": "UOM",
                    "value": "ItemStockUOMName",
                    "DependendField": "ItemName",
                    "Type": "ReadOnly",
                    "Placeholder": "Enter Remarks",
                    "PostData": true,
                    "Required": true,
                    "ValidRegEx": "",
                    "IsVisible": true,
                    "DefaultValue": "",
                    "MaxLength": 4,
                    "width": 150,
                    "SNo": 6
                },
                {
                    "Label": "Option",
                    "value": "ActivityMaterialUsageType",
                    "width": 200,
                    "Type": "ComboBox",
                    "IsVisible": true,
                    "sticky": false,
                    "SNo": 7,
                    "left": 250,
                    "PickLists": [
                        {
                            "key": 0,
                            "value": "Optional"
                        },
                        {
                            "key": 1,
                            "value": "Compulsary"
                        }
                    ],
                    "DefaultValue": 0
                }
            ]
        }
    ]
}