{
  "ObjectFields": [
    {
      "BinNumber": {
        "PicklistUrl": "Bin",
        "PicklistDisplayText": "Number",
        "PicklistSearchFields": "Number",
        "Multiple": false,
        "SLno": 1,
        "PlaceHolder": "Enter Number",
        "PicklistSelection": "Id",
        "PicklistTitle": "Number",
        "Label": "Bin Number*",
        "Width": 160,
        "AddNew": true,
        "MaxLength": 25,
        "ColumnWidth": "200",
        "ColumnType": "string,string",
        "isKeyField": true
      },
      "WareHouseName": {
        "PicklistUrl": "Warehouse",
        "PicklistDisplayText": "Code,Name",
        "PicklistSearchFields": "Code,Name",
        "Multiple": false,
        "PlaceHolder": "Select Ware House",
        "PicklistSelection": "Id",
        "PicklistTitle": "Name",
        "Label": "Ware House*",
        "Width": 360,
        "LinkId":"WareHouseId",
        "LabelWidth": 99,
        "AddNew": false,
        "MaxLength": 100,
        "ColumnWidth": "200",
        "ColumnType": "string,string"
      },
      "BinTypeName": {
        "PicklistUrl": "Bintype",
        "PicklistDisplayText": "Code,Name",
        "PicklistSearchFields": "Code,Name",
        "Multiple": false,
        "PicklistSelection": "Id",
        "PicklistTitle": "Name",
        "PlaceHolder": "Select Bin Type",
        "Label": " Bin Type*",
        "LinkId": "BinTypeId",
        "Width": 360,
        "LabelWidth": 99,
        "AddNew": false,
        "MaxLength": 100,
        "ColumnWidth": "200,300",
        "ColumnType": "string,string"
      }
    },
    {
      "Name": "BinId",
      "Type": "number",
      "Required": false,
      "PostData": true,
      "ValidRegEx": "",
      "DefaultValue": 0
    },
    {
      "Name": "BinNumber",
      "Type": "string",
      "Required": true,
      "ValidRegEx": "",
      "DefaultValue": "",
      "PostData": true,
      "Label": "Bin Number*"
    },
    {
      "Name": "BinWareHouseAreaId",
      "Type": "number",
      "Required": false,
      "PostData": true,
      "ValidRegEx": "",
      "DefaultValue": -1
    },
    {
      "Name": "BinStorageSectionId",
      "Type": "number",
      "Required": false,
      "PostData": true,
      "ValidRegEx": "",
      "DefaultValue": -1
    },
    {
      "Name": "WareHouseId",
      "Type": "number",
      "Required": false,
      "PostData": true,
      "ValidRegEx": "",
      "DefaultValue": -1
    },
    {
      "Name": "WareHouseName",
      "Type": "string",
      "Required": true,
      "ValidRegEx": "",
      "DefaultValue": "",
      "PostData": false,
      "Label": "Ware House*"
    },
    {
      "Name": "BinTypeId",
      "Type": "number",
      "Required": true,
      "PostData": true,
      "ValidRegEx": "",
      "DefaultValue": -1
    },
    {
      "Name": "BinTypeName",
      "Type": "string",
      "Required": true,
      "ValidRegEx": "",
      "DefaultValue": "",
      "PostData": false,
      "Label": "Bin Type*"
    },
    {
      "Name": "BinCubage",
      "Type": "number",
      "Mask":"00000",
      "Required": true,
      "ValidRegEx": "", 
      "DefaultValue": 0,
      "MaxLength": 5,
      "Width": 120,
      "LabelWidth": 99,
      "PostData": true,
      "Placeholder": "Enter Cubage",
      "Label": "Cubage"
    },
    {
      "Name": "BinRemarks",
      "Type": "string",
      "Required": false,
      "ValidRegEx": "",
      "DefaultValue": "",
      "PostData": true,
      "Width": 360,
      "MaxLength": 100,
      "LabelWidth": 99,
      "Placeholder": "Enter the Remarks",
      "Label": "Remarks"
    },
    {
      "Name": "BinBinStatus",
      "Type": "number",
      "Required": false,
      "ValidRegEx": "",
      "LabelWidth": 99,
      "Label": "Bin Status",
      "Placeholder": "",
      "Width": 120,
      "DefaultValue": 0,
      "PickLists": [
        {
          "key": 0,
          "value": "Request"
        },
        {
          "key": 1,
          "value": "Ordered"
        },
        {
          "key": 2,
          "value": "WIP"
        },
        {
          "key": 3,
          "value": "Capitalized"
        },
        {
          "key": 4,
          "value": "Retired"
        }
      ]
    },
    {
      "Name": "BinCreatedOn",
      "Type": "string",
      "Required": false,
      "PostData": true,
      "ValidRegEx": "",
      "DefaultValue": "/Date(1713616140000)/"
    },
    {
      "Name": "BinModifiedOn",
      "Type": "string",
      "Required": false,
      "PostData": true,
      "ValidRegEx": "",
      "DefaultValue": "/Date(1713616140000)/"
    },
    {
      "Name": "BinModifiedByName",
      "Type": "string",
      "Required": false,
      "PostData": true,
      "ValidRegEx": "",
      "DefaultValue": "ADMIN"
    },
    {
      "Name": "BinCreatedByName",
      "Type": "string",
      "Required": false,
      "PostData": true,
      "ValidRegEx": "",
      "DefaultValue": "ADMIN"
    },
    {
      "Name": "BinCreatedById",
      "Type": "number",
      "Required": false,
      "PostData": true,
      "ValidRegEx": "",
      "DefaultValue": -1
    },
    {
      "Name": "BinModifiedById",
      "Type": "number",
      "Required": false,
      "PostData": true,
      "ValidRegEx": "",
      "DefaultValue": -1
    },
    {
      "Name": "BinStatus",
      "Type": "number",
      "Required": false,
      "PostData": true,
      "ValidRegEx": "",
      "DefaultValue": 1
    },
    {
      "Name": "BinVersion",
      "Type": "number",
      "Required": false,
      "PostData": true,
      "ValidRegEx": "",
      "DefaultValue": 1
    },
    {
      "Name": "BinSortOrder",
      "Type": "number",
      "Required": false,
      "PostData": true,
      "ValidRegEx": "",
      "DefaultValue": 9999
    }
  ]
}