{
  "ObjectFields": [
    {
      "CallSetCode": {
        "PicklistUrl": "CallSet",
        "PicklistDisplayText": "Code,Name",
        "PicklistSearchFields": "Code",
        "Multiple": false,
        "PicklistSelection": "Id",
        "PicklistTitle": "Code",
        "Label": "Code*",
        "Width": 200,
        "AddNew": true,
        "MaxLength": 20,
        "ColumnWidth": "150,250",
        "ColumnType": "string,string"
      },
      "CallSetName": {
        "PicklistUrl": "CallSet",
        "PicklistDisplayText": "Code,Name",
        "PicklistSearchFields": "Name",
        "Multiple": false,
        "PicklistSelection": "Id",
        "PicklistTitle": "Name",
        "Label": "Name*",
        "Width": 200,
        "AddNew": true,
        "MaxLength": 50,
        "ColumnWidth": "150,250",
        "ColumnType": "string,string"
      }
    },
    {
      "Name": "CallSetId",
      "Type": "number",
      "Required": true,
      "ValidRegEx": "",
      "DefaultValue": 0,
      "Width": "400"
    },
    {
      "Name": "CallSetCode",
      "Type": "string",
      "Required": true,
      "ValidRegEx": "",
      "DefaultValue": "",
      "Width": "400",
      "Label": "Code",
      "Placeholder": ""
    },
    {
      "Name": "CallSetName",
      "Type": "string",
      "Required": true,
      "ValidRegEx": "",
      "DefaultValue": "",
      "Width": "400",
      "Label": "Name",
      "Placeholder": ""
    },
    {
      "Name": "CallSetRemarks",
      "Type": "string",
      "Required": false,
      "ValidRegEx": "",
      "DefaultValue": "",
      "Width": "200",
      "Label": "Remarks",
      "Placeholder": ""
    },
    {
      "Name": "CallSetCreatedOn",
      "Type": "string",
      "Required": false,
      "ValidRegEx": "",
      "DefaultValue": "",
      "Width": "400",
      "LabelWidth": 130,
      "Placeholder": ""
    },
    {
      "Name": "CallSetModifiedOn",
      "Type": "string",
      "Required": false,
      "ValidRegEx": "",
      "DefaultValue": "",
      "Width": "400",
      "LabelWidth": 130,
      "Placeholder": ""
    },
    {
      "Name": "CallSetModifiedByName",
      "Type": "string",
      "Required": false,
      "ValidRegEx": "",
      "DefaultValue": "",
      "Width": "400",
      "LabelWidth": 130,
      "Placeholder": ""
    },
    {
      "Name": "CallSetStatus",
      "Type": "number",
      "Required": false,
      "ValidRegEx": "",
      "DefaultValue": "",
      "Width": "400",
      "LabelWidth": 130,
      "Placeholder": ""
    },
    {
      "Name": "CallSetVersion",
      "Type": "number",
      "Required": false,
      "ValidRegEx": "",
      "DefaultValue": "",
      "Width": "400",
      "LabelWidth": 130,
      "Placeholder": ""
    },
    {
      "Name": "CallSetDetailArray",
      "Type": "string",
      "Label": "",
      "Tooltip": "",
      "Placeholder": "",
      "Required": false,
      "Grid": [
        {
          "Label": "Id",
          "value": "CallSetId",
          "width": 0,
          "Type": "ReadOnly",
          "Required": true,
          "IsVisible": false,
          "SNo": 9
        },
        {
          "Label": "Id",
          "value": "CallTypeId",
          "width": 0,
          "Type": "ReadOnly",
          "Required": true,
          "IsVisible": false,
          "SNo": 10
        },
        {
          "Label": "Id",
          "value": "CallNatureId",
          "width": 0,
          "Type": "ReadOnly",
          "Required": true,
          "IsVisible": false,
          "SNo": 11
        },
        {
          "Label": "Id",
          "value": "CallPriorityId",
          "width": 0,
          "Type": "ReadOnly",
          "Required": true,
          "IsVisible": false,
          "SNo": 12
        },
        {
          "Label": "Id",
          "value": "CallSetDetailId",
          "width": 0,
          "Type": "ReadOnly",
          "Required": true,
          "IsVisible": false,
          "SNo": 13
        },
        {
          "Label": "#",
          "value": "CallSetDetailSlNo",
          "width": 50,
          "Type": "SNo",
          "IsVisible": true,
          "SNo": 1,
          "sticky": true,
          "left": 0
        },
        {
          "Label": "Type",
          "value": "CallTypeName",
          "Type": "Picklist",
          "PostData": true,
          "sticky": false,
          "left": 100,
          "PicklistDetail": {
            "PicklistUrl": "GCM",
            "PicklistDisplayText": "Code,Name",
            "PicklistSearchFields": "Name",
            "Multiple": false,
            "AddNew": false,
            "Width": 100,
            "LinkId": "CallTypeId",
            "PicklistSelection": "Id",
            "PicklistTitle": "Name",
            "Label": "",
            "MaxLength": 20,
            "ColumnWidth": "150,250",
            "ColumnType": "string,string",
            "PicklistCriteria": "CallSetType"
          },
          "IsVisible": true,
          "SNo": 2
        },
        {
          "Label": "Nature",
          "value": "CallNatureName",
          "Type": "Picklist",
          "PostData": true,
          "sticky": false,
          "left": 100,
          "PicklistDetail": {
            "PicklistUrl": "GCM",
            "PicklistDisplayText": "Code,Name",
            "PicklistSearchFields": "Name",
            "Multiple": false,
            "AddNew": false,
            "Width": 100,
            "LinkId": "CallNatureId",
            "PicklistSelection": "Id",
            "PicklistTitle": "Name",
            "Label": "",
            "MaxLength": 20,
            "ColumnWidth": "150,250",
            "ColumnType": "string,string",
            "PicklistCriteria": "CallSetNature"
          },
          "IsVisible": true,
          "SNo": 3
        },
        {
          "Label": "Priority",
          "value": "CallPriorityName",
          "Type": "Picklist",
          "PostData": true,
          "sticky": false,
          "left": 100,
          "PicklistDetail": {
            "PicklistUrl": "GCM",
            "PicklistDisplayText": "Code,Name",
            "PicklistSearchFields": "Name",
            "Multiple": false,
            "AddNew": false,
            "Width": 100,
            "LinkId": "CallPriorityId",
            "PicklistSelection": "Id",
            "PicklistTitle": "Name",
            "Label": "",
            "MaxLength": 20,
            "ColumnWidth": "150,250",
            "ColumnType": "string,string",
            "PicklistCriteria": "CallSetPriority"
          },
          "IsVisible": true,
          "SNo": 4
        },
        {
          "Label": "Number",
          "value": "CallSetDetailNumber",
          "width": 60,
          "Type": "number",
          "DefaultValue": 0,
          "IsVisible": true,
          "SNo": 5,
          "sticky": false,
          "Required": false,
          "left": 0
        },
        {
          "Label": "Period",
          "value": "CallSetDetailPeriod",
          "width": 60,
          "Type": "number",
          "DefaultValue": 0,
          "IsVisible": true,
          "SNo": 6,
          "sticky": false,
          "Required": false,
          "left": 0
        },
        {
          "Label": "Period Type",
          "value": "CallSetDetailPeriodType",
          "width": 150,
          "Type": "ComboBox",
          "IsVisible": true,
          "SNo": 7,
          "sticky": false,
          "DefaultValue": 0,
          "PickLists": [
            {
              "key": 0,
              "value": "Days"
            },
            {
              "key": 1,
              "value": "Months"
            }
          ]
        }
      ]
    }
  ]
}