{
    "ObjectFields": [
        {
            "CountryCode":{
                "PicklistUrl": "Country",
                "PicklistDisplayText": "Code,Name",
                "PicklistSearchFields": "Code,Name",
                "PlaceHolder": "Enter Code",
                "SLno":1,
                "Multiple": false,
                "PicklistSelection": "Id",
                "PicklistTitle": "Code",
                "Label": "Code*",
                "Width": 160,
                "AddNew": true,
                "MaxLength": 10,
                "ColumnWidth": "200",
                "ColumnType": "string,string",
                "isKeyField": true
            },
            "CountryName":{
                "PicklistUrl": "Country",
                "PicklistDisplayText": "Code,Name",
                "PicklistSearchFields": "Code,Name",
                "PlaceHolder": "Enter Name",
                "Multiple": false,
                "PicklistSelection": "Id",
                "PicklistTitle": "Name",
                "Label": "Name*",
                "Width": 360,
                "AddNew": true,
                "MaxLength": 35,
                "ColumnWidth": "200",
                "ColumnType": "string,string",
                "isKeyField": true
            }
        },
        {
            "Name": "CountryId",
            "Type": "number",
            "Required": false,
            "ValidRegEx": "",
            "PostData": true,
            "DefaultValue": 0
        },
        {
            "Name": "CountryCode",
            "Type": "string",
            "Label": "Code*",
            "Required": true,
            "ValidRegEx": "",
            "PostData": true,
            "DefaultValue": ""
        },
        {
            "Name": "CountryName",
            "Type": "string",
            "Label": "Name*",
            "Required": true,
            "ValidRegEx": "",
            "PostData": true,
            "DefaultValue": ""
        },
        {
            "Name": "CountryCreatedOn",
            "Type": "string",
            "Required": false,
            "ValidRegEx": "",
            "PostData": true,
            "DefaultValue": "/Date(1708687260000)/"
        },
        {
            "Name": "CountryModifiedOn",
            "Type": "string",
            "Required": false,
            "ValidRegEx": "",
            "PostData": true,
            "DefaultValue": "/Date(1708687260000)/"
        },
        {
            "Name": "CountryModifiedByName",
            "Type": "string",
            "Required": false,
            "ValidRegEx": "",
            "PostData": true,
            "DefaultValue": "ADMIN"
        },
        {
            "Name": "CountryCreatedByName",
            "Type": "string",
            "Required": false,
            "ValidRegEx": "",
            "PostData": true,
            "DefaultValue": "ADMIN"
        },
        {
            "Name": "CountryISDCode",
            "Type": "number",
            "Required": false,
            "ValidRegEx": "",
            "width":200,
            "PostData": true,
            "MaxLength": 10,
            "Label": "ISD Code",
            "LabelWidth":134,
            "Placeholder": "Enter ISD code"
        },
        {
            "Name": "CountryStatus",
            "Type": "number",
            "Required": false,
            "ValidRegEx": "",
            "PostData": true,
            "DefaultValue": 1
        },
        {
            "Name": "CountryGstCountryCode",
            "Type": "string",
            "Required": true,
            "width":200,
            "ValidRegEx": "",
            "PostData": true,
            "LabelWidth":134,
            "DefaultValue": "",
            "Label": "Gst Country Code*",
            "Placeholder": "Enter Gst Country Code",
            "MaxLength": 2
        },
        { 
            "Name": "CountryVersion",
            "Type": "number",
            "Required": false,
            "ValidRegEx": "",
            "PostData": true,
            "DefaultValue": 1
        }
    ]
}