{
    "ObjectFields": [
        {
            "DimensionCode": {
                "PicklistUrl": "Dimension",
                "PicklistDisplayText": "Code,Name",
                "PicklistSearchFields": "Code,Name",
                "Multiple": false,
                "SLno":1,
                "PlaceHolder": "Enter Code",
                "PicklistSelection": "Id",
                "PicklistTitle": "Code",
                "Label": "Code *",
                "Width": 160,
                "AddNew": true,
                "MaxLength": 10,
                "ColumnWidth": "200,300",
                "ColumnType": "string,string",
                "isKeyField": true
            },
            "DimensionName": {
                "PicklistUrl": "Dimension",
                "PicklistDisplayText": "Code,Name",
                "PicklistSearchFields": "Code,Name",
                "Multiple": false,
                "PlaceHolder": "Enter Name",
                "PicklistSelection": "Id",
                "PicklistTitle": "Name",
                "Label": "Name *",
                "Width": 360,
                "AddNew": true,
                "MaxLength": 30,
                "ColumnWidth": "200,300",
                "ColumnType": "string,string",
                "isKeyField": true
            }
        },
        {
            "Name": "DimensionId",
            "Type": "number",
            "Required": true,
            "PostData": true,
            "ValidRegEx": "",
            "DefaultValue": 0
        },
        {
            "Name": "DimensionCode",
            "Type": "string",
            "Required": true,
            "PostData": true,
            "ValidRegEx": "",
            "DefaultValue": "",
            "Label": "Code *"
        },
        {
            "Name": "DimensionName",
            "Type": "string",
            "Required": true,
            "PostData": true,
            "ValidRegEx": "",
            "DefaultValue": "",
            "Label": "Name *"
        },
        {
            "Name": "DimensionStatus",
            "Type": "number",
            "Required": false,
            "PostData": true,
            "ValidRegEx": "",
            "DefaultValue": 1
        },
        {
            "Name": "DimensionVersion",
            "Type": "number",
            "Required": false,
            "PostData": true,
            "ValidRegEx": "",
            "DefaultValue": 1
        },
        {
            "Name": "DimensionCreatedOn",
            "Type": "string",
            "Required": false,
            "PostData": true,
            "ValidRegEx": "",
            "DefaultValue": "/Date(1711965240000)/"
        },
        {
            "Name": "DimensionModifiedOn",
            "Type": "string",
            "Required": false,
            "PostData": true,
            "ValidRegEx": "",
            "DefaultValue": "/Date(1711965240000)/"
        },
        {
            "Name": "DimensionCreatedByName",
            "Type": "string",
            "Required": false,
            "PostData": true,
            "ValidRegEx": "",
            "DefaultValue": "ADMIN"
        },
        {
            "Name": "DimensionModifiedByName",
            "Type": "string",
            "Required": false,
            "PostData": true,
            "ValidRegEx": "",
            "DefaultValue": "ADMIN"
        },
        {
            "Name": "DimensionSourceType",
            "Type": "number",
            "Required": false,
            "PostData": true,
            "ValidRegEx": "",
            "DefaultValue": 5
        }
    ]
}