{
    "ObjectFields": [
        {

            "EventChannelCode":{
                "SLno":1,
                "PicklistUrl": "EventChannel",
                "PicklistDisplayText": "Code,Name",
                "PicklistSearchFields": "Code,Name",
                "Multiple": false,
                "PicklistSelection": "Id",
                "PicklistTitle": "Code",
                "Label": "Code*",
                "Width": 160,
                "AddNew": true,
                "MaxLength": 10,
                "ColumnWidth": "200,450",
                "ColumnType": "string",
                "isKeyField":"true",
                "PlaceHolder": "Enter Code"
            },
            "EventChannelName":{
                "PicklistUrl": "EventChannel",
                "PicklistDisplayText": "Code,Name",
                "PicklistSearchFields": "Code,Name",
                "Multiple": false,
                "PicklistSelection": "Id",
                "PicklistTitle": "Code",
                "Label": "Name*",
                "Width": 360,
                "AddNew": true,
                "MaxLength": 35,
                "ColumnWidth": "200,450",
                "ColumnType": "string",
                "PlaceHolder": "Enter Name",
                "isKeyField":"true"
            },
            "OwnerName":{
                "PicklistUrl": "CounterSuperVisor",
                "PicklistDisplayText": "Code,Name",
                "PicklistSearchFields": "Code,Name",
                "Multiple": false,
                "PicklistSelection": "Id",
                "PicklistTitle": "Name",
                "Label": "Owner*",
                "Width": 360,
                "AddNew": false,
                "ColumnWidth": "200,450",
                "ColumnType": "string",
                "LabelWidth":105,
                "MaxLength": 50,
               "LinkId":"OwnerId",
               "PlaceHolder": "Select Owner"
            },
            "AdministratorName":{
                "PicklistUrl": "CounterSuperVisor",
                "PicklistDisplayText": "Code,Name",
                "PicklistSearchFields": "Code,Name",
                "Multiple": false,
                "PicklistSelection": "Id",
                "PicklistTitle": "Name",
                "Label": "Administrator*",
                "Width": 360,
                "AddNew": false,
                "MaxLength": 50,
                "ColumnWidth": "200,450",
                "ColumnType": "string",
               "LinkId":"AdministratorId",
               "LabelWidth":105,
               "PlaceHolder": "Select Administrator"
            }
                },
        {
            "Name": "EventChannelId",
            "Type": "number",
            "Required": false,
            "PostData": true,
            "ValidRegEx": "",
            "DefaultValue": 0
        },
        {
            "Name": "EventChannelCode",
            "Type": "string",
            "Label": "Code*",
            "Required": true,
            "ValidRegEx": "",
            "PostData": true,
            "DefaultValue": ""
        },
        {
            "Name": "EventChannelName",
            "Type": "string",
            "Label": "Name*",
            "Required": true,
            "ValidRegEx": "",
            "PostData": true,
            "DefaultValue": ""
        },
        {
            "Name": "OwnerId",
            "Type": "number",
            "Required": false,
            "PostData": true,
            "ValidRegEx": "",
            "DefaultValue": -1
        },
        {
            "Name": "OwnerName",
            "Type": "string",
            "Label": "Owner*",
            "Required": true,
            "ValidRegEx": "",
            "PostData": true,
            "DefaultValue": ""
        },
        {
            "Name": "AdministratorId",
            "Type": "number",
            "Required": false,
            "PostData": true,
            "ValidRegEx": "",
            "DefaultValue": -1
        },
        {
            "Name": "AdministratorName",
            "Type": "string",
            "Label": "Administrator*",
            "Required": true,
            "ValidRegEx": "",
            "PostData": true,
            "DefaultValue": ""
            

        },
        {
            "Name": "EventChannelSortOrder",
            "Type": "number",
            "Label": "Sort Order*",
            "Placeholder":"Enter Sort Order",
            "Required": true,
            "PostData": true,
            "ValidRegEx": "",
            "DefaultValue":9999,
            "Width": 120,
            "LabelWidth":105,
            "MaxLength": 4
        },
        {
            "Name": "EventChannelStatus",
            "Type": "number",
            "Required": false,
            "PostData": true,
            "ValidRegEx": "",
            "DefaultValue": 1
        },
        {
            "Name": "EventChannelVersion",
            "Type": "number",
            "Required": false,
            "PostData": true,
            "ValidRegEx": "",
            "DefaultValue": 1
        },
        {
            "Name": "EventChannelCreatedByName",
            "Type": "string",
            "Required": false,
            "PostData": true,
            "ValidRegEx": "",
            "DefaultValue": "ADMIN"
        },
        {
            "Name": "EventChannelCreatedOn",
            "Type": "string",
            "Required": false,
            "PostData": true,
            "ValidRegEx": "",
            "DefaultValue": "/Date(1710333480000)/"
        },
        {
            "Name": "EventChannelModifiedByName",
            "Type": "string",
            "Required": false,
            "PostData": true,
            "ValidRegEx": "",
            "DefaultValue": "ADMIN"
        },
        {
            "Name": "EventChannelModifiedOn",
            "Type": "string",
            "Required": false,
            "PostData": true,
            "ValidRegEx": "",
            "DefaultValue": "/Date(1710333480000)/"
        }
    ]
}