{
    "ObjectFields": [
{
    "PartyExpiryName": {
        "PicklistUrl": "ExpiryItemReturn",
        "PicklistDisplayText": "Code,Name",
        "PicklistSearchFields": "Code,Name",
        "Multiple": false,
        "PicklistSelection": "Id",
        "PicklistTitle": "Name",
        "Label": "Party",
        "LabelWidth":146,
        "SLno":1,
        "Width": 360,
        "AddNew": false,
        "PostData": true,
        "PlaceHolder":"Select Party",
        "MaxLength": 10,
        "ColumnWidth": "200,300",
        "ColumnType": "string,string",
        "LinkId": "PartyId"
    },
    "BiztransactionExpiryName": {
        "PicklistUrl": "BizTransactionTypeName",
        "PicklistDisplayText": "Code,Name",
        "PicklistSearchFields": "Name",
        "Multiple": false,
        "PicklistSelection": "Id",
        "PicklistTitle": "Name",
        "Label": "Biz Transaction Type*",
        "Width": 360,
        "LabelWidth":146,
        "AddNew": false,
        "MaxLength": 10,
        "PlaceHolder":"Select Biz Transaction Type ",
        "PicklistCriteria":"ExpiryItemReturn",
        "ColumnWidth": "200,300",
        "ColumnType": "string,string",
        "LinkId": "BiztransactionId"
    }
},

{
    "Name": "PartyExpiryName",
    "Type": "string",
    "Label": "Party",
    "Required": false,
    "ValidRegEx": "",
    "PostData": true
},

{
    "Name": "BiztransactionExpiryName",
    "Type": "string",
    "Label": "BizTransaction Type*",
    "Required": true,
    "ValidRegEx": "",
    "PostData": true
},

{
    "Name": "PartyExpiryNameId",
    "Type": "number",
    "Required": true,
    "ValidRegEx": "",
    "PostData": false,
    "DefaultValue": 0,
    "Width": 100
},

{
    "Name": "BiztransactionExpiryNameId",
    "Type": "number",
    "Required": true,
    "ValidRegEx": "",
    "PostData": false,
    "DefaultValue": 0,
    "Width": 100
},
{
    "Name": "Expirydays",
    "Type": "number",
    "Required": false,
    "ValidRegEx": "",
    "PostData": false,
    "DefaultValue": 0,
    "MaxLength":5,
    "LabelWidth":48,
    "Width": 160,
    "Placeholder":"Enter Days",
    "Label":"Days"
},

{
    "Name": "DocummentDate",
    "Type": "string",
    "Required": false,
    "LabelWidth":48,
    "ValidRegEx": "",
    "PostData": false,
    "DefaultValue": "Today",
    "Width": 160,
    "Placeholder":"",
    "Label":"Date"
}

    ]
}