{
    "ObjectFields": [
        {
            "GcmTypeCode": {
                "SLno":1,
                "PicklistUrl": "GcmType",
                "PicklistDisplayText": "Code",
                "PicklistSearchFields": "Code",
                "Multiple": false,
                "PicklistSelection": "Id",
                "PicklistTitle": "Code",
                "Label": "Code*",
                "Width": 160,
                "AddNew": true,
                "MaxLength": 10,
                "ColumnWidth": "200",
                "ColumnType": "string",
                "PlaceHolder": "Enter Code",
                "isKeyField":"true"
            },
            "GcmTypeDescription": {
                "PicklistUrl": "GcmType",
                "PicklistDisplayText": "Description",
                "PicklistSearchFields": "Description",
                "Multiple": false,
                "PicklistSelection": "Id",
                "PicklistTitle": "Description",
                "Label": "Description*",
                "Width": 360,
                "AddNew": true,
                "MaxLength": 50,
                "ColumnWidth": "200",
                "ColumnType": "string",
                "PlaceHolder": "Enter Description",
                "isKeyField":"true"
            },
            "ModuleName": {
                "PicklistUrl": "Module",
                "PicklistDisplayText": "Name",
                "PicklistSearchFields": "Name",
                "Multiple": false,
                "PicklistSelection": "Id",
                "PicklistTitle": "Name",
                "Label": "Module*",
                "Width": 360,
                "AddNew": false,
                "ColumnWidth": "200",
                "ColumnType": "string",
                "LabelWidth":88,
                "LinkId": "ModuleId",
                "PlaceHolder": "Select Module"
            }
        },
        {
            "Name": "GcmTypeId",
            "Type": "number",
            "Required": false,
            "ValidRegEx": "",
            "PostData": true,
            "DefaultValue": 0
        },
        {
            "Name": "GcmTypeCode",
            "Type": "string",
            "Label": "Code*",
            "Required": true,
            "ValidRegEx": "",
            "PostData": true,
            "DefaultValue": ""
        },
        {
            "Name": "GcmTypeDescription",
            "Type": "string",
            "Label": "Description*",
            "Required": true,
            "ValidRegEx": "",
            "PostData": true,
            "DefaultValue": ""
        },
        {
            "Name": "ModuleId",
            "Type": "string",
            "Required": false,
            "PostData": true,
            "ValidRegEx": "",
            "DefaultValue": ""
        },
      
        {
            "Name": "GcmTypeCodeReq",
            "Type": "number",
            "Label": "Code Req",
            "Tooltip": "",
            "DefaultValue": 1,
            "Placeholder": "",
            "Required": false,
            "LabelWidth":88,
            "PostData": true,
            "ValidRegEx": ""
        },
        {
            "Name": "GcmTypeCodeSize",
            "Type": "number",
            "Label": "Code Size*",
            "Placeholder": "Size",
            "Required": true,
            "PostData": true,
            "ValidRegEx": "",
            "DefaultValue": "",
            "Width": 120,
            "LabelWidth":88,
            "MaxLength": 2
        },
        {
            "Name": "GcmTypeEntryType",
            "Type": "number",
            "Label": "Entry Type",
            "Tooltip": "",
            "DefaultValue": 0,
            "Width": 360,
            "Placeholder": "",
            "Required": true,
            "LabelWidth":88,
            "PostData": true,
            "ValidRegEx": "",
            "PickLists": [
                {
                    "key": 0,
                    "value": "Developer Admin"
                },
                {
                    "key": 1,
                    "value": "Admin"
                }
            ]
        },
        {
            "Name": "GcmTypeRemarks",
            "Type": "string",
            "Label": "Remarks*",
            "Placeholder": "Enter the Remarks",
            "Required": true,
            "PostData": true,
            "ValidRegEx": "",
            "DefaultValue": "",
            "Width": 360,
            "LabelWidth":89,
            "MaxLength": 200
        },
        {
            "Name": "GcmTypeIsColored",
            "Type": "number",
            "Label": "Is Colored",
            "Tooltip": "",
            "DefaultValue": 1,
            "Placeholder": "",
            "Required": false,
            "LabelWidth":92,
            "PostData": true,
            "ValidRegEx": ""
        },
        {
            "Name": "GcmTypeStatus",
            "Type": "number",
            "Required": false,
            "PostData": true,
            "ValidRegEx": "",
            "DefaultValue": 1
        },
        {
            "Name": "GcmTypeVersion",
            "Type": "number",
            "Required": false,
            "PostData": true,
            "ValidRegEx": "",
            "DefaultValue": 1
        },
        {
            "Name": "ModuleName",
            "Type": "string",
            "Label": "Module*",
            "Required": true,
            "ValidRegEx": "",
            "PostData": true,
            "DefaultValue": ""
        },
        {
            "Name": "GcmTypeCreatedOn",
            "Type": "string",
            "Required": false,
            "PostData": true,
            "ValidRegEx": "",
            "DefaultValue":"/Date(1377349147000)/"
        },
        {
            "Name": "GcmTypeModifiedOn",
            "Type": "string",
            "Required": false,
            "PostData": true,
            "ValidRegEx": "",
            "DefaultValue":"/Date(1377349147000)/"
        },
        {
            "Name": "GcmTypeCreatedByName",
            "Type": "string",
            "Required": false,
            "PostData": true,
            "ValidRegEx": "",
            "DefaultValue": "ADMIN"
        },
        {
            "Name": "GcmTypeModifiedByName",
            "Type": "string",
            "Required": false,
            "PostData": true,
            "ValidRegEx": "",
            "DefaultValue": "ADMIN"
        },
        {
            "Name": "GcmTypeSourceType",
            "Type": "string",
            "Required": false,
            "PostData": true,
            "ValidRegEx": "",
            "DefaultValue": 5
        }
    ]
}