{
    "ObjectFields": [
        {
            "ItemCode": {
                "PicklistUrl": "ItemMaster",
                "PicklistDisplayText": "Code,Name",
                "PicklistSearchFields": "Code",
                "SLno":1,
                "Multiple": false,
                "PicklistSelection": "Id",
                "PicklistTitle": "Code",
                "PlaceHolder": "Enter Code",
                "Label": "Code*",
                "Width": 160,
                "AddNew": false,
                "ColumnWidth": "170,250",
                "ColumnType": "string,string",
                "isKeyField": true
            },
            "ItemName": {
                "PicklistUrl": "ItemMaster",
                "PicklistDisplayText": "Code,Name",
                "PicklistSearchFields": "Name",
                "Multiple": false,
                "PicklistSelection": "Id",
                "PicklistTitle": "Name",
                "PlaceHolder": "Enter Name",
                "Label": "Name*",
                "LabelWidth":59,
                "Width": 360,
                "AddNew": false,
                "ColumnWidth": "170,250",
                "ColumnType": "string,string"
            },
            "DefaultStoreName": {
                "PicklistUrl": "Store",
                "PicklistDisplayText": "Code,Name",
                "PicklistSearchFields": "Name",
                "Multiple": false,
                "PicklistSelection": "Id",
                "PicklistTitle": "CategoryName",
                "PlaceHolder": "Select Store",
                "Label": "Default Store",
                "LinkId": "DefaultStoreId",
                "Width": 360,
                "AddNew": false,
                "ColumnWidth": "170,250",
                "ColumnType": "string,string",
                "isKeyField": true
            },
            "ItemTypeName": {
                "PicklistUrl": "GCM",
                "PicklistDisplayText": "Code,Name",
                "PicklistSearchFields": "Name",
                "Multiple": false,
                "PicklistSelection": "Id",
                "PlaceHolder": "Select Type",
                "PicklistTitle": "Name",
                "Label": "Type*",
                "LinkId": "ItemTypeId",
                "Width": 200,
                "LabelWidth": 53,
                "AddNew": false,
                "ColumnWidth": "170,250",
                "ColumnType": "string,string",
                "PicklistCriteria": "ItemType"
            },
            "MaterialAccountName": {
                "PicklistUrl": "MaterialAccount",
                "PicklistDisplayText": "Code,Name",
                "PicklistSearchFields": "Name",
                "Multiple": false,
                "PlaceHolder": "Select Material Account",
                "PicklistSelection": "Id",
                "PicklistTitle": "Name",
                "Label": "Material Account*",
                "LabelWidth":188,
                "LinkId": "MaterialAccountId",
                "Width": 200,
                "AddNew": false,
                "ColumnWidth": "170,250",
                "ColumnType": "string,string"
            },
            "ProcurmentInchargeName": {
                "PicklistUrl": "EmployeePrepared",
                "PicklistDisplayText": "Code,Name",
                "PicklistSearchFields": "Code,Name",
                "Multiple": false,
                "PicklistSelection": "Id",
                "PlaceHolder": "Select Purchase Incharge",
                "PicklistTitle": "Name",
                "Label": "Purchase Incharge",
                "LabelWidth": 210,
                "LinkId": "ProcurmentInchargeId",
                "Width": 200,
                "AddNew": false,
                "ColumnWidth": "170,250",
                "ColumnType": "string,string",
                "PicklistCriteria": "ProcurmentInchargeName"
            },
            "LastPurchaseCurrencyName": {
                "PicklistUrl": "Currency",
                "PicklistDisplayText": "Code,Name",
                "PicklistSearchFields": "Code,Name",
                "Multiple": false,
                "PicklistSelection": "Id",
                "PlaceHolder": "Select Last Purchase Currency",
                "PicklistTitle": "Code",
                "Label": "Last Purchase Currency",
                "LabelWidth": 210,
                "LinkId": "LastPurchaseCurrencyId",
                "Width": 200,
                "AddNew": false,
                "ColumnWidth": "170,250",
                "ColumnType": "string,string"
            },
            "PurchaseCurrencyName": {
                "PicklistUrl": "Currency",
                "PicklistDisplayText": "Code,Name",
                "PicklistSearchFields": "Code,Name",
                "Multiple": false,
                "PicklistSelection": "Id",
                "PicklistTitle": "Code",
                "Label": "Purchase Currency",
                "PlaceHolder": "Select Purchase Currency",
                "LabelWidth": 210,
                "LinkId": "PurchaseCurrencyId",
                "Width": 200,
                "AddNew": false,
                "MaxLength": 20,
                "ColumnWidth": "170,250",
                "ColumnType": "string,string"
            },
            "NestingPlanCode": {
                "PicklistUrl": "NestingPlan",
                "PicklistDisplayText": "Code",
                "PicklistSearchFields": "Code",
                "Multiple": false,
                "PicklistSelection": "Id",
                "PlaceHolder": "Select Nesting Plan",
                "PicklistTitle": "Code",
                "Label": "Nesting Plan",
                "LabelWidth": 135,
                "LinkId": "NestingPlanId",
                "Width": 200,
                "AddNew": false,
                "ColumnWidth": "170,250",
                "ColumnType": "string"
            },
            "RoutingName": {
                "PicklistUrl": "Routing",
                "PicklistDisplayText": "Code,Name",
                "PicklistSearchFields": "Code,Name",
                "Multiple": false,
                "PicklistSelection": "Id",
                "PicklistTitle": "Name",
                "Label": "Primary Routing",
                "PlaceHolder": "Select Routing Name",
                "LinkId": "RoutingId",
                "Width": 200,
                "AddNew": false,
                "ColumnWidth": "170,250",
                "ColumnType": "string"
            },
            "PackSetName": {
                "PicklistUrl": "Packset",
                "PicklistDisplayText": "Code,Name",
                "PicklistSearchFields": "Code,Name",
                "Multiple": false,
                "PicklistSelection": "Id",
                "PicklistTitle": "Name",
                "LabelWidth": 117,
                "Label": "Pack Set",
                "PlaceHolder": "Select Pack Set",
                "LinkId": "PackSetId",
                "Width": 200,
                "AddNew": false,
                "ColumnWidth": "170,250",
                "ColumnType": "string"
            },
            "DefaultPacksetCode": {
                "PicklistUrl": "Pack",
                "PicklistDisplayText": "Code,Name",
                "PicklistSearchFields": "Code,Name",
                "Multiple": false,
                "PicklistSelection": "Id",
                "PicklistTitle": "Code",
                "LabelWidth": 117,
                "PlaceHolder": "Select Pack",
                "Label": "Default Pack",
                "LinkId": "DefaultPackId",
                "Width": 200,
                "AddNew": false,
                "ColumnWidth": "170,250",
                "ColumnType": "string"
            },
            "DefaultPackName": {
                "PicklistUrl": "Pack",
                "PicklistDisplayText": "Code,Name",
                "PicklistSearchFields": "Code,Name",
                "Multiple": false,
                "PicklistSelection": "Id",
                "PicklistTitle": "Name",
                "Label": "Default Pack",
                "LinkId": "DefaultPackId",
                "Width": 200,
                "AddNew": false,
                "ColumnWidth": "170,250",
                "ColumnType": "string"
            },
            "DutyTableName": {
                "PicklistUrl": "DutyTable",
                "PicklistDisplayText": "Code,Name",
                "PicklistSearchFields": "Code,Name",
                "LabelWidth": 150,
                "Multiple": false,
                "PicklistSelection": "Id",
                "PlaceHolder": "Select Duty Table",
                "PicklistTitle": "Name",
                "Label": "Duty Table",
                "LinkId": "DutyTableId",
                "Width": 200,
                "AddNew": false,
                "ColumnWidth": "170,250",
                "ColumnType": "string"
            },
            "DutyTariffName": {
                "PicklistUrl": "DutyTariff",
                "PicklistDisplayText": "Code,Name",
                "PicklistSearchFields": "Code,Name",
                "Multiple": false,
                "PicklistSelection": "Id",
                "PicklistTitle": "Name",
                "Label": "Duty Tariff",
                "PlaceHolder": "Select Duty Tariff",
                "LabelWidth": 150,
                "LinkId": "DutyTariffId",
                "Width": 200,
                "AddNew": false,
                "ColumnWidth": "170,250",
                "ColumnType": "string"
            },
            "GSTTariffName": {
                "PicklistUrl": "DutyTariff",
                "PicklistDisplayText": "Code,Name",
                "PicklistSearchFields": "Name",
                "Multiple": false,
                "PicklistSelection": "Id",
                "PicklistTitle": "Name",
                "Label": "HSN*",
                "LinkId": "GSTTariffId",
                "PlaceHolder": "Select GST Tariff",
                "Width": 200,
                "AddNew": false,
                "ColumnWidth": "170,250",
                "ColumnType": "string"
            },
            "SACName": {
                "PicklistUrl": "DutyTariff",
                "PicklistDisplayText": "Code,Name",
                "PicklistSearchFields": "Name",
                "Multiple": false,
                "PicklistSelection": "Id",
                "PicklistTitle": "Name",
                "Label": "SAC",
                "LinkId": "GSTTariffId",
                "PlaceHolder": "Select GST Tariff",
                "Width": 200,
                "AddNew": false,
                "ColumnWidth": "170,250",
                "ColumnType": "string",
                "PicklistCriteria": "SACName"
            },
            "TaxTableName": {
                "PicklistUrl": "TaxTable",
                "PicklistDisplayText": "Code,Name",
                "PicklistSearchFields": "Code,Name",
                "Multiple": false,
                "PicklistSelection": "Id",
                "PicklistTitle": "Name",
                "Label": "Tax Table",
                "PlaceHolder": "Select Tax Table",
                "LabelWidth": 305,
                "LinkId": "TaxTableId",
                "Width": 200,
                "AddNew": false,
                "ColumnWidth": "170,250",
                "ColumnType": "string"
            },
            "VatCommodityName": {
                "PicklistUrl": "GCM",
                "PicklistDisplayText": "Code,Name",
                "PicklistSearchFields": "Name",
                "Multiple": false,
                "PicklistSelection": "Id",
                "PicklistTitle": "Name",
                "Label": "Vat Commodity",
                "LinkId": "VatCommodityId",
                "PlaceHolder": "Select Vat Commodity",
                "LabelWidth": 305,
                "Width": 200,
                "AddNew": false,
                "ColumnWidth": "170,250",
                "ColumnType": "string",
                "PicklistCriteria": "VatCommodityName"
            },
            "DutyFormTypeName": {
                "PicklistUrl": "GCM",
                "PicklistDisplayText": "Code,Name",
                "PicklistSearchFields": "Name",
                "Multiple": false,
                "PicklistSelection": "Id",
                "PicklistTitle": "Name",
                "Label": "Excise Form Type",
                "PlaceHolder":"Excise Form Type",
                "LabelWidth": 305,
                "LinkId": "DutyFormTypeId",
                "Width": 200,
                "AddNew": false,
                "ColumnWidth": "170,250",
                "ColumnType": "string",
                "PicklistCriteria": "DutyFormTypeName"
            },
            "PlannerName": {
                "PicklistUrl": "EmployeePrepared",
                "PicklistDisplayText": "Code,Name",
                "PicklistSearchFields": "Code,Name",
                "Multiple": false,
                "PicklistSelection": "Id",
                "PicklistTitle": "Name",
                "PlaceHolder":"Select Incharge",
                "Label": "Planner",
                "LinkId": "PlannerId",
                "Width": 200,
                "AddNew": false,
                "ColumnWidth": "170,250",
                "ColumnType": "string",
                "PicklistCriteria": "PlannerName"
            },
            "PlanningGroupName": {
                "PicklistUrl": "GCM",
                "PicklistDisplayText": "Code,Name",
                "PicklistSearchFields": "Name",
                "Multiple": false,
                "PicklistSelection": "Id",
                "PicklistTitle": "Name",
                "Label": "Plan Group",
                "PlaceHolder":"Select Plan Group",
                "LabelWidth": 260,
                "LinkId": "PlanningGroupId",
                "Width": 200,
                "AddNew": false,
                "ColumnWidth": "170,250",
                "ColumnType": "string",
                "PicklistCriteria": "PlanningGroupName"
            },
            "LinkItemName": {
                "PicklistUrl": "ItemMaster",
                "PicklistDisplayText": "Code,Name",
                "PicklistSearchFields": "Name",
                "Multiple": false,
                "PicklistSelection": "Id",
                "PlaceHolder": "Select Link Item",
                "PicklistTitle": "Code",
                "Label": "Link Item",
                "Width": 200,
                "AddNew": false,
                "LinkId": "LinkItemId",
                "ColumnWidth": "170,250",
                "ColumnType": "string,string"
            },
            "RawMaterialItemName": {
                "PicklistUrl": "ItemMaster",
                "PicklistDisplayText": "Code,Name",
                "PicklistSearchFields": "Code,Name",
                "Multiple": false,
                "PicklistSelection": "Id",
                "PicklistTitle": "Name",
                "Label": "Raw Material Item",
                "PlaceHolder": "Select Raw Material",
                "LabelWidth": 135,
                "LinkId": "RawMaterialItemId",
                "Width": 200,
                "AddNew": false,
                "MaxLength": 20,
                "ColumnWidth": "170,250",
                "ColumnType": "string,string"
            },
            "RawMaterialSKUName": {
                "PicklistUrl": "SKU",
                "PicklistDisplayText": "Code,Name",
                "PicklistSearchFields": "Code,Name",
                "Multiple": false,
                "PicklistSelection": "Id",
                "PicklistTitle": "Name",
                "Label": "Raw Material SKU",
                "PlaceHolder": "Select Raw Material SKU",
                "LabelWidth": 135,
                "LinkId": "RawMaterialSKUId",
                "Width": 200,
                "AddNew": false,
                "MaxLength": 20,
                "ColumnWidth": "170,250",
                "ColumnType": "string,string"
            },
            "QualityParameterSetName": {
                "PicklistUrl": "Parameterset",
                "PicklistDisplayText": "Code,Name",
                "PicklistSearchFields": "Name",
                "Multiple": false,
                "PicklistSelection": "Id",
                "PicklistTitle": "Name",
                "Label": "Quality Parameter Set",
                "LinkId": "QualityParameterSetId",
                "Width": 200,
                "AddNew": false,
                "MaxLength": 20,
                "ColumnWidth": "250",
                "ColumnType": "string"
            },
            "GSTTableName": {
                "PicklistUrl": "DutyTable",
                "PicklistDisplayText": "Code,Name",
                "PicklistSearchFields": "Code,Name",
                "Multiple": false,
                "PicklistSelection": "Id",
                "PicklistTitle": "Name",
                "Label": "GST Table *",
                "PlaceHolder":"Select GST Table",
                "LabelWidth": 150,
                "LinkId": "GSTTableId",
                "Width": 200,
                "AddNew": false,
                "MaxLength": 20,
                "ColumnWidth": "150,250",
                "ColumnType": "string"
            },
            "OUName": {
                "PicklistUrl": "OUName",
                "PicklistDisplayText": "Code,Name",
                "PicklistSearchFields": "Code,Name",
                "Multiple": false,
                "PicklistSelection": "Id",
                "PicklistTitle": "Name",
                "Label": "OU*",
                "LinkId": "OUId",
                "ReadOnly": true,
                "LabelWidth":59,
                "Width": 200,
                "AddNew": false,
                "MaxLength": 20,
                "ColumnWidth": "150,250",
                "ColumnType": "string"
            }
        },
        {
            "Name": "ItemId",
            "Type": "number",
            "Required": false,
            "ValidRegEx": "",
            "DefaultValue": -1
        },
        {
            "Name": "ItemOUIsBuyWithoutOrder",
            "Type": "number",
            "Required": false,
            "ValidRegEx": "",
            "DefaultValue": 1
        },
        {
            "Name": "ItemOUIsBuyWithoutOrder",
            "Type": "number",
            "Required": false,
            "ValidRegEx": "",
            "DefaultValue": 1
        },
        {
            "Name": "ItemOUId",
            "Type": "number",
            "Required": false,
            "ValidRegEx": "",
            "DefaultValue": -1
        },
        {
            "Name": "OUId",
            "Type": "number",
            "Required": false,
            "ValidRegEx": "",
            "DefaultValue": -1
        },
        {
            "Name": "OUName",
            "Type": "string",
            "Required": true,
            "Label": "OU*",
            "PostData": false,
            "ReadOnly": true,
            "ValidRegEx": "",
            "DefaultValue": "ABC ORGANIZATION" 
        },
        {
            "Name": "DefaultStoreId",
            "Type": "number",
            "Required": false,
            "ValidRegEx": "",
            "DefaultValue": -1
        },
        {
            "Name": "DefaultStoreName",
            "Type": "string",
            "Required": false,
            "PostData": false,
            "ValidRegEx": "",
            "DefaultValue": ""
        },
        
        {
            "Name": "ItemCode",
            "Type": "string",
            "MaxLength": 20,
            "Required": true,
            "Label": "Code*",
            "PostData": false,
            "ValidRegEx": "",
            "DefaultValue": ""
        },
        {
            "Name": "ItemName",
            "Type": "string",
            "PostData": false,
            "Label": "Name*",
            "Required": true,
            "ValidRegEx": "",
            "DefaultValue": ""
        },
        {
            "Name": "ItemOUIsSaleableItem",
            "Type": "number",
            "Required": false,
            "ValidRegEx": "",
            "LabelWidth": 166,
            "Label": "Saleable Item",
            "Placeholder": "",
            "Width": 200,
            "PickLists": [
                {
                    "key": 0,
                    "value": "Yes"
                },
                {
                    "key": 1,
                    "value": "No"
                }
            ]
        },
        {
            "Name": "ItemOUIsPurchasable",
            "Type": "number",
            "Required": false,
            "ValidRegEx": "",
            "Label": "Is Purchasable?",
            "Placeholder": "",
            "LabelWidth": 210,
            "DefaultValue": 1
        },
        {
            "Name": "ItemOUIsTransactable",
            "Type": "number",
            "Required": false,
            "ValidRegEx": "",
            "Label": "Is Transactable",
            "Placeholder": "",
            "LabelWidth":50,
            "Width": 200,
            "DefaultValue": 1
        },
        {
            "Name": "ItemOUIsInternalOrder",
            "Type": "number",
            "Required": false,
            "ValidRegEx": "",
            "Label": "Is Internal Order",
            "LabelWidth":50,
            "Placeholder": "",
            "Width": 200,
            "DefaultValue": 1
        },
        {
            "Name": "ItemOUIntroducedDate",
            "Type": "number",
            "Required": false,
            "ValidRegEx": "",
            "Label": "Introduced Date",
            "Placeholder": "",
            "DefaultValue": ""
        },
        {
            "Name": "MaterialAccountId",
            "Type": "number",
            "Required": false,
            "ValidRegEx": "",
            "DefaultValue": -1
        },
        {
            "Name": "ItemOUIsBuyBack",
            "Type": "number",
            "Required": false,
            "ValidRegEx": "",
            "Label": "Buy Back Applicable",
            "Placeholder": "",
            "LabelWidth": 165,
            "Width": 200,
            "PickLists": [
                {
                    "key": 0,
                    "value": "Yes"
                },
                {
                    "key": 1,
                    "value": "No"
                }
            ]
        },
        {
            "Name": "ItemOUIsSpare",
            "Type": "number",
            "Required": false,
            "ValidRegEx": "",
            "Label": "Is Spare Item ",
            "LabelWidth": 236,
            "Placeholder": "",
            "Width": 200,
            "PickLists": [
                {
                    "key": 0,
                    "value": "Yes"
                },
                {
                    "key": 1,
                    "value": "No"
                }
            ]
        },
        {
            "Name": "ItemOUBomType",
            "Type": "number",
            "Required": false,
            "ValidRegEx": "",
            "Label": "BOM Type",
            "Placeholder": "",
            "Width": 200,
            "PickLists": [
                {
                    "key": 0,
                    "value": "Not Applicable"
                },
                {
                    "key": 1,
                    "value": "Standard"
                },
                {
                    "key": 2,
                    "value": "Not Standard"
                },
                {
                    "key": 3,
                    "value": "Standard Process Wise"
                },
                {
                    "key": 4,
                    "value": "Raw Material"
                },
                {
                    "key": 5,
                    "value": "Nesting Plan"
                }
            ],
            "DefaultValue": 0
        },
        {
            "Name": "ItemOUReservationType",
            "Type": "number",
            "Required": false,
            "ValidRegEx": "",
            "Label": "Reservation Type",
            "LabelWidth": 260,
            "Placeholder": "",
            "Width": 200,
            "PickLists": [
                {
                    "key": 0,
                    "value": "Not Required"
                },
                {
                    "key": 1,
                    "value": "Auto"
                },
                {
                    "key": 2,
                    "value": "Manual"
                }
            ]
        },
        {
            "Name": "ItemOUIsStockPosting",
            "Type": "number",
            "Required": false,
            "ValidRegEx": "",
            "Label": "Stock Maintenance",
            "LabelWidth": 165,
            "Placeholder": "",
            "Width": 200,
            "PickLists": [
                {
                    "key": 0,
                    "value": "Yes"
                },
                {
                    "key": 1,
                    "value": "No"
                }
            ]
        },
        {
            "Name": "ItemOUIsUniqueBatch",
            "Type": "number",
            "Required": false,
            "ValidRegEx": "",
            "Label": "Unique Number",
            "LabelWidth": 165,
            "Placeholder": "",
            "Width": 200,
            "PickLists": [
                {
                    "key": 0,
                    "value": "Yes"
                },
                {
                    "key": 1,
                    "value": "No"
                }
            ]
        },
        {
            "Name": "ItemOUTolleranceType",
            "Type": "number",
            "Required": false,
            "ValidRegEx": "",
            "LabelWidth": 175,
            "Label": "Tolerance Type",
            "Placeholder": "",
            "Width": 200,
            "PickLists": [
                {
                    "key": 0,
                    "value": "None"
                },
                {
                    "key": 1,
                    "value": "% Basis"
                },
                {
                    "key": 2,
                    "value": "Qty"
                }
            ],
            "DefaultValue":0
        },
        {
            "Name": "ItemOUStockValuationType",
            "Type": "number",
            "Required": false,
            "ValidRegEx": "",
            "Label": "Stock Valuation Type",
            "Placeholder": "",
            "Width": 200,
            "PickLists": [
                {
                    "key": 0,
                    "value": "PerPetual"
                },
                {
                    "key": 1,
                    "value": "FIFO"
                },
                {
                    "key": 2,
                    "value": "LIFO"
                }
            ]
        },
        {
            "Name": "ItemOUTolleranceValue",
            "Type": "number",
            "Required": false,
            "ValidRegEx": "",
            "Label": "Tolerance Value",
            "Placeholder": "",
            "LabelWidth": 115,
            "MaxLength": 5,
            "DefaultValue": 0
        },
        {
            "Name": "PackSetId",
            "Type": "number",
            "Required": false,
            "ValidRegEx": "",
            "DefaultValue": -1
        },
        {
            "Name": "PackSetName",
            "Type": "string",
            "PostData": false,
            "Required": false,
            "ValidRegEx": "",
            "DefaultValue": ""
        },
        {
            "Name": "DefaultPackId",
            "Type": "number",
            "Required": false,
            "ValidRegEx": "",
            "DefaultValue": -1
        },
        {
            "Name": "DefaultPackName",
            "Type": "string",
            "Required": false,
            "ValidRegEx": "",
            "DefaultValue": ""
        },
        {
            "Name": "DefaultPacksetCode",
            "Type": "string",
            "Required": false,
            "ValidRegEx": "",
            "DefaultValue": ""
        },
        {
            "Name": "PackSetId",
            "Type": "number",
            "Required": false,
            "ValidRegEx": "",
            "DefaultValue": -1
        },
        {
            "Name": "ItemOUCaseCount",
            "Type": "number",
            "Required": false,
            "Label": "Case Count",
            "LabelWidth": 117,
            "MaxLength": 5,
            "Placeholder": "",
            "ValidRegEx": "",
            "DefaultValue": 0
        },
        {
            "Name": "ItemOUInspectionType",
            "Type": "number",
            "Required": false,
            "ValidRegEx": "",
            "Label": "Inspection Type ",
            "Placeholder": "",
            "Width": 200,
            "PickLists": [
                {
                    "key": 0,
                    "value": "Not Required"
                },
                {
                    "key": 1,
                    "value": "Visual"
                },
                {
                    "key": 2,
                    "value": "Lab"
                }
            ]
        },
        {
            "Name": "ItemOULifeInDays",
            "Type": "number",
            "Required": false,
            "Label": "Life in Days",
            "MaxLength": 4,
            "Placeholder": "",
            "ValidRegEx": "",
            "DefaultValue": 0
        },
        {
            "Name": "ItemOURateType",
            "Type": "number",
            "Required": false,
            "ValidRegEx": "",
            "Label": "Rate Type",
            "LabelWidth": 166,
            "Placeholder": "",
            "Width": 200,
            "PickLists": [
                {
                    "key": 0,
                    "value": "Variable"
                },
                {
                    "key": 1,
                    "value": "Pricelist"
                },
                {
                    "key": 2,
                    "value": "Discount Price"
                }
            ]
        },
        {
            "Name": "ItemOUPriceForType",
            "Type": "number",
            "Required": false,
            "ValidRegEx": "",
            "LabelWidth": 100,
            "Label": "Pricing For",
            "Placeholder": "",
            "Width": 200,
            "PickLists": [
                {
                    "key": 0,
                    "value": "Item"
                },
                {
                    "key": 1,
                    "value": "Group"
                },
                {
                    "key": 2,
                    "value": "Formula"
                },
                {
                    "key": 3,
                    "value": "Link"
                }
            ]
        },
        {
            "Name": "LinkItemId",
            "Type": "number",
            "Required": false,
            "ValidRegEx": "",
            "DefaultValue": -1
        },
        {
            "Name": "LinkItemName",
            "Type": "string",
            "Required": false,
            "PostData": false,
            "ValidRegEx": "",
            "DefaultValue": ""
        },
        {
            "Name": "ItemOUPricingReferenceNumber",
            "Type": "number",
            "Required": false,
            "Label": "Pricing Reference",
            "MaxLength": 50,
            "LabelWidth": 128,
            "Placeholder": "",
            "ValidRegEx": "",
            "DefaultValue": 0
        },
        {
            "Name": "ItemOUIsDiscountApplicable",
            "Type": "number",
            "Required": false,
            "Label": "Discount Applicable?",
            "Placeholder": "",
            "LabelWidth": 166,
            "ValidRegEx": "",
            "DefaultValue": 1
        },
        {
            "Name": "ItemOUMaximumDiscountPercentage",
            "Type": "number",
            "Required": false,
            "Label": "Max Discount %",
            "MaxLength": 3,
            "LabelWidth": 322,
            "Placeholder": "",
            "ValidRegEx": "",
            "DefaultValue": 0
        },
        {
            "Name": "ItemOUIsFreeApplicable",
            "Type": "number",
            "Required": false,
            "Label": "Free Applicable?",
            "Placeholder": "",
            "LabelWidth": 166,
            "ValidRegEx": "",
            "DefaultValue": 1
        },
        {
            "Name": "ItemOUMRPRate",
            "Type": "number",
            "Required": false,
            "MaxLength": 17,
            "Label": "MRP Rate",
            "Placeholder": "",
            "LabelWidth": 351,
            "ValidRegEx": "",
            "DefaultValue": 0
        },
        {
            "Name": "ItemOUWarrantyPeriod",
            "Type": "number",
            "Required": false,
            "MaxLength": 4,
            "Label": "Warranty Period(Months)",
            "Placeholder": "",
            "ValidRegEx": "",
            "DefaultValue": 0
        },
        {
            "Name": "ItemOUIsPostToCustomerProduct",
            "Type": "number",
            "Required": false,
            "ValidRegEx": "",
            "Label": "Add to customer Product",
            "Placeholder": "",
            "Width": 200,
            "PickLists": [
                {
                    "key": 0,
                    "value": "Yes"
                },
                {
                    "key": 1,
                    "value": "No"
                }
            ]
        },
        {
            "Name": "ItemOULinkVariation",
            "Type": "number",
            "Required": false,
            "ValidRegEx": "",
            "Label": "Link Variation",
            "LabelWidth": 260,
            "Placeholder": "",
            "Width": 200,
            "DefaultValue": 1
        },
        {
            "Name": "ItemOUIsExpiryTrackingRequired",
            "Type": "number",
            "Required": false,
            "ValidRegEx": "",
            "Width": 200,
            "DefaultValue": 1
        },
        {
            "Name": "ItemOUInventoryMethod",
            "Type": "number",
            "Required": false,
            "ValidRegEx": "",
            "Width": 200,
            "DefaultValue": 0
        },
        {
            "Name": "ItemOULowestLevelInBOM",
            "Type": "number",
            "Required": false,
            "ValidRegEx": "",
            "Width": 200,
            "DefaultValue": 0
        },
        {
            "Name": "ItemOUIsInstallationTrackingRequired",
            "Type": "number",
            "Required": false,
            "ValidRegEx": "",
            "Label": "Installation Tracking?",
            "Placeholder": "",
            "Width": 200,
            "PickLists": [
                {
                    "key": 0,
                    "value": "Yes"
                },
                {
                    "key": 1,
                    "value": "No"
                }
            ]
        },
        {
            "Name": "ItemOUIsWarrantyApplicable",
            "Type": "number",
            "Required": false,
            "ValidRegEx": "",
            "Label": "Warranty Tracking?",
            "LabelWidth": 236,
            "Placeholder": "",
            "Width": 200,
            "PickLists": [
                {
                    "key": 0,
                    "value": "Yes"
                },
                {
                    "key": 1,
                    "value": "No"
                }
            ]
        },
        {
            "Name": "ItemOUIsDefectiveToBeReturned",
            "Type": "number",
            "Required": false,
            "ValidRegEx": "",
            "Label": "Defect Return",
            "LabelWidth": 236,
            "Placeholder": "",
            "Width": 200,
            "PickLists": [
                {
                    "key": 0,
                    "value": "Yes"
                },
                {
                    "key": 1,
                    "value": "No"
                }
            ]
        },
        {
            "Name": "ItemOUIsDutyApplicable",
            "Type": "number",
            "Required": false,
            "ValidRegEx": "",
            "Label": "Duty Applicable",
            "LabelWidth": 150,
            "Placeholder": "",
            "Width": 200,
            "PickLists": [
                {
                    "key": 0,
                    "value": "Yes"
                },
                {
                    "key": 1,
                    "value": "No"
                }
            ]
        },
        {
            "Name": "ItemOUIsCenvatApplicable",
            "Type": "number",
            "Required": false,
            "ValidRegEx": "",
            "Label": "CENVAT Applicable",
            "LabelWidth": 150,
            "Placeholder": "",
            "Width": 200,
            "PickLists": [
                {
                    "key": 0,
                    "value": "Yes"
                },
                {
                    "key": 1,
                    "value": "No"
                }
            ]
        },
        {
            "Name": "DutyTableId",
            "Type": "number",
            "Required": false,
            "ValidRegEx": "",
            "DefaultValue": -1
        },
        {
            "Name": "DutyTableName",
            "Type": "string",
            "Required": false,
            "PostData": false,
            "ValidRegEx": "",
            "DefaultValue": ""
        },
        {
            "Name": "TaxTableId",
            "Type": "number",
            "Required": false,
            "ValidRegEx": "",
            "DefaultValue": -1
        },
        {
            "Name": "TaxTableName",
            "Type": "string",
            "Required": false,
            "PostData": false,
            "ValidRegEx": "",
            "DefaultValue": ""
        },
        {
            "Name": "ItemOUIsTaxTypeChangeable",
            "Type": "number",
            "Required": false,
            "ValidRegEx": "",
            "LabelWidth": 310,
            "Label": "Tax Type Changeable?",
            "Placeholder": "",
            "Width": 200,
            "PickLists": [
                {
                    "key": 0,
                    "value": "Fixed"
                },
                {
                    "key": 1,
                    "value": "Changeable"
                }
            ]
        },
        {
            "Name": "ItemOUVatClaimType",
            "Type": "number",
            "Required": false,
            "ValidRegEx": "",
            "Label": "VAT Claim Type",
            "LabelWidth": 305,
            "DefaultValue":0,
            "Placeholder": "",
            "Width": 200,
            "PickLists": [
                {
                    "key": 0,
                    "value": "Input Credit"
                },
                {
                    "key": 1,
                    "value": "Input"
                },
                {
                    "key": 2,
                    "value": "None"
                },
                {
                    "key": 3,
                    "value": "Capital Credit"
                },
                {
                    "key": 4,
                    "value": "Reclaim"
                },
                {
                    "key": 5,
                    "value": "Exempted"
                },
                {
                    "key": 6,
                    "value": "TransactionTypeBased?"
                }
            ]
        },
        {
            "Name": "ItemOUMasterPlanMethod",
            "Type": "number",
            "Required": false,
            "ValidRegEx": "",
            "Label": "Plan Method",
            "Placeholder": "",
            "Width": 200,
            "PickLists": [
                {
                    "key": 0,
                    "value": "MRP"
                },
                {
                    "key": 1,
                    "value": "Min/Max"
                },
                {
                    "key": 2,
                    "value": "ROL"
                },
                {
                    "key": 3,
                    "value": "None"
                }
            ]
        },
        {
            "Name": "ItemOUMRPPlanMethod",
            "Type": "number",
            "Required": false,
            "ValidRegEx": "",
            "Label": "MRP Method",
            "LabelWidth": 100,
            "Placeholder": "",
            "Width": 200,
            "PickLists": [
                {
                    "key": 0,
                    "value": "MPS Planning"
                },
                {
                    "key": 1,
                    "value": "MRP Planning"
                },
                {
                    "key": 2,
                    "value": "DRP Planning"
                },
                {
                    "key": 3,
                    "value": "MPS and DRP"
                },
                {
                    "key": 4,
                    "value": "MRP and DRP"
                }
            ]
        },
        {
            "Name": "ItemOULeadTime",
            "Type": "number",
            "Required": false,
            "ValidRegEx": "",
            "DefaultValue": 0,
            "LabelWidth": 177,
            "MaxLength": 4,
            "Label": "Lead Time(days)",
            "Placeholder": ""
        },
        {
            "Name": "ItemOULotSize",
            "Type": "number",
            "Required": false,
            "Label": "Lot Size",
            "Placeholder": "",
            "LabelWidth": 210,
            "MaxLength": 5,
            "ValidRegEx": "",
            "DefaultValue": 0
        },
        {
            "Name": "RoutingId",
            "Type": "number",
            "Required": false,
            "ValidRegEx": "",
            "DefaultValue": -1
        },
        {
            "Name": "RoutingName",
            "Type": "string",
            "PostData": false,
            "Required": false,
            "ValidRegEx": "",
            "DefaultValue": ""
        },
        {
            "Name": "ItemOUIsExciseApplicable",
            "Type": "number",
            "Required": false,
            "ValidRegEx": "",
            "Label": "Excise Applicable",
            "LabelWidth": 150,
            "Placeholder": "",
            "Width": 200,
            "PickLists": [
                {
                    "key": 0,
                    "value": "Yes"
                },
                {
                    "key": 1,
                    "value": "No"
                }
            ]
        },
        {
            "Name": "ItemOUPurchaseRate",
            "Type": "number",
            "Required": false,
            "Label": "Std.Purchase Rate",
            "Placeholder": "",
            "LabelWidth": 245,
            "Width": 100,
            "MaxLength": 10,
            "ValidRegEx": "",
            "DefaultValue": 1
        },
        {
            "Name": "ItemOUPurchaseRateInclusive",
            "Type": "number",
            "Required": false,
            "Label": "Std.Purchase Rate(Inclusive)",
            "LabelWidth": 210,
            "Placeholder": "",
            "MaxLength": 10,
            "ValidRegEx": "",
            "DefaultValue": 0
        },
        {
            "Name": "ItemOUPurchaseCostNLC",
            "Type": "number",
            "Required": false,
            "Label": "Purchase Cost(NLC)",
            "Placeholder": "",
            "LabelWidth": 153,
            "MaxLength": 5,
            "ValidRegEx": "",
            "DefaultValue": 0
        },
        {
            "Name": "ItemOUMinimumOrderQuantity",
            "Type": "number",
            "Required": false,
            "Label": "Economic Order Qty",
            "Placeholder": "",
            "LabelWidth": 210,
            "MaxLength": 5,
            "ValidRegEx": "",
            "DefaultValue": 0
        },
        {
            "Name": "ItemOUSalesRate",
            "Type": "number",
            "Required": false,
            "Label": "Sales Rate",
            "Placeholder": "",
            "LabelWidth": 260,
            "MaxLength": 17,
            "ValidRegEx": "",
            "DefaultValue": 0
        },
        {
            "Name": "ItemOUSalesRateinclusive",
            "Type": "number",
            "Required": false,
            "Label": "Sales Rate(Inclusive)",
            "Placeholder": "",
            "LabelWidth": 265,
            "MaxLength": 17,
            "ValidRegEx": "",
            "DefaultValue": 0
        },
        {
            "Name": "ProcurmentInchargeId",
            "Type": "number",
            "Required": false,
            "ValidRegEx": "",
            "DefaultValue": -1
        },
        {
            "Name": "ProcurmentInchargeName",
            "Type": "string",
            "Required": false,
            "PostData": false,
            "ValidRegEx": "",
            "DefaultValue": ""
        },
        {
            "Name": "ItemOUProductionNature",
            "Type": "number",
            "Required": false,
            "ValidRegEx": "",
            "LabelWidth": 130,
            "Label": "Production Nature",
            "Placeholder": "",
            "Width": 200,
            "PickLists": [
                {
                    "key": 0,
                    "value": "Discrete"
                },
                {
                    "key": 1,
                    "value": "Repetitive"
                }
            ]
        },
        {
            "Name": "ItemOUIsMakeOrBuy",
            "Type": "number",
            "Required": false,
            "ValidRegEx": "",
            "Label": "Make or Buy ",
            "Placeholder": "",
            "Width": 200,
            "PickLists": [
                {
                    "key": 0,
                    "value": "Make"
                },
                {
                    "key": 1,
                    "value": "Buy"
                }
            ]
        },
        {
            "Name": "ItemOUIsBulkIssueItem",
            "Type": "number",
            "Required": false,
            "ValidRegEx": "",
            "Label": "Is Bulk Issue Item",
            "LabelWidth": 260,
            "Placeholder": "",
            "Width": 200,
            "DefaultValue": 1
        },
        {
            "Name": "ItemOUSHRInkagePercentage",
            "Type": "number",
            "Required": false,
            "ValidRegEx": "",
            "Label": "Shrinkage Percentage",
            "LabelWidth": 260,
            "Placeholder": "",
            "Width": 200,
            "MaxLength": 3,
            "DefaultValue": 0
        },
        {
            "Name": "ItemOUComponentyield",
            "Type": "number",
            "Required": false,
            "ValidRegEx": "",
            "Label": "Componenet yield",
            "Placeholder": "",
            "Width": 200,
            "MaxLength": 2,
            "DefaultValue": 0
        },
        {
            "Name": "ItemOUPreProcessingLeadTime",
            "Type": "number",
            "Required": false,
            "ValidRegEx": "",
            "Width": 200,
            "Label": "Pre Processing Lead Time",
            "Placeholder": "",
            "MaxLength": 2,
            "DefaultValue": 0
        },
        {
            "Name": "ItemOUProcessingLeadTime",
            "Type": "number",
            "Required": false,
            "ValidRegEx": "",
            "Label": "Processing Lead Time",
            "Placeholder": "",
            "Width": 200,
            "MaxLength": 2,
            "DefaultValue": 0
        },
        {
            "Name": "ItemOUPostProcessingLeadTime",
            "Type": "number",
            "Required": false,
            "ValidRegEx": "",
            "Label": "Post Processing Lead Time",
            "LabelWidth": 260,
            "Placeholder": "",
            "Width": 200,
            "MaxLength": 2,
            "DefaultValue": 0
        },
        {
            "Name": "ItemOULeadTimeLotSize",
            "Type": "number",
            "Required": false,
            "ValidRegEx": "",
            "Label": "Lot Size",
            "Placeholder": "",
            "Width": 200,
            "MaxLength": 2,
            "DefaultValue": 0
        },
        {
            "Name": "ItemOUFixedLeadTime",
            "Type": "number",
            "Required": false,
            "ValidRegEx": "",
            "Label": "Fixed Lead Time",
            "LabelWidth": 260,
            "Placeholder": "",
            "Width": 200,
            "MaxLength": 2,
            "DefaultValue": 0
        },
        {
            "Name": "ItemOUVariableLeadTime",
            "Type": "number",
            "Required": false,
            "ValidRegEx": "",
            "Label": "Variable Lead Time",
            "Placeholder": "",
            "Width": 200,
            "MaxLength": 2,
            "DefaultValue": 0
        },
        {
            "Name": "ItemOUVariableQuantity",
            "Type": "number",
            "Required": false,
            "ValidRegEx": "",
            "Label": "Variable Quantity",
            "LabelWidth": 260,
            "Placeholder": "",
            "Width": 200,
            "MaxLength": 2,
            "DefaultValue": 0
        },
        {
            "Name": "ItemOUManuFacturingLeadTime",
            "Type": "number",
            "Required": false,
            "ValidRegEx": "",
            "Label": "Mfr.Lead Time",
            "LabelWidth": 260,
            "Placeholder": "",
            "Width": 200,
            "MaxLength": 2,
            "DefaultValue": 0
        },
        {
            "Name": "ItemOULeadTimeOffSet",
            "Type": "number",
            "Required": false,
            "ValidRegEx": "",
            "Label": "Lead Time",
            "Placeholder": "",
            "Width": 200,
            "MaxLength": 2,
            "DefaultValue": 0
        },
        {
            "Name": "ItemOUBomYieldPercentage",
            "Type": "number",
            "Required": false,
            "ValidRegEx": "",
            "Label": "BOM Yield Percentage",
            "Placeholder": "",
            "Width": 200,
            "MaxLength": 3,
            "DefaultValue": 0
        },
        {
            "Name": "ItemOUSafetyStockMethod",
            "Type": "number",
            "Required": false,
            "ValidRegEx": "",
            "Label": "Safety Method",
            "Placeholder": "",
            "Width": 200,
            "PickLists": [
                {
                    "key": 0,
                    "value": "Quantity"
                },
                {
                    "key": 1,
                    "value": "Days"
                }
            ]
        },
        {
            "Name": "ItemOUIsServiceApplicable",
            "Type": "number",
            "Required": false,
            "ValidRegEx": "",
            "Label": "Serviceable",
            "Placeholder": "",
            "Width": 200,
            "PickLists": [
                {
                    "key": 0,
                    "value": "Yes"
                },
                {
                    "key": 1,
                    "value": "No"
                }
            ]
        },
        {
            "Name": "ItemOUSafetyDays",
            "Type": "number",
            "Required": false,
            "ValidRegEx": "",
            "LabelWidth": 260,
            "Label": "Safety Level",
            "Placeholder": "",
            "Width": 200,
            "MaxLength": 5,
            "DefaultValue": 0
        },
        {
            "Name": "ItemOUMRPPlannedPercentage",
            "Type": "number",
            "Required": false,
            "ValidRegEx": "",
            "Label": "MRP Percentage",
            "Placeholder": "",
            "Width": 200,
            "MaxLength": 3,
            "DefaultValue": 0
        },
        {
            "Name": "ItemOUIsBinTrackingRequired",
            "Type": "number",
            "Required": false,
            "ValidRegEx": "",
            "Label": "Bin Tracking Required",
            "LabelWidth": 165,
            "Placeholder": "",
            "Width": 200,
            "PickLists": [
                {
                    "key": 0,
                    "value": "Yes"
                },
                {
                    "key": 1,
                    "value": "No"
                }
            ]
        },
        {
            "Name": "DutyTariffId",
            "Type": "number",
            "Required": false,
            "ValidRegEx": "",
            "DefaultValue": -1
        },
        {
            "Name": "DutyTariffName",
            "Type": "string",
            "Required": false,
            "PostData": false,
            "ValidRegEx": "",
            "DefaultValue": ""
        },
        {
            "Name": "VatCommodityId",
            "Type": "number",
            "Required": false,
            "ValidRegEx": "",
            "DefaultValue": -1
        },
        {
            "Name": "VatCommodityName",
            "Type": "string",
            "Required": false,
            "PostData": false,
            "ValidRegEx": "",
            "DefaultValue": ""
        },
        {
            "Name": "RawMaterialItemId",
            "Type": "number",
            "Required": false,
            "ValidRegEx": "",
            "DefaultValue": -1
        },
        {
            "Name": "RawMaterialItemName",
            "Type": "string",
            "Required": false,
            "ValidRegEx": "",
            "PostData": false,
            "DefaultValue": ""
        },
        {
            "Name": "RawMaterialSKUId",
            "Type": "number",
            "Required": false,
            "ValidRegEx": "",
            "DefaultValue": -1
        },
        {
            "Name": "RawMaterialSKUName",
            "Type": "string",
            "PostData": false,
            "Required": false,
            "ValidRegEx": "",
            "DefaultValue": ""
        },
        {
            "Name": "ItemOURawMaterialQuantity",
            "Type": "number",
            "Required": false,
            "ValidRegEx": "",
            "Label": "Quantity",
            "LabelWidth": 135,
            "Placeholder": "",
            "Width": 200,
            "MaxLength": 5,
            "DefaultValue": 0
        },
        {
            "Name": "NestingPlanId",
            "Type": "number",
            "Required": false,
            "ValidRegEx": "",
            "DefaultValue": -1
        },
        {
            "Name": "NestingPlanCode",
            "Type": "string",
            "Required": false,
            "PostData": false,
            "ValidRegEx": "",
            "DefaultValue": ""
        },
        {
            "Name": "PurchaseCurrencyId",
            "Type": "number",
            "Required": false,
            "ValidRegEx": "",
            "DefaultValue": -1
        },
        {
            "Name": "PurchaseCurrencyName",
            "Type": "string",
            "Required": false,
            "PostData": false,
            "ValidRegEx": "",
            "DefaultValue": ""
        },
        {
            "Name": "LastPurchaseCurrencyId",
            "Type": "number",
            "Required": false,
            "ValidRegEx": "",
            "DefaultValue": -1
        },
        {
            "Name": "LastPurchaseCurrencyName",
            "Type": "string",
            "Required": false,
            "ValidRegEx": "",
            "PostData": false,
            "DefaultValue": ""
        },
        {
            "Name": "ItemOULastPurchaseRate",
            "Type": "number",
            "Required": false,
            "ValidRegEx": "",
            "Label": "Last Purchase Rate",
            "Placeholder": "",
            "LabelWidth": 150,
            "Width": 200,
            "MaxLength": 5,
            "DefaultValue": 0
        },
        {
            "Name": "PlannerId",
            "Type": "number",
            "Required": false,
            "ValidRegEx": "",
            "DefaultValue": -1
        },
        {
            "Name": "PlannerName",
            "Type": "string",
            "PostData": false,
            "Required": false,
            "ValidRegEx": "",
            "DefaultValue": ""
        },
        {
            "Name": "ItemTypeId",
            "Type": "number",
            "Required": false,
            "ValidRegEx": "",
            "DefaultValue": -1
        },
        {
            "Name": "ItemTypeName",
            "Type": "string",
            "Required": true,
            "Label": "Type*",
            "PostData": false,
            "ValidRegEx": "",
            "DefaultValue": ""
        },
        {
            "Name": "DutyFormTypeId",
            "Type": "number",
            "Required": false,
            "ValidRegEx": "",
            "DefaultValue": -1
        },
        {
            "Name": "DutyFormTypeName",
            "Type": "string",
            "PostData": false,
            "Required": false,
            "ValidRegEx": "",
            "DefaultValue": ""
        },
        {
            "Name": "QualityParameterSetId",
            "Type": "number",
            "Required": false,
            "ValidRegEx": "",
            "DefaultValue": -1
        },
        {
            "Name": "QualityParameterSetName",
            "Type": "string",
            "Required": false,
            "PostData": false,
            "ValidRegEx": "",
            "DefaultValue": ""
        },
        {
            "Name": "PlanningGroupId",
            "Type": "number",
            "Required": false,
            "ValidRegEx": "",
            "DefaultValue": -1
        },
        {
            "Name": "PlanningGroupName",
            "Type": "string",
            "Required": false,
            "PostData": false,
            "ValidRegEx": "",
            "DefaultValue": ""
        },
        {
            "Name": "ItemOUIsManufacturable",
            "Type": "number",
            "Required": false,
            "ValidRegEx": "",
            "Label": "Manufacturable?", 
            "LabelWidth":260,
            "Placeholder": "",
            "Width": 200,
            "PickLists": [
                {
                    "key": 0,
                    "value": "Yes"
                },
                {
                    "key": 1,
                    "value": "No"
                }
            ]
        },
        {
            "Name": "ItemOUItemOrTemplate",
            "Type": "number",
            "Required": false,
            "ValidRegEx": "",
            "Label": "Item OU/ItemTemplate",
            "Placeholder": "",
            "Width": 200,
            "PickLists": [
                {
                    "key": 0,
                    "value": "Yes"
                },
                {
                    "key": 1,
                    "value": "No"
                }
            ],
            "DefaultValue":0
        },
        {
            "Name": "ItemOUGSTType",
            "Type": "number",
            "Required": false,
            "ValidRegEx": "",
            "Label": "GST Type",
            "LabelWidth": 150,
            "Placeholder": "",
            "Width": 150,
            "PickLists": [
                {
                    "key": 0,
                    "value": "Goods"
                },
                {
                    "key": 1,
                    "value": "Service"
                },
                {
                    "key": 2,
                    "value": "Non GST"
                },
                {
                    "key": 3,
                    "value": "Exempted"
                }
            ],
            "DefaultValue":0
        },
        {
            "Name": "ItemOUITCType",
            "Type": "number",
            "Required": false,
            "ValidRegEx": "",
            "Label": "ITC Type",
            "LabelWidth": 75,
            "Placeholder": "",
            "Width": 200,
            "PickLists": [
                {
                    "key": 0,
                    "value": "Input ITC"
                },
                {
                    "key": 1,
                    "value": "Capital Goods ITC"
                },
                {
                    "key": 2,
                    "value": "Service ITC"
                },
                {
                    "key": 3,
                    "value": "No ITC"
                }
            ],
            "DefaultValue":0
        },
        {
            "Name": "GSTTariffId",
            "Type": "number",
            "Required": false,
            "ValidRegEx": "",
            "DefaultValue": -1
        },
        {
            "Name": "GSTTariffName",
            "Type": "string",
            "Required": true,
            "Label": "HSN*",
            "PostData": false,
            "ValidRegEx": "",
            "DefaultValue": ""
        },
        {
            "Name": "SACName",
            "Type": "string",
            "Required": false,
            "ValidRegEx": "",
            "DefaultValue": ""
        },
        {
            "Name": "GSTTableId",
            "Type": "number",
            "Required": false,
            "ValidRegEx": "",
            "DefaultValue": -1
        },
        {
            "Name": "GSTTableName",
            "Type": "string",
            "PostData": false,
            "Label": "GST Table *",
            "Required": true,
            "ValidRegEx": "",
            "DefaultValue": ""
        },
        {
            "Name": "ItemOUIsBatchStock",
            "Type": "number",
            "Required": false,
            "ValidRegEx": "",
            "Label": "Batch Stock",
            "LabelWidth": 165,
            "Placeholder": "",
            "Width": 200,
            "PickLists": [
                {
                    "key": 0,
                    "value": "Yes"
                },
                {
                    "key": 1,
                    "value": "No"
                }
            ]
        },
        {
            "Name": "ItemOUVersion",
            "Type": "number",
            "Required": false,
            "ValidRegEx": "",
            "DefaultValue": 8
        },
        {
            "Name": "ItemOUStatus",
            "Type": "number",
            "Required": false,
            "ValidRegEx": "",
            "DefaultValue": 1
        },
        {
            "Name": "ItemOUIsNonTransacted",
            "Type": "number",
            "Required": false,
            "ValidRegEx": "",
            "Label": "Non Transacted Item",
            "Placeholder": "",
            "Width": 200,
            "DefaultValue": 1
        },
        {
            "Name": "MaterialAccountId",
            "Type": "number",
            "Required": false,
            "ValidRegEx": "",
            "DefaultValue": -1
        },
        {
            "Name": "MaterialAccountName",
            "Type": "string",
            "Required": true,
            "PostData": false,
            "Label": "Material Account*",
            "ValidRegEx": "",
            "DefaultValue": ""
        },
        {
            "Name": "ItemOUMinLevel",
            "Type": "number",
            "Required": false,
            "ValidRegEx": "",
            "Label": "Minimum Stock",
            "MaxLength": 5,
            "Placeholder": "",
            "LabelWidth": 210,
            "Width": 200,
            "DefaultValue": 1
        },
        {
            "Name": "ItemOUMaxLevel",
            "Type": "number",
            "Required": false,
            "ValidRegEx": "",
            "Label": "Maximum Stock",
            "MaxLength": 5,
            "Placeholder": "",
            "LabelWidth": 153,
            "Width": 200,
            "DefaultValue": 1
        },
        {
            "Name": "ItemOUIsstockmaintenancepost",
            "Type": "number",
            "Required": false,
            "PostData": true,
            "ValidRegEx": "",
            "DefaultValue": 1
        },
        {
            "Name": "ItemOUIsPackingsDetailsRequired",
            "Type": "number",
            "Required": false,
            "ValidRegEx": "",
            "Label": "Packing Details",
            "LabelWidth": 117,
            "Placeholder": "",
            "Width": 200,
            "PickLists": [
                {
                    "key": 0,
                    "value": "Yes"
                },
                {
                    "key": 1,
                    "value": "No"
                }
            ]
        }
    ]
}