{
    "ObjectFields": [
        {"MasterScheduleCode": {
            "PicklistUrl": "MasterSchedule",
            "PicklistDisplayText": "Code,Name",
            "PicklistSearchFields": "Code,Name",
            "Multiple": false,
            "LabelWidth":100,
            "PicklistSelection": "Id",
            "PicklistTitle": "Code",
            "Label": "Code*",
            "Width": 200,
            "AddNew": true,
            "MaxLength": 20,
            "ColumnWidth": "150,250",
            "ColumnType": "string,string",
            "isKeyField": true
        },
            "MasterScheduleName": {
                "PicklistUrl": "MasterSchedule",
                "PicklistDisplayText": "Code,Name",
                "PicklistSearchFields": "Code,Name",
                "Multiple": false,
                "LabelWidth":100,
                "PicklistSelection": "Id",
                "PicklistTitle": "Name",
                "Label": "Name*",
                "Width": 200,
                "AddNew": true,
                "MaxLength": 20,
                "ColumnWidth": "150,250",
                "ColumnType": "string,string",
                "isKeyField": true
            },

            "OUName": {
                "PicklistUrl": "OrgUnit",
                "PicklistDisplayText": "Code,Name",
                "PicklistSearchFields": "Code,Name",
                "Multiple": false,
                "LabelWidth":100,
                "PicklistSelection": "Id",
                "PicklistTitle": "Name",
                "Label": "Organization Group*",
                "Width": 200,
                "AddNew": false,
                "MaxLength": 20,
                "ColumnWidth": "150,250",
                "ColumnType": "string,string",
              
                "LinkId": "OUId"
            },

            "OUGroupName": {
                "PicklistUrl": "OrganizationGroup",
                "PicklistDisplayText": "Code,Name",
                "PicklistSearchFields": "Code",
                "Multiple": false,
                "PicklistSelection": "Id",
                "PicklistTitle": "Name",
                "Label": "Organization Group* ",
                "Width": 200,
                "AddNew": false,
                "LabelWidth":100,
                "MaxLength": 20,
                "ColumnWidth": "150,250",
                "ColumnType": "string,string",
       
                "PicklistCriteria": "PayPeriod",
                "LinkId": "OUGroupId"
            }
        },

        {
            "Name": "MasterScheduleId",
            "Type": "number",
            "Required": true,
            "ValidRegEx": "",
            "DefaultValue": 0,
            "PostData": true,
            "width": "400px"
        },

        {
            "Name": "MasterScheduleCode",
            "Type": "string",
            "Required": true,
            "ValidRegEx": "",
            "DefaultValue": "",
            "width": "400px",
            "PostData": true,
            "Label": "Code*"
        },

        {
            "Name": "OUName",
            "Type": "string",
            "Required": true,
            "ValidRegEx": "",
            "DefaultValue": "",
            "width": "400px",
            "PostData": true,
            "Label": "Organization Type*"
        },

        {
            "Name": "OUGroupName",
            "Type": "string",
            "Required": true,
            "ValidRegEx": "",
            "DefaultValue": "",
            "width": "400px",
            "PostData": true,
            "Label": "Organization Group*"
        },

        {
            "Name": "MasterScheduleName",
            "Type": "string",
            "Required": true,
            "ValidRegEx": "",
            "DefaultValue": "",
            "PostData": true,
            "width": "400px",
            "Label": "Name*"
        },

        {
            "Name": "MasterScheduleOrganizationType",
            "Type": "number",
            "Required": false,
            "ValidRegEx": "",
            "DefaultValue": 0,
            "width": "400px",
            "PostData":true,
            "Label": "Organization Type*",
            "PickLists": [
                {
                    "key": 0,
                    "value": "All"
                },
                {
                    "key": 1,
                    "value": "Organization"
                },
                {
                    "key": 2,
                    "value": "OrganizationGroup"
                }
            ]
        },

        {
            "Name": "OUId",
            "Type": "number",
            "Required": true,
            "ValidRegEx": "",
            "DefaultValue": -1,
            "PostData": true,
            "width": "400px"
        },

        {
            "Name": "OUGroupId",
            "Type": "number",
            "Required": true,
            "ValidRegEx": "",
            "DefaultValue": -1,
            "PostData": true,
            "width": "400px"
        },
        {
            "Name": "OUGroupId",
            "Type": "number",
            "Required": true,
            "ValidRegEx": "",
            "DefaultValue": 0,
            "PostData": true,
            "width": "400px"
        }, 
        {
            "Name": "MasterScheduleIsIncludeInATP",
            "Type": "number",
            "Required": false,
            "ValidRegEx": "",
            "DefaultValue": 0,
            "PostData": true,
            "width": "400px",
            "Label":"Include in ATP? "
        },
        {
            "Name": "MasterScheduleIsAutoRelease",
            "Type": "number",
            "Required": false,
            "ValidRegEx": "",
            "DefaultValue": 0,
            "PostData": true,
            "width": "400px",
            "Label":"Auto Release? "
        },
        {
            "Name": "MasterScheduleValidTillDate",
            "Type": "Date",
            "Required": false,
            "ValidRegEx": "",
            "DefaultValue": "today",
            "PostData": true,
            "width": "400px",
            "Label":"Valid Till Date"
        },
        {
            "Name": "MasterScheduleStatus",
            "Type": "number",
            "Required": true,
            "ValidRegEx": "",
            "DefaultValue": 1,
            "PostData": true,
            "width": "400px"
        },

        {
            "Name": "MasterScheduleVersion",
            "Type": "number",
            "Required": true,
            "ValidRegEx": "",
            "DefaultValue": 1,
            "PostData": true,
            "width": "400px"
        },
        {
            "Name": "MasterScheduleCreatedOn",
            "Type": "string",
            "Required": false,
            "ValidRegEx": "",
            "DefaultValue":  "/Date(1712222100000)/",
            "width":"400px"
          },  
          {
            "Name": "MasterScheduleCreatedByName",
            "Type": "string",
            "Required": false,
            "ValidRegEx": "",
            "PostData":true,
            "DefaultValue": "ADMIN",
            "width":"400px"
          },  
          {
            "Name": "MasterScheduleModifiedByName",
            "Type": "string",
            "Required": false,
            "ValidRegEx": "",
            "PostData":true,
            "DefaultValue":  "ADMIN",
            "width":"400px"
          },  
          {
            "Name": "MasterScheduleModifiedOn",
            "Type": "string",
            "Required": false,
            "ValidRegEx": "",
            "DefaultValue": "/Date(1712222100000)/",
            "width":"400px"
          }








    ]
}