{
    "ObjectFields": [
{
    "ModuleCode": {
        "PicklistUrl": "ModuleNew",
        "PicklistDisplayText": "Code,Name",
        "PicklistSearchFields": "Code",
        "Multiple": false,
        "PicklistSelection": "Id",
        "PicklistTitle": "Code",
        "Label": "Code*",
        "Width": 160,
        "AddNew": true,
        "SLno":1,
        "MaxLength": 10,
        "ColumnWidth": "200,300",
        "ColumnType": "string,string",
        "PlaceHolder":"Enter Code",
        "isKeyField":true
    },
    "ModuleName": {
        "PicklistUrl": "ModuleNew",
        "PicklistDisplayText": "Code,Name",
        "PicklistSearchFields": "Name",
        "Multiple": false,
        "PicklistSelection": "Id",
        "PicklistTitle": "Name",
        "Label": "Name*",
        "Width": 360,
        "AddNew": true,
        "MaxLength": 50,
        "PlaceHolder":"Enter Name",
        "ColumnWidth": "150,250",
        "ColumnType": "string,string",
        "isKeyField":true
    },
    "ProjectName": {
        "PicklistUrl": "Project",
        "PicklistDisplayText": "Code,Name",
        "PicklistSearchFields": "Name",
        "Multiple": false,
        "PicklistSelection": "Id",
        "PicklistTitle": "Name",
        "Label": "Project*",
        "Width": 360,
        "AddNew": false,
        "MaxLength": 20,
        "PlaceHolder":"Select Project",
        "LabelWidth":105,
        "ColumnWidth": "150,250",
        "ColumnType": "string,string",
        "LinkId": "ProjectId"
    },
    "ImageName": {
        "PicklistUrl": "Image",
        "PicklistDisplayText": "Name",
        "PicklistSearchFields": "Name",
        "Multiple": false,
        "PicklistSelection": "Id",
        "PicklistTitle": "Name",
        "Label": "Image*",
        "Width": 360,
        "AddNew": false,
        "MaxLength": 20,
        "PlaceHolder":"Select Image",
        "LabelWidth":105,
        "ColumnWidth": "150,250",
        "ColumnType": "string,string",
        "LinkId": "ImageId"
    },
    "MenuName": {
        "PicklistUrl": "Menu",
        "PicklistDisplayText": "Code,Name",
        "PicklistSearchFields": "Name",
        "Multiple": false,
        "PicklistSelection": "Id",
        "PicklistTitle": "Name",
        "Label": "Default Menu*",
        "Width": 360,
        "AddNew": false,
        "PlaceHolder":"Select Menu",
        "LabelWidth":100,
        "MaxLength": 20,
        "ColumnWidth": "150,250",
        "ColumnType": "string,string",
        "LinkId": "MenuId"
    }
},
{
    "Name": "ModuleCode",
    "Type": "string",
    "Required": true,
    "ValidRegEx": "",
    "DefaultValue": "",
    "PostData":true,
    "width":"400px",
    "Label":"Code*"
  },

  {
    "Name": "ModuleName",
    "Type": "string",
    "Required": true,
    "ValidRegEx": "",
    "PostData":true,
    "DefaultValue": "",
    "width":"400px",
    "Label":"Name*"
  },
  {
    "Name": "ProjectName",
    "Type": "string",
    "Required": true,
    "ValidRegEx": "",
    "DefaultValue": "",
    "PostData":true,
    "width":"400px",
    "Label":"Project*"
  },

  {
    "Name": "ImageName",
    "Type": "string",
    "Required": true,
    "ValidRegEx": "",
    "PostData":true,
    "DefaultValue": "",
    "width":"400px",
    "Label":"Image*"
  },
  {
    "Name": "MenuName",
    "Type": "string",
    "Required": true,
    "ValidRegEx": "",
    "PostData":true,
    "DefaultValue": "",
    "width":"400px",
    "Label":"Default Menu*"
  },
  
  {
    "Name": "ModuleId",
    "Type": "number",
    "Required": false,
    "ValidRegEx": "",
    "PostData":true,
    "DefaultValue": 0,
    "width":"400px"
  },
  {
      "Name": "ProjectId",
      "Type": "number",
      "Required": false,
      "ValidRegEx": "",
      "PostData":true,
      "DefaultValue": -1,
      "width":"400px"
    },
    {
        "Name": "ImageId",
        "Type": "number",
        "Required": false,
        "ValidRegEx": "",
        "PostData":true,
        "DefaultValue": -1,
        "width":"400px"
      },{
        "Name": "MenuId",
        "Type": "number",
        "Required": false,
        "ValidRegEx": "",
        "PostData":true,
        "DefaultValue": -1,
        "width":"400px"
      },
      {
        "Name": "ModuleRemarks",
        "Type": "string",
        "Required": false,
        "ValidRegEx": "",
        "PostData":true,
        "DefaultValue": "NONE",
        "width":"400px"
      },
      {
        "Name": "ModuleStatus",
        "Type": "number",
        "Required": false,
        "ValidRegEx": "",
        "PostData":true,
        "DefaultValue": 1,
        "width":"400px"
      },

      {
        "Name": "ModuleVersion",
        "Type": "number",
        "Required": false,
        "ValidRegEx": "",
        "PostData":true,
        "DefaultValue": 1,
        "width":"400px"
      },


      {
        "Name": "ModuleCreatedOn",
        "Type": "string",
        "Required": false,
        "ValidRegEx": "",
        "PostData":true,
        "DefaultValue":"/Date(1712850420000)/",
        "width":"400px"
      },
      {
        "Name": "ModuleCreatedOn",
        "Type": "string",
        "Required": false,
        "ValidRegEx": "",
        "PostData":true,
        "DefaultValue":"/Date(1712850420000)/",
        "width":"400px"
      },
      {
        "Name": "ModuleModifiedOn",
        "Type": "string",
        "Required": false,
        "ValidRegEx": "",
        "PostData":true,
        "DefaultValue":"/Date(1712850420000)/",
        "width":"400px"
      },
      {
        "Name": "ModuleCreatedByName",
        "Type": "string",
        "Required": false,
        "ValidRegEx": "",
        "PostData":true,
        "DefaultValue":"ADMIN",
        "width":"400px"
      },
      {
        "Name": "ModuleModifiedByName",
        "Type": "string",
        "Required": false,
        "ValidRegEx": "",
        "PostData":true,
        "DefaultValue":"ADMIN",
        "width":"400px"
      },
      {
        "Name": "ModuleSourceType",
        "Type": "number",
        "Required": false,
        "ValidRegEx": "",
        "PostData":true,
        "DefaultValue": 5,
        "width":"400px"
      }

    ]



}