{
    "ObjectFields": [
        {
            "PartyBranchLocationCode": {
                "PicklistUrl": "PartyBranchLocation",
                "PicklistDisplayText": "Code,Name",
                "PicklistSearchFields": "Code,Name",
                "Multiple": false,
                "PicklistSelection": "Id",
                "PlaceHolder":"Enter Code",
                "PicklistTitle": "Code",
                "Label": "Code*",
                "Width": 160,
                "SLno":1,
                "AddNew": true,
                "MaxLength": 10,
                "ColumnWidth": "150,250",
                "ColumnType": "string,string",
                "isKeyField": true
            },
            "PartyBranchLocationName": {
                "PicklistUrl": "PartyBranchLocation",
                "PicklistDisplayText": "Code,Name",
                "PicklistSearchFields": "Code,Name",
                "Multiple": false,
                "PicklistSelection": "Id",
                "PicklistTitle": "Name",
                "Label": "Name*",
                "PlaceHolder":"Enter Name",
                "Width": 360,
                "AddNew": true,
                "MaxLength": 35,
                "ColumnWidth": "150,250",
                "ColumnType": "string,string",
                "isKeyField": true
            },
            "PartyBranchName": {
                "PicklistUrl": "PartyBranch",
                "PicklistDisplayText": "Code,Name",
                "PicklistSearchFields": "Name",
                "Multiple": false,
                "PlaceHolder":"Select Party Branch",
                "PicklistSelection": "Id",
                "PicklistTitle": "Name",
                "LinkId": "PartyBranchId",
                "Label": "PartyBranch*",
                "LabelWidth":85,
                "Width": 360,
                "AddNew": false,
                "MaxLength": 35,
                "ColumnWidth": "150,250",
                "ColumnType": "string,string"
            },
            "ParentLocationName": {
                "PicklistUrl": "PartyBranchLocation",
                "PicklistDisplayText": "Code,Name",
                "PicklistSearchFields": "Name",
                "Multiple": false,
                "PicklistSelection": "Id",
                "PicklistTitle": "Name",
                "PlaceHolder":"Select Under",
                "LinkId": "ParentLocationId",
                "Label": "Under*",
                "Width": 360,
                "LabelWidth":98,
                "AddNew": false,
                "MaxLength": 35,
                "ColumnWidth": "150,250",
                "ColumnType": "string,string"
            }
        },
        {
            "Name": "PartyBranchId",
            "Type": "number",
            "PostData": true,
            "Required": false,
            "ValidRegEx": "",
            "DefaultValue": -1,
            "Width": 200
        },
        {
            "Name": "PartyBranchLocationId",
            "Type": "number",
            "Required": false,
            "ValidRegEx": "",
            "PostData": false,
            "DefaultValue": -1,
            "Width": 200
        },
        {
            "Name": "PartyBranchCode",
            "Type": "string",
            "Required": false,
            "PostData": false,
            "ValidRegEx": "",
            "DefaultValue": "",
            "Width": 200,
            "MaxLength": 10
        },
        {
            "Name": "PartyBranchName",
            "Type": "string",
            "Label": "Party Branch*",
            "Required": true,
            "PostData": false,
            "ValidRegEx": "",
            "DefaultValue": "",
            "Width": 200,
            "MaxLength": 35
        },
        {
            "Name": "PartyBranchShortName",
            "Type": "string",
            "Required": false,
            "PostData": false,
            "ValidRegEx": "",
            "DefaultValue": "",
            "Width": 200
        },
        {
            "Name": "ParentLocationName",
            "Type": "string",
            "Required": true,
            "PostData": false,
            "Label": "Under*",
            "ValidRegEx": "",
            "DefaultValue": "",
            "Width": 200
        },
        {
            "Name": "ParentLocationCode",
            "Type": "string",
            "Required": false,
            "PostData": false,
            "ValidRegEx": "",
            "DefaultValue": "",
            "Width": 200
        },
        {
            "Name": "PartyBranchLocationCode",
            "Type": "string",
            "Required": true,
            "PostData": true,
            "Label": "Code*",
            "ValidRegEx": "",
            "DefaultValue": "",
            "Width": 200
        },
        {
            "Name": "PartyBranchLocationName",
            "Type": "string",
            "PostData": true,
            "Required": true,
            "Label": "Name*",
            "ValidRegEx": "",
            "DefaultValue": "",
            "Width": 200
        },
        {
            "Name": "ParentLocationId",
            "Type": "number",
            "Required": false,
            "PostData": true,
            "ValidRegEx": "",
            "DefaultValue": 0,
            "Width": 200
        },
        {
            "Name": "PartyBranchLocationInchargeId",
            "Type": "number",
            "Required": false,
            "PostData": false,
            "ValidRegEx": "",
            "DefaultValue": 0,
            "Width": 200
        },
        {
            "Name": "PartyBranchLocationLevels",
            "Type": "number",
            "Required": false,
            "PostData": false,
            "ValidRegEx": "",
            "DefaultValue": 0,
            "Width": 200
        },
        {
            "Name": "PartyBranchLocationParentIds",
            "Type": "number",
            "Required": false,
            "PostData": false,
            "ValidRegEx": "",
            "DefaultValue": -1,
            "Width": 200
        },
        {
            "Name": "PartyBranchLocationCreatedById",
            "Type": "number",
            "Required": false,
            "PostData": false,
            "ValidRegEx": "",
            "DefaultValue": -1,
            "Width": 200
        },
        {
            "Name": "PartyBranchLocationCreatedOn",
            "Type": "string",
            "Required": false,
            "PostData": false,
            "ValidRegEx": "",
            "DefaultValue": "/Date(1465211673000)/",
            "Width": 200
        },
        {
            "Name": "PartyBranchLocationModifiedOn",
            "Type": "string",
            "Required": false,
            "PostData": false,
            "ValidRegEx": "",
            "DefaultValue": "/Date(1465211673000)/",
            "Width": 200
        },
        {
            "Name": "PartyBranchLocationModifiedById",
            "Type": "number",
            "Required": false,
            "PostData": false,
            "ValidRegEx": "",
            "DefaultValue": -1,
            "Width": 200
        },
        {
            "Name": "PartyBranchLocationNature",
            "Type": "string",
            "Required": true,
            "PostData": true,
            "Label": "Nature*",
            "MaxLength":20,
            "Placeholder": "Enter Nature",
            "ValidRegEx": "",
            "DefaultValue": "",
            "Width": 360
        },
        {
            "Name": "PartyBranchLocationSortOrder",
            "Type": "number",
            "Required": false,
            "PostData": true,
            "ValidRegEx": "",
            "DefaultValue": 9999,
            "MaxLength": 4,
            "Width": 200
        },
        {
            "Name": "PartyBranchLocationStatus",
            "Type": "number",
            "Required": false,
            "PostData": true,
            "ValidRegEx": "",
            "Label": "Status",
            "DefaultValue": 1,
            "Width": 200
        },
        {
            "Name": "PartyBranchLocationSourceType",
            "Type": "number",
            "Required": true,
            "PostData": true,
            "ValidRegEx": "",
            "Label": "SourceType",
            "DefaultValue": 1,
            "Width": 200
        },
        {
            "Name": "PartyBranchLocationVersion",
            "Type": "number",
            "Required": false,
            "PostData": true,
            "ValidRegEx": "",
            "Label": "Version",
            "DefaultValue": 1,
            "Width": 200
        }
    ]
}