{
    "ObjectFields": [
        {
            "MeasureName":{
                "PicklistUrl": "PerformanceMeasure",
                "PicklistDisplayText": "Name",
                "PicklistSearchFields": "Name",
                "Multiple": false,
                "PicklistSelection": "Id",
                "PicklistTitle": "Name",
                "Label": "Name*",
                "Width": 300,
                "AddNew": true,
                "MaxLength": 100,
                "ColumnWidth": "200",
                "ColumnType": "string",
                "PlaceHolder": "Enter Name"
            },
            "KRAName":{
                "PicklistUrl": "KRA",
                "PicklistDisplayText": "Name",
                "PicklistSearchFields": "Name",
                "Multiple": false,
                "PicklistSelection": "Id",
                "PicklistTitle": "Name",
                "Label": " KRA* ",
                "Width": 300,
                "AddNew": false,
                "ColumnWidth": "200",
                "ColumnType": "string",
                "LinkId": "KRAId",
                "PlaceHolder": "Enter Module"
            },
            "LovTypeName":{
                "PicklistUrl": "LovType",
                "PicklistDisplayText": "Code,Name",
                "PicklistSearchFields": "Code,Name",
                "Multiple": false,
                "PicklistSelection": "Id",
                "PicklistTitle": "Name",
                "Label": "  List of Value*  ",
                "Width": 300,
                "AddNew": false,
                "ColumnWidth": "200",
                "ColumnType": "string",
                "LinkId": "LovTypeId",
                "PlaceHolder": "Enter Module"
            }
        },
        {
            "Name": "MeasureId",
            "Type": "number",
            "Required": false,
            "PostData": true,
            "ValidRegEx": "",
            "DefaultValue": 0
        },
        {
            "Name": "MeasureName",
            "Type": "string",
            "Label": "Name*",
            "Required": true,
            "ValidRegEx": "",
            "PostData": true,
            "DefaultValue": ""
        },
        {
            "Name": "MeasureDescription",
            "Type": "string",
            "Label": "Description",
            "Placeholder": "Description",
            "Required": false,
            "PostData": true,
            "ValidRegEx": "",
            "DefaultValue": "",
            "Width": 200,
            "MaxLength": 1000
        },
        {
            "Name": "KRAId",
            "Type": "number",
            "Required": true,
            "PostData": true,
            "ValidRegEx": "",
            "DefaultValue": 0
        },
        {
            "Name": "KRAName",
            "Type": "string",
            "Label": "KRA*",
            "Required": true,
            "ValidRegEx": "",
            "PostData": false,
            "DefaultValue": ""
        },
        {
            "Name": "LovTypeId",
            "Type": "number",
            "Required": true,
            "PostData": true,
            "ValidRegEx": "",
            "DefaultValue": 0
        },
        {
            "Name": "LovTypeName",
            "Type": "string",
            "Label": " List of Value* ",
            "Required": true,
            "ValidRegEx": "",
            "PostData": false,
            "DefaultValue": ""
        },
        {
            "Name": "MeasureIsText",
            "Type": "number",
            "Label": "Descriptive Reason Required",
            "Tooltip": "",
            "DefaultValue": 0,
            "Width": 300,
            "Placeholder": "",
            "Required": false,
            "PostData": true,
            "ValidRegEx": "",
            "PickLists": [
                {
                    "key": 0,
                    "value": "Yes"
                },
                {
                    "key": 1,
                    "value": "No"
                }
            ]
        },
        {
            "Name": "MeasureStatus",
            "Type": "number",
            "Label": "Descriptive Reason Required",
            "Tooltip": "",
            "DefaultValue": 1,
            "Width": 300,
            "Placeholder": "",
            "Required": false,
            "PostData": true,
            "ValidRegEx": "",
            "PickLists": [
                {
                    "key": 0,
                    "value": "Pending"
                },
                {
                    "key": 1,
                    "value": "Active"
                },
                {
                    "key": 2,
                    "value": "Deleted"
                },
                {
                    "key": 3,
                    "value": "Amended"
                },
                {
                    "key": 4,
                    "value": "Inactive"
                },
                {
                    "key": 5,
                    "value": "Archived"
                }
            ]
        },
        {
            "Name": "MeasureRemarks",
            "Type": "string",
            "Label": "Remarks ",
            "Placeholder": "Enter Remarks ",
            "Required": false,
            "PostData": true,
            "ValidRegEx": "",
            "DefaultValue": "",
            "Width": 200,
            "MaxLength": 2000
        },
      
        {
            "Name": "MeasureVersion",
            "Type": "number",
            "Required": false,
            "PostData": true,
            "ValidRegEx": "",
            "DefaultValue": 1
        }
    ]
}