{
    "ObjectFields": [
        {
            "PicklistCode": {
                "PicklistUrl": "Picklist",
                "PicklistDisplayText": "Code,Name",
                "PicklistSearchFields": "Code,Name",
                "Multiple": false,
                "PicklistSelection": "Id",
                "PicklistTitle": "Code",
                "PlaceHolder":"Enter Code",
                "Label": "Code*",
                "SLno":1,
                "Width": 200,
                "AddNew": true,
                "MaxLength": 10,
                "ColumnWidth": "150,250",
                "ColumnType": "string,string",
                "isKeyField": true
            },
            "PicklistName": {
                "PicklistUrl": "Picklist",
                "PicklistDisplayText": "Code,Name",
                "PicklistSearchFields": "Code,Name",
                "Multiple": false,
                "PicklistSelection": "Id",
                "PicklistTitle": "Name",
                "PlaceHolder":"Enter Name",
                "Label": "Name*",
                "Width": 200,
                "AddNew": true,
                "MaxLength": 35,
                "ColumnWidth": "150,250",
                "ColumnType": "string,string",
                "isKeyField": true
            },
            "PicklistUri": {
                "PicklistUrl": "WebService",
                "PicklistDisplayText": "Name",
                "PicklistSearchFields": "Name",
                "PlaceHolder":"Select URI",
                "Multiple": false,
                "PicklistSelection": "Id",
                "PicklistTitle": "Name",
                "Label": "URL",
                "Width": 200,
                "AddNew": false,
                "MaxLength": 400,
                "ColumnWidth": "150,250",
                "ColumnType": "string,string"
        
            }
        },
        {
            "Name": "PicklistCode",
            "Type": "string",
            "Label": "Code*",
            "Required": true,
            "PostData": true,
            "ValidRegEx": "",
            "DefaultValue": "",
            "Width": 200
        },
        {
            "Name": "PicklistName",
            "Type": "string",
            "Label": "Name*",
            "Required": true,
            "PostData": true,
            "ValidRegEx": "",
            "DefaultValue": "",
            "Width": 200
        },
        {
            "Name": "PicklistId",
            "Type": "number",
            "Required": false,
            "PostData": true,
            "ValidRegEx": "",
            "DefaultValue": 0,
            "Width": 200
        },
        {
            "Name": "PicklistTitle",
            "Type": "string",
            "Label": "Title*",
            "Required": true,
            "PostData": true,
            "ValidRegEx": "",
            "DefaultValue": "",
            "Width": 200,
            "Placeholder":"Enter Title"
        },
        {
            "Name": "PicklistIsMultiselect",
            "Type": "number",
            "Label": "Multi Select*",
            "Tooltip": "",
            "DefaultValue": 0,
            "Placeholder": "",
            "Required": true,
            "Width":100,
            "ValidRegEx": "",
            "PickLists": [
                {
                    "key": 0,
                    "value": "yes"
                },
                {
                    "key": 1,
                    "value": "no"
                }
            ]
        },
        
        {
            "Name": "PicklistUri",
            "Type": "string",
            "Label": "URI*",
            "Required": true,
            "PostData": true,
            "ValidRegEx": "",
            "DefaultValue": "",
            "Placeholder":"",
            "Width": 200
        },
        {
            "Name": "PicklistSearchableFields",
            "Type": "string",
            "Label": "Searchable Fields",
            "Required": false,
            "PostData": true,
            "ValidRegEx": "",
            "DefaultValue": "",
            "Placeholder":"Enter SearchableFields",
            "Width": 200,
            "MaxLength":50
        },
        {
            "Name": "PicklistSearchFields",
            "Type": "string",
            "Label": "Search Fields",
            "Required": false,
            "PostData": true,
            "ValidRegEx": "",
            "DefaultValue": "",
            "Placeholder":"Enter Search Fields",
            "Width": 200,
            "MaxLength":"50"
        },
        {
            "Name": "PicklistDisplayFieldName",
            "Type": "string",
            "Label": "Display Field Name*",
            "Required": true,
            "PostData": true,
            "ValidRegEx": "",
            "DefaultValue": "",
            "Placeholder":"Enter Display",
            "Width": 200,
            "MaxLength":50
        },
        {
            "Name": "PicklistSelectionFieldName",
            "Type": "string",
            "Label": "Selection Field Name*",
            "Required": true,
            "PostData": true,
            "ValidRegEx": "",
            "DefaultValue": "",
            "Placeholder":"Enter Selection",
            "Width": 200,
            "MaxLength":"50"
        },
        {
            "Name": "PicklistDisplayFieldTextBox",
            "Type": "string",
            "Label": "Display Field Text Box*",
            "Required": true,
            "PostData": true,
            "ValidRegEx": "",
            "DefaultValue": "",
            "Placeholder":"Enter Diplay Field",
            "Width": 200,
            "MaxLength":100
        },
        {
            "Name": "PicklistWidth",
            "Type": "number",
            "Label": "Picklist Width*",
            "Required": true,
            "PostData": true,
            "ValidRegEx": "",
            "DefaultValue": 0,
            "Placeholder":"",
            "Width": 50,
            "MaxLength":4
        },
        {
            "Name": "PicklistHeight",
            "Type": "number",
            "Label": "Picklist Height*",
            "Required": true,
            "PostData": true,
            "ValidRegEx": "",
            "Placeholder":"",
            "DefaultValue": 0,
            "Width": 50,
            "MaxLength":4
        },
        {
            "Name": "PicklistNumberOfSelection",
            "Type": "number",
            "Label": "Number Of Selection*",
            "Required": true,
            "PostData": true,
            "ValidRegEx": "",
            "Placeholder":"",
            "DefaultValue": 0,
            "Width": 50,
            "MaxLength":4
        },
        {
            "Name": "PicklistMinimunNumber",
            "Type": "number",
            "Label": "Minimum Number*",
            "Required": true,
            "PostData": true,
            "Placeholder":"",
            "ValidRegEx": "",
            "DefaultValue": 0,
            "Width": 50,
            "MaxLength":4
        },
        {
            "Name": "PicklistOutputDtos",
            "Type": "Grid",
            "Grid": [
                {
                    "Label": "PicklistOutputId",
                    "value": "PicklistOutputId",
                    "Type": "number",
                    "Required": false,
                    "PostData": true,
                    "ValidRegEx": "",
                    "IsVisible": false,
                    "DefaultValue": -1
                },
                {
                    "Label": "PicklistId",
                    "value": "PicklistId",
                    "Type": "number",
                    "Required": false,
                    "PostData": true,
                    "ValidRegEx": "",
                    "IsVisible": false,
                    "DefaultValue": 0
                },
                {
                    "Label": "Field Name*",
                    "value": "PicklistOutputFieldName",
                    "Type": "string",
                    "PostData": true,
                    "Required": false,
                    "ValidRegEx": "",
                    "IsVisible": true,
                    "Placeholder":"Enter Field Name",
                    "DefaultValue": "",
                    "width": 200,
                    "left": 0,
                    "SNo": 1,
                    "MaxLength": 100
                },
                {
                    "Label": "Visible*",
                    "value": "PicklistOutputIsVisible",
                    "width": 100,
                    "Type": "ComboBox",
                    "sticky": false,
                    "left": 300,
                    "SNo": 2,
                    "IsVisible": true,
                    
                    "PickLists": [
                        {
                            "key": 0,
                            "value": "Yes"
                        },
                        {
                            "key": 1,
                            "value": "No"
                        }
                    ]
                },

                {
                    "Label": "Header Text*",
                    "value": "PicklistOutputHeaderText",
                    "Type": "string",
                    "Placeholder":"Enter Header Text",
                    "PostData": true,
                    "Required": false,
                    "ValidRegEx": "",
                    "IsVisible": true,
                    
                    "DefaultValue": "",
                    "width": 200,
                    "SNo": 3,
                    "MaxLength": 100
                },
                {
                    "Label": "FieldSize*",
                    "value": "PicklistOutputFieldSize",
                    "Type": "number",
                    "PostData": true,
                    "Required": false,
                    "ValidRegEx": "",
                    "IsVisible": true,
                    "DefaultValue": 0,
                    "width": 100,
                    "SNo": 4,
                    "MaxLength": 3
                },
                {
                    "Label": "F Required*",
                    "value": "PicklistOutputIsFreezingReq",
                    "width": 100,
                    "Type": "ComboBox",
                    "sticky": false,
                    "left": 700,
                    "SNo": 5,
                    "IsVisible": true,
                    
                    "PickLists": [
                        {
                            "key": 0,
                            "value": "Yes"
                        },
                        {
                            "key": 1,
                            "value": "No"
                        }
                    ]
                },
                {
                    "Label": "HW Required*",
                    "value": "PicklistOutputIsHeaderWrappingReq",
                    "width": 100,
                    "Type": "ComboBox",
                    "sticky": false,
                    "left": 800,
                    "SNo": 6,
                    "IsVisible": true,
                    "PickLists": [
                        {
                            "key": 0,
                            "value": "Yes"
                        },
                        {
                            "key": 1,
                            "value": "No"
                        }
                    ]
                },
                {
                    "Label": "DW Required*",
                    "value": "PicklistOutputIsDataWrappingReq",
                    "width": 100,
                    "Type": "ComboBox",
                    "sticky": false,
                    "left": 900,
                    "SNo": 7,
                    "IsVisible": true,
                    "PickLists": [
                        {
                            "key": 0,
                            "value": "Yes"
                        },
                        {
                            "key": 1,
                            "value": "No"
                        }
                    ]
                }
            ]
        },
        {
            "Name": "PicklistStatus",
            "Type": "number",
            "Label": "status",
            "Required": false,
            "PostData": true,
            "ValidRegEx": "",
            "Placeholder":"",
            "DefaultValue": 1
            
        },
        {
            "Name": "PicklistVersion",
            "Type": "number",
            "Label": "Version",
            "Required": false,
            "PostData": true,
            "ValidRegEx": "",
            "Placeholder":"",
            "DefaultValue": 1  
        }
    ]
}