{
    "ObjectFields": [
        {
            "PortCode": {
                "PicklistUrl": "PortCodeName",
                "PicklistDisplayText": "Code,Name",
                "PicklistSearchFields": "Code,Name",
                "Multiple": false,
                "PicklistSelection": "Id",
                "PicklistTitle": "Name",
                "PlaceHolder":"Enter Code",
                "Label": " Code*",
                "Width": 160,
                "SLno":1,
                "AddNew": true,
                "MaxLength": 10,
                "ColumnWidth": "200,300",
                "ColumnType": "string,string",
                "isKeyField":true
            },
            "PortName": {
                "PicklistUrl": "PortCodeName",
                "PicklistDisplayText": "Code,Name",
                "PicklistSearchFields": "Code,Name",
                "Multiple": false,
                "PicklistSelection": "Id",
                "PicklistTitle": "Name",
                "PlaceHolder":"Enter Name",
                "Label": " Name*",
                "Width": 360,
                "AddNew": true,
                "MaxLength": 35,
                "ColumnWidth": "200,300",
                "ColumnType": "string,string",
                "isKeyField":true
            },
            "CountryName": {
                "PicklistUrl": "PortCountry",
                "PicklistDisplayText": "Code,Name",
                "PicklistSearchFields": "Code,Name",
                "Multiple": false,
                "PicklistSelection": "Id",
                "PicklistTitle": "Name",
                "PlaceHolder":"Select Country",
                "Label": "Country*",
                "Width": 300,
                "AddNew": false,
                "MaxLength": 35,
                "LabelWidth":115,
                "ColumnWidth": "200,300",
                "ColumnType": "string,string",
                "LinkId": "CountryId"
            }
        },
        {
            "Name": "PortId",
            "Type": "number",
            "Required": true,
            "ValidRegEx": "",
            "PostData": true,
            "DefaultValue": 0
        },
        {
            "Name": "PortCode",
            "Type": "string",
            "Label": " Code*",
            "Required": true,
            "ValidRegEx": "",
            "PostData": true,
            "DefaultValue": ""
        },
        {
            "Name": "PortName",
            "Type": "string",
            "Label": " Name*",
            "Required": true,
            "ValidRegEx": "",
            "PostData": true,
            "DefaultValue": ""
        },
        {
            "Name": "PortGstPortCode",
            "Type": "string",
            "Label": "GST Port Code*",
            "Required": true,
            "PostData": true,
            "Placeholder": "Enter GST Port Code",
            "LabelWidth":115,
            "ValidRegEx": "",
            "DefaultValue": "",
            "MaxLength": 6,
            "Width": "300"
        },
        {
            "Name": "CountryName",
            "Type": "string",
            "Label": "Country*",
            "Required": true,
            "ValidRegEx": "",
            "PostData": true,
            "DefaultValue": ""
        },
        {
            "Name": "CountryId",
            "Type": "string",
            "Required": false,
            "ValidRegEx": "",
            "PostData": true,
            "DefaultValue": ""
        },
        {
            "Name": "PortCreatedOn",
            "Type": "string",
            "Required": false,
            "PostData": true,
            "ValidRegEx": "",
            "DefaultValue": "/Date(1708872240000)/"
        },
        {
            "Name": "PortModifiedOn",
            "Type": "string",
            "DefaultValue": "/Date(1708872240000)/",
            "Required": false,
            "PostData": true,
            "ValidRegEx": ""
        },
        {
            "Name": "PortModifiedByName",
            "Type": "string",
            "Tooltip": "",
            "Required": false,
            "PostData": true,
            "ValidRegEx": "",
            "DefaultValue": "ADMIN"
        },
        {
            "Name": "PortCreatedByName",
            "Type": "string",
            "Required": false,
            "PostData": true,
            "ValidRegEx": "",
            "DefaultValue": "ADMIN"
        },
        {
            "Name": "PortStatus",
            "Type": "number",
            "Required": false,
            "PostData": true,
            "ValidRegEx": "",
            "DefaultValue": 1
        },
        {
            "Name": "PortVersion",
            "Type": "number",
            "Required": false,
            "PostData": true,
            "ValidRegEx": "",
            "DefaultValue": 1
        }
    ]
}