{
    "ObjectFields": [
        {
            "RegionCode":{
                "PicklistUrl": "Region",
                "PicklistDisplayText": "Code,Name",
                "PicklistSearchFields": "Name",
                "Multiple": false,
                "PicklistSelection": "Id",
                "PicklistTitle": "Code",
                "Label": "Code*",
                "Width": 300,
                "AddNew": true,
                "MaxLength": 10,
                "ColumnWidth": "200",
                "ColumnType": "string",
                "PlaceHolder": "Enter Code",
                "PicklistCriteria":"Region"
            },
            "RegionName":{
                "PicklistUrl": "Region",
                "PicklistDisplayText": "Code,Name",
                "PicklistSearchFields": "Name",
                "Multiple": false,
                "PicklistSelection": "Id",
                "PicklistTitle": "Code",
                "Label": "Name*",
                "Width": 300,
                "AddNew": true,
                "MaxLength": 10,
                "ColumnWidth": "200",
                "ColumnType": "string",
                "PlaceHolder": "Enter Code",
                "PicklistCriteria":"Region"
            },
            "ParentRegionName":{
                "PicklistUrl": "Region",
                "PicklistDisplayText": "Code,Name",
                "PicklistSearchFields": "Name",
                "Multiple": false,
                "PicklistSelection": "Id",
                "PicklistTitle": "Code",
                "Label": "Under*",
                "Width": 300,
                "AddNew": false,
                "MaxLength": 10,
                "ColumnWidth": "200",
                "ColumnType": "string",
                "PlaceHolder": "Enter Code",
                "PicklistCriteria":"Region"
            },
            "RegionTypeName":{
                "PicklistUrl": "RegionType",
                "PicklistDisplayText": "Code,Name",
                "PicklistSearchFields": "Code,Name",
                "Multiple": false,
                "PicklistSelection": "Id",
                "PicklistTitle": "Code",
                "Label": "Under*",
                "Width": 300,
                "AddNew": false,
                "MaxLength": 10,
                "ColumnWidth": "200",
                "ColumnType": "string",
                "PlaceHolder": "Enter Code"
            }
        },
        {
            "Name": "RegionId",
            "Type": "number",
            "Required": false,
            "PostData": true,
            "ValidRegEx": "",
            "DefaultValue": 0
        },
        {
            "Name": "RegionCode",
            "Type": "string",
            "Label": "Code*",
            "Required": true,
            "ValidRegEx": "",
            "PostData": true,
            "DefaultValue": ""
        },
        {
            "Name": "RegionName",
            "Type": "string",
            "Label": "Name*",
            "Required": true,
            "ValidRegEx": "",
            "PostData": true,
            "DefaultValue": "" 
        },
        {
            "Name": "RegionTypeId",
            "Type": "number",
            "Required": false,
            "PostData": true,
            "ValidRegEx": "",
            "DefaultValue": -1
        },
        {
            "Name": "RegionTypeName",
            "Type": "string",
            "Label": "Region Type*",
            "Required": true,
            "ValidRegEx": "",
            "PostData": true,
            "DefaultValue": ""
        },
        {
            "Name": "ParentRegionId",
            "Type": "number",
            "Required": false,
            "PostData": true,
            "ValidRegEx": "",
            "DefaultValue": -1
        },
        {
            "Name": "ParentRegionName",
            "Type": "string",
            "Label": "Under*",
            "Required": true,
            "ValidRegEx": "",
            "PostData": true,
            "DefaultValue": ""
        },
        {
            "Name": "RegionParentRegionIds",
            "Type": "string",
            "Required": false,
            "PostData": true,
            "ValidRegEx": "",
            "DefaultValue": "-1,-1,-1"
        },
        {
            "Name": "RegionLevels",
            "Type": "number",
            "Required": false,
            "PostData": true,
            "ValidRegEx": "",
            "DefaultValue": 1
        },
        {
            "Name": "RegionVersion",
            "Type": "number",
            "Required": false,
            "PostData": true,
            "ValidRegEx": "",
            "DefaultValue": 1
        },
        {
            "Name": "RegionCreatedByName",
            "Type": "string",
            "Required": false,
            "PostData": true,
            "ValidRegEx": "",
            "DefaultValue": "ADMIN"
        },
        {
            "Name": "RegionCreatedOn",
            "Type": "string",
            "Required": false,
            "PostData": true,
            "ValidRegEx": "",
            "DefaultValue": "/Date(1712273820000)/"
        },
        {
            "Name": "RegionModifiedByName",
            "Type": "string",
            "Required": false,
            "PostData": true,
            "ValidRegEx": "",
            "DefaultValue": "ADMIN"
        },
      
        {
            "Name": "RegionModifiedOn",
            "Type": "string",
            "Required": false,
            "PostData": true,
            "ValidRegEx": "",
            "DefaultValue": "/Date(1712273820000)/"
        }

    ]
}