{
    "ObjectFields": [
        {
            "SelectionRoundCode": {
                "PicklistUrl": "SelectionRound",
                "PicklistDisplayText": "Code,Name",
                "PicklistSearchFields": "Code,Name",
                "Multiple": false,
                "PicklistSelection": "Id",
                "PicklistTitle": "Code",
                "Label": "Code*",
                "Width": 160,
                "AddNew": true,
                "SLno":1,
                "MaxLength": 10,
                "PlaceHolder": "Enter Code",
                "ColumnWidth": "200",
                "ColumnType": "string,string",
                "isKeyField": true
            },
            "SelectionRoundName": {
                "PicklistUrl": "SelectionRound",
                "PicklistDisplayText": "Code,Name",
                "PicklistSearchFields": "Code,Name",
                "Multiple": false,
                "PicklistSelection": "Id",
                "PicklistTitle": "Name",
                "Label": "Name*",
                "Width": 360,
                "AddNew": true,
                "PlaceHolder": "Enter Name",
                "MaxLength": 50,
                "ColumnWidth": "200",
                "ColumnType": "string,string",
                "isKeyField": true
            }

        },
        {
            "Name": "SelectionRoundId",
            "Type": "number",
            "Required": true,
            "ValidRegEx": "",
            "PostData": true,
            "DefaultValue": 0,
            "Width": 100
        },
        {
            "Name": "SelectionRoundCode",
            "Type": "string",
            "Label": "Code*",
            "Required": true,
            "ValidRegEx": "",
            "DefaultValue":"",
            "PostData": true
          
           
        },
        {
            "Name": "SelectionRoundName",
            "Type": "string",
            "Label": "Name*",
            "Required": true,
            "ValidRegEx": "",
            "PostData": true
       
           
        },
        {
            "Name": "SelectionRoundRemarks",
            "Type": "string",
            "Required": false,
            "ValidRegEx": "",
            "PostData": true,
            "DefaultValue":"" ,
            "Width": 360,
            "LabelWidth":70,
            "Label": "Remarks",
            "MaxLength":2000,
            "Placeholder": "Enter Remarks"
        },
        {
            "Name": "SelectionRoundStatus",
            "Type": "number",
            "Required": false,
            "ValidRegEx": "",
            "PostData": true,
            "DefaultValue": 1,
            "Width": 100
        },
        {
            "Name": "SelectionRoundVersion",
            "Type": "number",
            "Required": false,
            "ValidRegEx": "",
            "PostData": true,
            "DefaultValue":1,
            "Width": 100
        },
        {
            "Name": "SelectionRoundDetailArray",
            "Type": "string",
            "Label": "",
            "Tooltip": "",
            "SLNOField": "SelectionRoundDetailSlNo",
            "Placeholder": "",
            "Required": true,
            "Grid": [
                {
                    "Label": "#",
                    "value": "SelectionRoundDetailSlNo",
                    "width": 50,
                    "Type": "SNo",
                    "IsVisible": true,
                    "SNo": 1,
                    "sticky": true,
                    "left": 0
                },
                {
                    "Label":"SelectionRoundDetailId",
                     "value":"SelectionRoundDetailId",
                     "Type": "number",
                     "Required": false,
                     "ValidRegEx": "",
                     "IsVisible": false,
                     "DefaultValue": -1,
                     "Width": 100
                 },
                 {
                    "Label":"SkillId",
                     "value":"SkillId",
                     "Type": "number",
                     "Required": false,
                     "ValidRegEx": "",
                     "IsVisible": false,
                     "DefaultValue": -1,
                     "Width": 100
                 },
                 
                 {
                    "Label": "Skill",
                    "value": "SkillName",
                    "width":220,
                    "Type":"Picklist",
                    "sticky": false, 
                    "Required":true,
                    "left": 50,
                    "PicklistDetail":{
                      "PicklistUrl":"SkillMaster",
                      "PicklistDisplayText":"Code,Name",
                      "PicklistSearchFields":"Code,Name",
                      "Multiple":false,
                      "AddNew":false,
                      "PlaceHolder": "Select Skill",
                      "LinkId":"SkillId,SkillName",
                      "PicklistSelection":"Id",
                      "PicklistTitle":"Name",
                      "Label": "",
                      "Width": 200,
                      "MaxLength": 20,
                      "ColumnWidth": "150,250",
                      "ColumnType": "string,string"                     
                    },
                    "IsVisible":true,
                    "SNo":2
                },

                {
                    "Label":"Weightage",
                     "value":"SelectionRoundDetailWeightage",
                     "Type": "number",
                     "Required": true,
                     "ValidRegEx": "",
                     "IsVisible": true,
                     "SNo":3,
                     "MaxLength":3,
                     "DefaultValue": "0",
                     "Placeholder":"Enter Weightage",
                     "width": 190
                 }
                ]
            
        }




    ]
}