{
    "ObjectFields": [
        {
            "ShiftCode": {
                "PicklistUrl": "ShiftMaster",
                "PicklistDisplayText": "Code,Description",
                "PicklistSearchFields": "Code,Description",
                "Multiple": false,
                "PicklistSelection": "Id",
                "PicklistTitle": "Code",
                "Label": "Code*",
                "Width": 160,
                "SLno": 1,
                "AddNew": true,
                "MaxLength": 10,
                "PlaceHolder": "Enter Code",
                "ColumnWidth": "200",
                "ColumnType": "string,string",
                "isKeyField": true
            },
            "ShiftDescription": {
                "PicklistUrl": "ShiftMaster",
                "PicklistDisplayText": "Code,Description",
                "PicklistSearchFields": "Code,Description",
                "Multiple": false,
                "PicklistSelection": "Id",
                "PicklistTitle": "Description",
                "Label": "Description*",
                "Width": 360,
                "AddNew": true,
                "PlaceHolder": "Enter Description",
                "MaxLength": 35,
                "ColumnWidth": "200",
                "ColumnType": "string,string",
                "isKeyField": true
            }
        },
        {
            "Name": "ShiftId",
            "Type": "number",
            "Required": true,
            "ValidRegEx": "",
            "PostData": true,
            "DefaultValue": 0,
            "width": "400px"
        },
        {
            "Name": "ShiftCode",
            "Type": "string",
            "Required": true,
            "ValidRegEx": "",
            "DefaultValue": "",
            "PostData": true,
            "width": "400px",
            "Label": "Code*"
        },
        {
            "Name": "ShiftDescription",
            "Type": "string",
            "Required": true,
            "ValidRegEx": "",
            "DefaultValue": "",
            "PostData": true,
            "width": "400px",
            "Label": "Description*"
        },
        {
            "Name": "ShiftStartTime",
            "Type": "string",
            "Required": true,
            "ValidRegEx": "",
            "PostData": true,
            "DefaultValue": "00:00",
            "Width": 160,
            "LabelWidth": 168,
            "Label": "Start Time*",
            "MaxLength": 5
        },
        {
            "Name": "TotalShiftStartTime",
            "Type": "string",
            "Required": true,
            "PostData": false,
            "ValidRegEx": "",
            "Label": "Start Time*",
            "Width": 160,
            "LabelWidth": 168,
            "LinkId": "ShiftStartTime",
            "DefaultValue": "00:00"
        },
        {
            "Name": "ShiftEndTime",
            "Type": "string",
            "Required": true,
            "ValidRegEx": "",
            "PostData": true,
            "DefaultValue": "00:00",
            "LabelWidth": 204,
            "Width": 160,
            "Label": "End Time* ",
            "MaxLength": ""
        },
        {
            "Name": "TotalShiftEndTime",
            "Type": "string",
            "Required": true,
            "PostData": false,
            "ValidRegEx": "",
            "LabelWidth": 204,
            "Width": 160,
            "Label": "End Time*",
            "DefaultValue": "00:00",
            "LinkId": "ShiftEndTime"
        },
        {
            "Name": "FirstHalfStartTime",
            "Type": "string",
            "Required": true,
            "ValidRegEx": "",
            "PostData": false,
            "DefaultValue": "00:00",
            "Width": 160,
            "ReadOnly":true,
            "LabelWidth": 168,
            "Label": "First Half Start Time*",
            "MaxLength": ""
        },
        {
            "Name": "FirstHalfStartTimeExtraField",
            "Type": "string",
            "Required": false,
            "ValidRegEx": "",
            "PostData": false,
            "DefaultValue": "00:00",
            "Width": 160,
            "ReadOnly":true,
            "LabelWidth": 168,
            "Label": "First Half Start Time*",
            "Placeholder": "",
            "LinkId": "FirstHalfStartTime"
        },
        {
            "Name": "FirstHalfEndTime",
            "Type": "string",
            "Required": true,
            "ValidRegEx": "",
            "PostData": false,
            "DefaultValue": "00:00",
            "ReadOnly":true,
            "width": "400px",
            "Label": "Second Half End Time* ",
            "Placeholder": ""
        },
        {
            "Name": "FirstHalfEndTimeExtraField",
            "Type": "string",
            "Required": false,
            "ValidRegEx": "",
            "PostData": false,
            "DefaultValue": "00:00",
            "LabelWidth": 204,
            "Width": 160,
            "Label": "First Half End Time* ",
            "Placeholder": "",
            "LinkId": "FirstHalfEndTime"
        },
        {
            "Name": "ShiftSecondHalfStartTime",
            "Type": "string",
            "Required": true,
            "ValidRegEx": "",
            "PostData": true,
            "DefaultValue": "00:00",
            "Width": 160,
            "LabelWidth": 168,
            "Label": "Second Half Start Time* ",
            "Placeholder": "",
            "AddNew": true
        },
        {
            "Name": "ShiftSecondHalfStartTimeSelfName",
            "Type": "string",
            "Required": false,
            "ValidRegEx": "",
            "PostData": false,
            "DefaultValue": "00:00",
            "Width": 160,
            "LabelWidth": 168,
            "Label": "Second Half Start Time*",
            "Placeholder": "",
            "LinkId": "ShiftSecondHalfStartTime"
        },
        {
            "Name": "ShiftFirstHalfEndTime",
            "Type": "string",
            "Required": true,
            "ValidRegEx": "",
            "PostData": true,
            "DefaultValue": "00:00",
            "width": "400px",
            "Label": "First Half End Time* ",
            "Placeholder": "",
            "AddNew": true
        },
        {
            "Name": "ShiftSecondHalfEndTimeSelfName",
            "Type": "string",
            "Required": false,
            "ValidRegEx": "",
            "PostData": false,
            "DefaultValue": "00:00",
            "LabelWidth": 204,
            "Width": 160,
            "ReadOnly":true,
            "Label": "Second Half End Time*",
            "Placeholder": "",
            "LinkId": "ShiftFirstHalfEndTime"
        },
        {
            "Name": "ShiftGraceMinutes",
            "Type": "string",
            "Required": true,
            "ValidRegEx": "",
            "PostData": true,
            "DefaultValue": "0",
            "MaxLength": 4,
            "LabelWidth": 204,
            "Width": 160,
            "Label": "Grace Minutes ",
            "Placeholder": ""
        },
        {
            "Name": "ShiftBreakMinutes",
            "Type": "string",
            "Required": false,
            "ValidRegEx": "",
            "PostData": true,
            "DefaultValue": "0",
            "Width": 160,
            "ReadOnly":true,
            "LabelWidth": 168,
            "MaxLength":3,
            "Label": "Break Minutes ",
            "Placeholder": "",
            "AddNew": false
        },
        {
            "Name": "ShiftShiftMinutes",
            "Type": "string",
            "Required": true,
            "ValidRegEx": "",
            "PostData": true,
            "DefaultValue": "0",
            "Width": 160,
            "LabelWidth": 168,
            "Label": "Shift Minutes* ",
            "ReadOnly":true,
            "Placeholder": "",
            "AddNew": false
        },
        {
            "Name": "ShiftIsProductionShift",
            "Type": "number",
            "Required": false,
            "ValidRegEx": "",
            "PostData": true,
            "DefaultValue": 1,
            "Width": 160,
            "LabelWidth": 168,
            "Label": "Production Shift "
        },
        {
            "Name": "ShiftRemarks",
            "Type": "string",
            "Required": false,
            "ValidRegEx": "",
            "PostData": true,
            "DefaultValue": "",
            "MaxLength": 200,
            "Width": 360,
            "LabelWidth": 168,
            "Label": "Remarks",
            "Placeholder": "Enter Remarks"
        },
        {
            "Name": "ShiftIsBreakApplicable",
            "Type": "number",
            "Required": false,
            "ValidRegEx": "",
            "PostData": true,
            "DefaultValue": 1,
            "Width": 160,
            "LabelWidth": 168,
            "Label": "Break Applicable "
        },
        {
            "Name": "ShiftWorkingMinutes",
            "Type": "number",
            "Required": false,
            "ValidRegEx": "",
            "PostData": true,
            "DefaultValue": 0,
            "Width": 160,
            "ReadOnly":true,
            "LabelWidth": 168,
            "Label": "Working Minutes*",
            "Placeholder": "",
            "AddNew": false
        },
        {
            "Name": "ShiftFullDayMinutes",
            "Type": "number",
            "Required": false,
            "ValidRegEx": "",
            "PostData": true,
            "DefaultValue": 0,
            "MaxLength": 4,
            "Width": 160,
            "LabelWidth": 168,
            "Label": "Full Day Minutes*",
            "Placeholder": "Enter Full Day Minutes"
        },
        {
            "Name": "ShiftHalfDayMinutes",
            "Type": "number",
            "Required": false,
            "ValidRegEx": "",
            "PostData": true,
            "MaxLength": 4,
            "DefaultValue": 0,
            "Width": 160,
            "LabelWidth": 168,
            "Label": "Half Day Minutes*",
            "Placeholder": "Enter Half  Day Minutes"
        },
        {
            "Name": "ShiftCreatedById",
            "Type": "number",
            "Required": false,
            "ValidRegEx": "",
            "PostData": false,
            "DefaultValue": 0,
            "width": "400px"
        },
        {
            "Name": "ShiftCreatedByName",
            "Type": "string",
            "Required": false,
            "ValidRegEx": "",
            "PostData": true,
            "DefaultValue": "ADMIN",
            "width": "400px"
        },
        {
            "Name": "ShiftCreatedOn",
            "Type": "string",
            "Required": false,
            "ValidRegEx": "",
            "PostData": true,
            "DefaultValue": "/Date(1709006933000)/",
            "width": "400px"
        },
        {
            "Name": "ShiftModifiedByName",
            "Type": "string",
            "Required": false,
            "ValidRegEx": "",
            "PostData": true,
            "DefaultValue": "ADMIN",
            "width": "400px"
        },
        {
            "Name": "ShiftModifiedOn",
            "Type": "string",
            "Required": false,
            "ValidRegEx": "",
            "PostData": true,
            "DefaultValue": "/Date(1709006933000)/",
            "width": "400px"
        },
        {
            "Name": "ShiftModifiedById",
            "Type": "number",
            "Required": false,
            "ValidRegEx": "",
            "PostData": false,
            "DefaultValue": 0,
            "width": "400px"
        },
        {
            "Name": "ShiftSortOrder",
            "Type": "number",
            "Required": false,
            "ValidRegEx": "",
            "PostData": true,
            "DefaultValue": 9999,
            "LabelWidth": 204,
            "Width": 120,
            "Label": "Sort Order",
            "Placeholder": ""
        },
        {
            "Name": "ShiftStatus",
            "Type": "number",
            "Required": false,
            "ValidRegEx": "",
            "PostData": true,
            "DefaultValue": 1,
            "width": "400px"
        },
        {
            "Name": "ShiftVersion",
            "Type": "number",
            "Required": false,
            "ValidRegEx": "",
            "PostData": true,
            "DefaultValue": 1,
            "width": "400px"
        },
        {
            "Name": "ShiftSourceType",
            "Type": "number",
            "Required": false,
            "ValidRegEx": "",
            "PostData": true,
            "DefaultValue": 5,
            "width": "400px"
        },
        {
            "Name": "ShiftCutOffMinutes",
            "Type": "number",
            "Required": false,
            "ValidRegEx": "",
            "PostData": true,
            "DefaultValue": -1,
            "MaxLength": 4,
            "LabelWidth": 204,
            "Width": 160,
            "Label": " First Half Cut Off Minutes*",
            "Placeholder": ""
        },
        {
            "Name": "ShiftCutOffMinutesOut",
            "Type": "number",
            "Required": false,
            "ValidRegEx": "",
            "PostData": true,
            "MaxLength": 4,
            "DefaultValue": -1,
            "LabelWidth": 204,
            "Width": 160,
            "Label": " Second Half Cut Off Minutes*",
            "Placeholder": ""
        },
        {
            "Name": "ShiftWorkTimeMethod",
            "Type": "number",
            "Required": false,
            "ValidRegEx": "",
            "PostData": true,
            "DefaultValue": 0,
            "LabelWidth": 204,
            "Width": 160,
            "Label": "Shift Work Time",
            "PickLists": [
                {
                    "key": 0,
                    "value": "Punch Based"
                },
                {
                    "key": 1,
                    "value": "Shift Based"
                }
            ]
        }
    ]
}