{
    "ObjectFields": [
        {
            "CodeCategoryCategoryName": {
                "PicklistUrl": "CodeDefine",
                "PicklistDisplayText": ",CategoryName",
                "PicklistSearchFields": "CategoryName",
                "Multiple": false,
                "PicklistSelection": "Id",
                "PicklistTitle": "CategoryName",
                "Label": "Code Category*",
                "PlaceHolder": "Select the Code Category Name",
                "Width": 250,
                "LabelWidth": 180,
                "AddNew": false,
                "ColumnWidth": "170,250",
                "ColumnType": "string,string",
                "LinkId": "CodeCategoryId",
                "PicklistCriteria": "CodeCategory"
            },
            "ItemCode": {
                "PicklistUrl": "DieMasterItem",
                "PicklistDisplayText": "Code,Name",
                "PicklistSearchFields": "Code",
                "Multiple": false,
                "PicklistSelection": "Id",
                "PicklistTitle": "Code",
                "Label": "Code*",
                "Width": 300,
                "LabelWidth": 180,
                "PlaceHolder": "Enter Item Code",
                "AddNew": true,
                "MaxLength": 20,
                "ColumnWidth": "170,250",
                "ColumnType": "string,string",
                "PicklistCriteria": "Item"
            },
            "ItemName": {
                "PicklistUrl": "DieMasterItem",
                "PicklistDisplayText": "Code,Name",
                "PicklistSearchFields": "Name",
                "Multiple": false,
                "PicklistSelection": "Id",
                "PicklistTitle": "Name",
                "PlaceHolder": "Enter Item Name",
                "Label": "Name*",
                "Width": 400,
                "LabelWidth": 180,
                "AddNew": true,
                "MaxLength": 100,
                "ColumnWidth": "170,250",
                "ColumnType": "string,string",
                "PicklistCriteria": "Item"
            },
            "CategoryName": {
                "PicklistUrl": "ITEMCATEGORY",
                "PicklistDisplayText": "Code,Name",
                "PicklistSearchFields": "Name",
                "Multiple": false,
                "PicklistSelection": "Id",
                "PicklistTitle": "Name",
                "PlaceHolder": "Select Item Category",
                "Label": "Category *",
                "LinkId": "CategoryId",
                "Width": 200,
                "LabelWidth": 180,
                "AddNew": false,
                "ColumnWidth": "170,250",
                "ColumnType": "string,string",
                "PicklistCriteria": "Category"
            },
            "SubCategoryName": {
                "PicklistUrl": "ITEMSUBCATEGORY",
                "PicklistDisplayText": "Name",
                "PicklistSearchFields": "Name",
                "Multiple": false,
                "PicklistSelection": "Id",
                "PicklistTitle": "Name",
                "PlaceHolder": "Select Item Sub Category",
                "Label": "Sub Category",
                "LinkId": "SubCategoryId",
                "Width": 200,
                "LabelWidth": 180,
                
                "AddNew": false,
                "ColumnWidth": "170,250",
                "ColumnType": "string,string",
                "PicklistCriteria": "Category"
            },
            "ItemGroupName": {
                "PicklistUrl": "Group",
                "PicklistDisplayText": "Code,Name",
                "PicklistSearchFields": "Code,Name",
                "Multiple": false,
                "PicklistSelection": "Id",
                "PicklistTitle": "Name",
                "Label": "Group",
                "LinkId": "ItemGroupId",
                "PlaceHolder": "Select Item Group",
                
                "Width": 200,
                "LabelWidth": 180,
                "AddNew": false,
                "ColumnWidth": "170,250",
                "ColumnType": "string,string"
            },
            "ItemBrandName": {
                "PicklistUrl": "Brand",
                "PicklistDisplayText": "Name",
                "PicklistSearchFields": "Name",
                "Multiple": false,
                "PicklistSelection": "Id",
                "PicklistTitle": "Name",
                "PlaceHolder": "Select Item Brand ",
                "Label": "Make/Brand *",
                "LinkId": "ItemBrandId",
                "Width": 200,
                "LabelWidth": 180,
                "AddNew": false,
                
                "ColumnWidth": "170,250",
                "ColumnType": "string,string",
                "PicklistCriteria": "Category"
            },
            "ItemMasterModelName": {
                "PicklistUrl": "MODEL",
                "PicklistDisplayText": "Code,Name",
                "PicklistSearchFields": "Name",
                "Multiple": false,
                "PicklistSelection": "Id",
                "PicklistTitle": "Name",
                "PlaceHolder": "Select Model Name",
                "Label": "Model",
                "LinkId": "ModelId",
                
                "Width": 200,
                "LabelWidth": 180,
                "AddNew": false,
                "ColumnWidth": "170,250",
                "ColumnType": "string,string",
                "PicklistCriteria": "Category"
            },
            "ColorName": {
                "PicklistUrl": "Color",
                "PicklistDisplayText": "Code,Name",
                "PicklistSearchFields": "Code,Name",
                "Multiple": false,
                "PicklistSelection": "Id",
                "PicklistTitle": "Name",
                "PlaceHolder": "Select Color Name",
                "Label": "Color/Finish ",
                "LinkId": "ColorId",
                "Width": 200,
                "LabelWidth": 180,
                "AddNew": false,
                "ColumnWidth": "170,250",
                "ColumnType": "string,string"
            },
            "SizeSetDetailSize": {
                "PicklistUrl": "Size",
                "PicklistDisplayText": "SizeValue",
                "PicklistSearchFields": "SizeValue",
                "Multiple": false,
                "PicklistSelection": "SizeSetId",
                "PicklistTitle": "SizeValue",
                "PlaceHolder": "Select Size",
                "Label": "Size ",
                "LinkId": "SizeSetDetailId",
                "Width": 200,
                "LabelWidth": 180,
                "AddNew": false,
                "MaxLength": 20,
                "ColumnWidth": "170,250",
                "ColumnType": "string,string"
            },
            "GSTTariffName": {
                "PicklistUrl": "DutyTariff",
                "PicklistDisplayText": "Name",
                "PicklistSearchFields": "Name",
                "Multiple": false,
                "PicklistSelection": "Id",
                "PicklistTitle": "Name",
                "PlaceHolder": "Select GST Tariff",
                "Label": "HSN",
                "LinkId": "GSTTariffId",
                
                "Width": 250,
                "LabelWidth": 140,
                "AddNew": false,
                "ColumnWidth": "170,250",
                "ColumnType": "string,string"
            },
            "GSTTableName": {
                "PicklistUrl": "DutyTable",
                "PicklistDisplayText": "Code,Name",
                "PicklistSearchFields": "Code,Name",
                "Multiple": false,
                "PicklistSelection": "Id",
                "PicklistTitle": "Name",
                "PlaceHolder": "Select GST Table",
                "Label": "GST Table",
                "LinkId": "GSTTableId",
                
                "Width": 250,
                "LabelWidth": 180,
                "AddNew": false,
                "ColumnWidth": "170,250",
                "ColumnType": "string,string"
            },
            "MaterialAccountName": {
                "PicklistUrl": "MaterialAccount",
                "PicklistDisplayText": "Code,Name",
                "PicklistSearchFields": "Code,Name",
                "Multiple": false,
                "PicklistSelection": "Id",
                "PicklistTitle": "Name",
                "Label": "Material Account *",
                "LinkId": "MaterialAccountId",
                "PlaceHolder": "Select Material Account",
                
                "Width": 250,
                "LabelWidth": 180,
                "AddNew": false,
                "ColumnWidth": "100,300",
                "ColumnType": "string,string"
            },
            "ProcurmentInchargeName": {
                "PicklistUrl": "TimSlipEmployee",
                "PicklistDisplayText": "Code,Name",
                "PicklistSearchFields": "Code,Name",
                "Multiple": false,
                "PicklistSelection": "Id",
                "PicklistTitle": "Name",
                "Label": "Purchase Incharge",
                "LinkId": "ProcurmentInchargeId",
                
                "PlaceHolder": "Select Purchase Incharge",
                "Width": 250,
                "LabelWidth": 180,
                "AddNew": false,
                "ColumnWidth": "170,250",
                "ColumnType": "string,string",
                "PicklistCriteria": "Purchase"
            },
            "PriceCategoryName": {
                "PicklistUrl": "PriceCategory",
                "PicklistDisplayText": "Code,Name",
                "PicklistSearchFields": "Code,Name",
                "Multiple": false,
                "PicklistSelection": "Id",
                "PicklistTitle": "Name",
                "Label": "Price Category *",
                "PlaceHolder": "Select Price Category",
                
                "LinkId": "PriceCategoryId",
                "Width": 250,
                "LabelWidth": 180,
                "AddNew": false,
                "ColumnWidth": "170,250",
                "ColumnType": "string,string"
            },
            "PurchaseUOMName": {
                "PicklistUrl": "UOM",
                "PicklistDisplayText": "Code,Name",
                "PicklistSearchFields": "Code,Name",
                "Multiple": false,
                "PicklistSelection": "Id",
                "PicklistTitle": "Name",
                "Label": "UOM *",
                "PlaceHolder": "Select UOM Name",
                "DefaultValue": "",
                "LinkId": "PurchaseUOMId",
                "Width": 250,
                "LabelWidth": 180,
                "AddNew": false,
                "ColumnWidth": "170,250",
                "ColumnType": "string,string"
            }
        },
        {
            "Name": "ItemId",
            "Type": "number",
            "Required": false,
            "PostData": true,
            "ValidRegEx": "",
            "DefaultValue": 0
        },
        {
            "Name": "PurchaseUOMName",
            "Type": "string",
            "Required": true,
            "PostData": true,
            "ValidRegEx": "",
            "Label": "Purchase UOM",
            "DefaultValue": ""
        },
        {
            "Name": "CodeCategoryCategoryName",
            "Type": "string",
            "Required": true,
            "PostData": true,
            "ValidRegEx": "",
            "Label": "ItemCodeCategoryNames",
            "DefaultValue": ""
        },
        {
            "Name": "ItemCode",
            "Type": "string",
            "Required": true,
            "PostData": true,
            "ValidRegEx": "",
            "Label": "ItemCode",
            "DefaultValue": ""
        },
        {
            "Name": "ItemName",
            "Type": "string",
            "Required": true,
            "PostData": true,
            "ValidRegEx": "",
            "DefaultValue": "",
            "Label": "ItemName"
        },
        {
            "Name": "AutoGenItemName",
            "Label": "Auto ",
            "Type": "number",
            "Required": false,
            "PostData": true,
            "ValidRegEx": "",
            "DefaultValue": 1,
            "Width": 200,
            "Placeholder": ""
        },
        {
            "Name": "Archived",
            "Type": "number",
            "Label": "Show Archive",
            "Width": 200,
            "Required": false,
            "PostData": false,
            "ValidRegEx": "",
            "DefaultValue": 1
        },
        {
            "Name": "CategoryName",
            "Type": "string",
            "Required": true,
            "PostData": true,
            "ValidRegEx": "",
            "DefaultValue": "NONE",
            "Label": "Select Category"
        },
        {
            "Name": "SubCategoryName",
            "Type": "string",
            "Required": false,
            "PostData": true,
            "ValidRegEx": "",
            "DefaultValue": "NONE",
            "Label": "SubCategory"
        },
        {
            "Name": "ItemGroupName",
            "Type": "string",
            "Required": false,
            "PostData": true,
            "ValidRegEx": "",
            "DefaultValue": "NONE",
            "Label":"Item Group"
        },
        {
            "Name": "ItemCatalogueNumber",
            "Label": "Catalogue Number *",
            "Type": "number",
            "Required": true,
            "PostData": true,
            "ValidRegEx": "",
            "MaxLength": 70,
            "DefaultValue": 0,
            "Width": 200,
            "Placeholder": "Enter the Catalogue Number *"
        },
        {
            "Name": "ItemBrandName",
            "Type": "string",
            "Required": true,
            "PostData": true,
            "ValidRegEx": "",
            "DefaultValue": "NONE",
            "Label": "ItemBrand"
        },
        {
            "Name": "ItemMasterModelName",
            "Type": "string",
            "Required": false,
            "PostData": true,
            "ValidRegEx": "",
            "DefaultValue": "NONE",
            "Label": "ItemMasterModel"
        },
        {
            "Name": "ColorName",
            "Type": "string",
            "Required": false,
            "PostData": true,
            "ValidRegEx": "",
            "DefaultValue": "",
            "Label": "ColorName"
        },
        {
            "Name": "SizeSetDetailSize",
            "Type": "string",
            "Required": false,
            "PostData": true,
            "ValidRegEx": "",
            "DefaultValue": "",
            "Label": "SizeSetDetailSize"
        },
        {
            "Name": "ItemMaximumDiscountPercentage",
            "Type": "number",
            "Required": false,
            "PostData": true,
            "ValidRegEx": "",
            "MaxLength": 6,
            "Label": "Max Discount % ",
            "Width": 200,
            "LabelWidth": 180,
            "Placeholder": "Enter Max Discount %",
            "Mask": "000.000",
            "DefaultValue": 0
        },
        {
            "Name": "GSTTariffName",
            "Type": "string",
            "Required": false,
            "PostData": true,
            "ValidRegEx": "",
            "DefaultValue": "NONE",
            "Label": "GSTTariff"
        },
        {
            "Name": "GSTTableName",
            "Type": "string",
            "Required": false,
            "PostData": true,
            "ValidRegEx": "",
            "DefaultValue": "NONE",
            "Label": "GSTTable"
        },
        {
            "Name": "MaterialAccountName",
            "Type": "string",
            "Required": true,
            "PostData": true,
            "ValidRegEx": "",
            "DefaultValue": "Item Based",
            "Label": "MaterialAccount"
        },
        {
            "Name": "ProcurmentInchargeName",
            "Type": "string",
            "Required": false,
            "PostData": true,
            "ValidRegEx": "",
            "DefaultValue": "NONE",
            "Label": "PurchaseIncharge"
        },
        {
            "Name": "PriceCategoryName",
            "Type": "string",
            "Required": true,
            "PostData": true,
            "ValidRegEx": "",
            "DefaultValue": "",
            "Label": "PriceCategory"
        },
        {
            "Name": "ItemSalesRate",
            "Type": "number",
            "Required": false,
            "PostData": true,
            "ValidRegEx": "",
            "Label": "Sales Rate",
            "Placeholder": "Enter Sales Rate",
            "Width": 250,
            "LabelWidth": 225,
            "DefaultValue": 0,
            "MaxLength": 18,
            "Mask": "00000000000000.0000"
        },
        {
            "Name": "ItemLastPurchaseRate",
            "Type": "number",
            "Required": false,
            "PostData": true,
            "ValidRegEx": "",
            "Label": "Purchase Rate",
            "Placeholder": "Enter Purchase Rate",
            "Width": 250,
            "LabelWidth": 200,
            "DefaultValue": 0,
            "MaxLength": 17,
            "Mask": "0000000000000.0000"
        },
        {
            "Name": "ItemMRPRate",
            "Type": "number",
            "Required": false,
            "PostData": true,
            "ValidRegEx": "",
            "Label": "MRP/Unit Rate",
            "Placeholder": "Enter MRP Rate",
            "Width": 250,
            "LabelWidth": 200,
            "DefaultValue": 0,
            "MaxLength": 17,
            "Mask": "0000000000000.0000"
        },
        {
            "Name": "ItemMinimumOrderQuantity",
            "Type": "number",
            "Required": false,
            "PostData": true,
            "ValidRegEx": "",
            "Label": "Re-Order Quantity ",
            "Placeholder": "Enter Re-Order Quality",
            "Width": 250,
            "LabelWidth": 180,
            "DefaultValue": 0,
            "MaxLength": 19,
            "Mask": "000000000000000.0000"
        },
        {
            "Name": "ChargeElementContraAccountMerge",
            "Type": "number",
            "Required": false,
            "PostData": true,
            "ValidRegEx": "",
            "Label": "Drawing / Part Number",
            "Placeholder": "Enter Drawing/Part No",
            "Width": 250,
            "LabelWidth": 180,
            "DefaultValue": 0,
            "MaxLength": 50,
            "Mask": "0000000000.0000000000.0000000000.0000000000.0000000000"
        },
        {
            "Name": "CodeCategoryId",
            "Type": "number",
            "Required": false,
            "PostData": true,
            "ValidRegEx": "",
            "DefaultValue": -1
        },
        {
            "Name": "CategoryId",
            "Type": "number",
            "Required": false,
            "PostData": true,
            "ValidRegEx": "",
            "DefaultValue": -1
        },
        {
            "Name": "SubCategoryId",
            "Type": "number",
            "Required": false,
            "PostData": true,
            "ValidRegEx": "",
            "DefaultValue": -1
        },
        {
            "Name": "ItemGroupId",
            "Type": "number",
            "Required": false,
            "PostData": true,
            "ValidRegEx": "",
            "DefaultValue": -1
        },
        {
            "Name": "ItemBrandId",
            "Type": "number",
            "Required": false,
            "PostData": true,
            "ValidRegEx": "",
            "DefaultValue": -1
        },
        {
            "Name": "ModelId",
            "Type": "number",
            "Required": false,
            "PostData": true,
            "ValidRegEx": "",
            "DefaultValue": -1
        },
        {
            "Name": "ColorId",
            "Type": "number",
            "Required": false,
            "PostData": true,
            "ValidRegEx": "",
            "DefaultValue": -1
        },
        {
            "Name": "SizeSetDetailId",
            "Type": "number",
            "Required": false,
            "PostData": true,
            "ValidRegEx": "",
            "DefaultValue": -1
        },
        {
            "Name": "GSTTariffId",
            "Type": "number",
            "Required": false,
            "PostData": true,
            "ValidRegEx": "",
            "DefaultValue": -1
        },
        {
            "Name": "GSTTableId",
            "Type": "number",
            "Required": false,
            "PostData": true,
            "ValidRegEx": "",
            "DefaultValue": -1
        },
        {
            "Name": "MaterialAccountId",
            "Type": "number",
            "Required": false,
            "PostData": true,
            "ValidRegEx": "",
            "DefaultValue": -1
        },
        {
            "Name": "ProcurmentInchargeId",
            "Type": "number",
            "Required": false,
            "PostData": true,
            "ValidRegEx": "",
            "DefaultValue": -1
        },
        {
            "Name": "PurchaseUOMId",
            "Type": "number",
            "Required": false,
            "PostData": true,
            "ValidRegEx": "",
            "DefaultValue": -1
        },
        {
            "Name": "ItemGSTType",
            "Type": "number",
            "Label": "GST Type",
            "Width": 200,
            "LabelWidth": 180,
            "Required": false,
            "PostData": true,
            "ValidRegEx": "",
            "DefaultValue": 0,
            "PickLists": [
                {
                    "key": 0,
                    "value": "Goods"
                },
                {
                    "key": 1,
                    "value": "Service"
                },
                {
                    "key": 2,
                    "value": "Non GST"
                },
                {
                    "key": 3,
                    "value": "Exempted"
                }
            ]
        },
        {
            "Name": "ItemITCType",
            "Type": "number",
            "Label": "ITC Type",
            "Width": 200,
            "LabelWidth": 180,
            "Required": false,
            "PostData": true,
            "ValidRegEx": "",
            "DefaultValue": 0,
            "PickLists": [
                {
                    "key": 0,
                    "value": "Input ITC"
                },
                {
                    "key": 1,
                    "value": "Capital Goods ITC"
                },
                {
                    "key": 2,
                    "value": "Service ITC"
                },
                {
                    "key": 3,
                    "value": "No ITC"
                }
            ]
        },
        {
            "Name": "ItemIsStockPosting",
            "Type": "number",
            "Label": "Stock Maintenance",
            "Width": 200,
            "LabelWidth": 150,
            "Required": false,
            "PostData": true,
            "ValidRegEx": "",
            "DefaultValue": 0,
            "PickLists": [
                {
                    "key": 0,
                    "value": "Yes"
                },
                {
                    "key": 1,
                    "value": "No"
                }
            ]
        },
        {
            "Name": "ItemIsBatchStock",
            "Type": "number",
            "Label": "Batch Stock",
            "Width": 200,
            "LabelWidth": 180,
            "Required": false,
            "PostData": true,
            "ValidRegEx": "",
            "DefaultValue": 0,
            "PickLists": [
                {
                    "key": 0,
                    "value": "Yes"
                },
                {
                    "key": 1,
                    "value": "No"
                }
            ]
        },
        {
            "Name": "ItemIsUniqueBatch",
            "Type": "number",
            "Label": "Unique Number",
            "Width": 200,
            "LabelWidth": 180,
            "Required": false,
            "PostData": true,
            "ValidRegEx": "",
            "DefaultValue": 0,
            "PickLists": [
                {
                    "key": 0,
                    "value": "Yes"
                },
                {
                    "key": 1,
                    "value": "No"
                }
            ]
        },
        {
            "Name": "ItemStockDTO",
            "Type": "string",
            "Label": "",
            "Tooltip": "",
            "Placeholder": "",
            "IsFieldRequired": true,
            "Required": true,
            "PostData": true,
            "Grid": [
              {
                "Label": "Select",
                "value": "checkBox",
                "width": 50,
                "Type": "Checkbox",
                "IsVisible": true,
                "SNo": 1,
                "sticky": false,
                "Required": false,
                "PostData": true,
                "DefaultValue":0,
                "left": 0
              },
              {
                "Label": "Store",
                "value": "StoreName",
                "width": 150,
                "Type": "Picklist",
                "IsVisible": true,
                "SNo": 2,
                "sticky": false,
                "Required": false,
                "DefaultValue":"",
                "PostData": true,
                "left": 0,
                "PicklistDetail": {
                  "PicklistUrl": "SelectionRound",
                  "PicklistDisplayText": "Code,Name",
                  "PicklistSearchFields": "Code,Name",
                  "Multiple": false,
                  "PicklistSelection": "Id",
                  "PicklistTitle": "Name",
                  "PlaceHolder":"Select Store",
                  "Label": "",
                  "Width": 150,
                  "LinkId": "StoreId,StoreName",
                  "AddNew": false,
                  "MaxLength": 35,
                  "ColumnWidth": "200,200",
                  "ColumnType": "string,string"
                }
              },
              {
                "Label": "Weightage",
                "value": "SelectionCycleDetailWeightage",
                "width": 150,
                "Type": "number",
                "IsVisible": true,
                "Required": false,
                "PlaceHolder":"Enter Weightage",
                "PostData": true,
                "SNo": 3,
                "sticky": false,
                "DefaultValue": 0,
                "left": 0,
                "MaxLength":3
              },
              {
                "Label": "",
                "value": "SelectionCycleDetailId",
                "width": 200,
                "Type": "number",
                "IsVisible": false,
                "sticky": false,
                "SNo": 4,
                "left": 0,
                "Required": false,
                "PostData": true,
                "DefaultValue": -1
              },
              {
                "value": "SelectionRoundId",
                "width": 50,
                "Type": "number",
                "IsVisible": false,
                "SNo": 5,
                "sticky": false,
                "left": 0,
                "Required": false,
                "PostData": true,
                "DefaultId": false,
                "DefaultValue": -1
              },
              {
                "value": "undefined",
                "Type": "string",
                "IsVisible": false,
                "SNo": 6,
                "sticky": false,
                "DefaultValue": "",
                "left": 0,
                "Required": false,
                "PostData": true
              }
            ]
          }
    ]
}