{
    "ObjectFields": [
        {
            "SupplyGroupCode": {
                "PicklistUrl": "SupplyGroup",
                "PicklistDisplayText": "Code,Name",
                "PicklistSearchFields": "Code,Name",
                "SLno":1,
                "Multiple": false,
                "PlaceHolder": "Enter Code",
                "PicklistSelection": "Id",
                "PicklistTitle": "Code",
                "Label": "Code*",
                "MaxLength": 20,
                "Width": 160,
                "AddNew": true,
                "ColumnWidth": "200",
                "ColumnType": "string,string",
                "isKeyField": true
            },
            "SupplyGroupName": {
                "PicklistUrl": "SupplyGroup",
                "PicklistDisplayText": "Code,Name",
                "PicklistSearchFields": "Code,Name",
                "Multiple": false,
                "PicklistSelection": "Id",
                "PicklistTitle": "Name",
                "PlaceHolder": "Enter Name",
                "Label": "Name*",
                "MaxLength": 100,
                "Width": 360,
                "AddNew": true,
                "ColumnWidth": "200",
                "ColumnType": "string,string",
                "isKeyField": true
            }
        },
        {
            "Name": "SupplyGroupId",
            "Type": "number",
            "Required": false,
            "ValidRegEx": "",
            "PostData": true,
            "DefaultValue": 0
        },
        {
            "Name": "SupplyGroupCode",
            "Type": "string",
            "Required": true,
            "ValidRegEx": "",
            "DefaultValue": "",
            "PostData": true,
            "Label": "Code*"
        },
        {
            "Name": "SupplyGroupName",
            "Type": "string",
            "Required": true,
            "ValidRegEx": "",
            "DefaultValue": "",
            "PostData": true,
            "Label": "Name*"
        },
        {
            "Name": "SupplyGroupRemarks",
            "Type": "string",
            "Required": false,
            "PostData": true,
            "ValidRegEx": "",
            "DefaultValue": "",
            "Label": "Remarks",
            "LabelWidth":72, 
            "MaxLength": 1000,
            "Width": 360,
            "Placeholder": "Enter the Remarks"
        },
        {
            "Name": "SupplyGroupSortOrder",
            "Type": "number",
            "Required": false,
            "PostData": true,
            "ValidRegEx": "",
            "DefaultValue": 9999
        },
        {
            "Name": "SupplyGroupStatus",
            "Type": "number",
            "Required": false,
            "PostData": true,
            "ValidRegEx": "",
            "DefaultValue": 1
        },
        {
            "Name": "SupplyGroupVersion",
            "Type": "number",
            "Required": false,
            "PostData": true,
            "ValidRegEx": "",
            "DefaultValue": 1
        },
        {
            "Name": "SupplyGroupCreatedById",
            "Type": "number",
            "Required": false,
            "PostData": true,
            "ValidRegEx": "",
            "DefaultValue": -1
        },
        {
            "Name": "SupplyGroupCreatedOn",
            "Type": "string",
            "Required": false,
            "PostData": true,
            "ValidRegEx": "",
            "DefaultValue": "/Date(1709251200000)/"
        },
        {
            "Name": "SupplyGroupModifiedById",
            "Type": "number",
            "Required": false,
            "PostData": true,
            "ValidRegEx": "",
            "DefaultValue": -1
        },
        {
            "Name": "SupplyGroupModifiedOn",
            "Type": "string",
            "Required": false,
            "PostData": true,
            "ValidRegEx": "",
            "DefaultValue": "/Date(1709251200000)/"
        },
        
        {
            "Name": "SupplyGroupDetailArray",
            "Type": "string",
            "Label": "SupplyGroupGrid",
            "SLNOField": "SupplyGroupDetailSlNo",
            "Tooltip": "",
            "Placeholder": "",
            "Required": true,
            "Grid": [
                {
                    "Label": "#",
                    "value": "SupplyGroupDetailSlNo",
                    "width": 50,
                    "Type": "SNo",
                    "IsVisible": true,
                    "SNo": 1,
                    "sticky": false,
                    "left": 0
                },
                { 
                    "value": "SupplyGroupId",
                    "Type": "string",
                    "Required": false,
                    "IsVisible": false,
                    "ValidRegEx": "",
                    "DefaultValue": "0"
                },
                {
                    "value": "SupplyGroupDetailId",
                    "Type": "string",
                    "Required": false,
                    "IsVisible": false,
                    "ValidRegEx": "",
                    "DefaultValue": "-1"
                },
                {
                    "value": "SupplyGroupDetailParticulars",
                    "Type": "string",
                    "Required": true,
                    "IsVisible": true,
                    "ValidRegEx": "",
                    "width": 330,
                    "Label": "Particulars",
                    "MaxLength": 1000,
                    "DefaultValue": "",
                    "Placeholder": "Enter Particulars",
                    "left": 0,
                    "SNo": 2
                },
                {
                    "value": "OuId",
                    "Type": "string",
                    "Required": false,
                    "IsVisible": false,
                    "ValidRegEx": "",
                    "Label": "OU Name",
                    "DefaultValue": "-1"
                },
                {
                    "Label": "OU Name",
                    "value": "OuName",
                    "width": 330,
                    "Type": "Picklist",
                    "Required": true,
                    "sticky": false,
                    "left": 0,
                    "PicklistDetail": {
                        "PicklistUrl": "OUName",
                        "PicklistDisplayText": "Code,Name",
                        "PicklistSearchFields": "Code,Name",
                        "Label": "",
                        "Width": 300,
                        "Multiple": false,
                        "AddNew": false,
                        "PlaceHolder": "Select OU",
                        "LinkId": "OuId,OuName",
                        "PicklistSelection": "Id",
                        "PicklistTitle": "Name",
                        "ColumnWidth": "200",
                        "ColumnType": "string,string"
                    },
                    "IsVisible": true,
                    "SNo": 3
                },
                {
                    "value": "PartyBranchId",
                    "Type": "string",
                    "Required": false,
                    "IsVisible": false,
                    "ValidRegEx": "",
                    "Label": "Party Branch",
                    "DefaultValue": "-1"
                },
                {
                    "Label": "Party Branch",
                    "value": "PartyBranchName",
                    "width": 330,
                    "Type": "Picklist", 
                    "Required": true,
                    "sticky": false,
                    "left": 0,
                    "PicklistDetail": {
                        "PicklistUrl": "PartyBranch",
                        "PicklistDisplayText": "Code,Name",
                        "PicklistSearchFields": "Code,Name",
                        "Label": "",
                        "Width": 300,
                        "PlaceHolder": "Select Party Branch",
                        "Multiple": false,
                        "AddNew": false,
                        "LinkId": "PartyBranchId,PartyBranchName",
                        "PicklistSelection": "Id",
                        "PicklistTitle": "Name",
                        "ColumnWidth": "200",
                        "ColumnType": "string,string"
                    },
                    "IsVisible": true,
                    "SNo": 4
                },
                {
                    "value": "SupplyGroupDetailSharePercent",
                    "Type": "percentage",
                    "Required": true,
                    "IsVisible": true,
                    "Label":" %",
                    "Placeholder": "Enter Share %",
                    "Width": 50,
                    "MaxLength": 5,
                    "ValidRegEx": "",
                    "DefaultValue": 0,
                    "SNo": 5
                }
            ]
        },
        {
            "Name": "SupplyGroupSourceType",
            "Type": "number",
            "Required": false,
            "PostData": true,
            "ValidRegEx": "",
            "DefaultValue": 5
        }
    ] 
}