{
    "ObjectFields": [
        {
            "TermsSetName": {
                "PicklistUrl": "TermsSet",
                "PicklistDisplayText": "Name",
                "PicklistSearchFields": "Name",
                "Multiple": false,
                "PicklistSelection": "Id",
                "PicklistTitle": "Name",
                "Label": "Terms Set Data*",
                "Width": 200,
                "AddNew": true,
                "MaxLength": 35,
                "ColumnWidth": "150,250",
                "ColumnType": "string,string",
                "isKeyField": true
            }
        },
        {
            "Name": "TermsSetId",
            "Type": "number",
            "Required": true,
            "ValidRegEx": "",
            "PostData": true,
            "DefaultValue": 0,
            "Width": 100
        },
        {
            "Name": "TermsSetName",
            "Type": "string",
            "Label": "Terms Set Data*",
            "Required": true,
            "ValidRegEx": "",
            "DefaultValue": "",
            "Width": 200,
            "MaxLength": 50,
            "isKeyField": true
        },
        {
            "Name": "TermsSetType",
            "Type": "number",
            "Required": true,
            "ValidRegEx": "",
            "PostData": true,
            "DefaultValue": 1,
            "Width": 100
        },
        {
            "Name": "TermsSetIsSalesApplicable",
            "Type": "number",
            "Required": true,
            "ValidRegEx": "",
            "Label": "Sales",
            "PostData": true,
            "DefaultValue": 1,
            "Width": 100
        },
        {
            "Name": "TermsSetIsPurchaseApplicable",
            "Type": "number",
            "Required": true,
            "ValidRegEx": "",
            "Label": "Purchase",
            "PostData": true,
            "DefaultValue": 1,
            "Width": 100
        },
        {
            "Name": "TermsSetCreatedOn",
            "Type": "string",
            "Required": false,
            "ValidRegEx": "",
            "DefaultValue": "/Date(1710860700000)/",
            "Width": 200,
            "MaxLength": 50
        },
        {
            "Name": "TermsSetModifiedOn",
            "Type": "string",
            "Required": false,
            "ValidRegEx": "",
            "DefaultValue": "/Date(1710860700000)/",
            "Width": 200,
            "MaxLength": 50
        },
        {
            "Name": "TermsSetModifiedByName",
            "Type": "string",
            "Required": false,
            "ValidRegEx": "",
            "DefaultValue": "ADMIN",
            "Width": 200,
            "MaxLength": 50
        },
        {
            "Name": "TermsSetStatus",
            "Type": "number",
            "Required": true,
            "ValidRegEx": "",
            "PostData": true,
            "DefaultValue": 1,
            "Width": 100
        },
        {
            "Name": "TermsSetVersion",
            "Type": "number",
            "Required": true,
            "ValidRegEx": "",
            "PostData": true,
            "DefaultValue": 1,
            "Width": 100
        },
        {
            "Name": "TermsSetDetailArray",
            "Label": "Termsgrid",
            "Tooltip": "",
            "Required": true,
            "Type": "Grid",
            "Grid": [
                {
                    "Label": "SlNo",
                    "value": "TermsSetDetailSlNo",
                    "width": 50,
                    "Type": "SNo",
                    "IsVisible": true,
                    "SNo": 1
                },
                {
                    "Label": "Ref No*",
                    "value": "TermsSetDetailReferenceNo",
                    "Type": "String",
                    "PostData": true,
                    "Required": false,
                    "IsVisible": true,
                    "DefaultValue": "",
                    "width": 200,
                    "SNo": 2,
                    "MaxLength": 100
                },
                {
                    "value": "TermsId",
                    "Type": "Number",
                    "PostData": true,
                    "Required": false,
                    "IsVisible": false,
                    "DefaultValue": -1,
                    "width": 100
                },
                {
                    "Label": "Terms",
                    "value": "TermsDescription",
                    "width": 200,
                    "Type": "PicklistDataRetrival",
                    "sticky": true,
                    "PicklistRetrivalURL": "Termsgrid",
                    "PicklistRetrivalIdField": "Termgrid",
                    "PicklistDetail": {
                        "Label": "",
                        "Width": 200,
                        "PicklistUrl": "Term",
                        "PicklistDisplayText": "Description",
                        "PicklistSearchFields": "Description",
                        "Multiple": false,
                        "LinkId": "TermsId,TermsDescription",
                        "PicklistSelection": "Id",
                        "PicklistTitle": "Description",
                        "AddNew": false,
                        "MaxLength": 20,
                        "ColumnWidth": "150,250",
                        "ColumnType": "string,string",
                        "PicklistCriteria": "termssheet"
                    },
                    "IsVisible": true,
                    "SNo": 3,
                    "Required": false,
                    "DefaultValue": ""
                },
                {
                    "Label": "Value",
                    "value": "TempValue",
                    "Type": "String",
                    "PostData": true,
                    "Required": false,
                    "IsVisible": false,
                    "DefaultValue": "",
                    "width": 200,
                    "MaxLength": 100
                },
                {
                    "Label": "Section",
                    "value": "TermsSection",
                    "Type": "String",
                    "PostData": true,
                    "Required": false,
                    "IsVisible": true,
                    "DefaultValue": "",
                    "width": 200,
                    "SNo": 4,
                    "MaxLength": 100
                },
                {
                    "Label": "Type",
                    "value": "TermsType",
                    "width": 150,
                    "Type": "ComboBox",
                    "SNo": 5,
                    "PostData": true,
                    "IsVisible": true,
                    "DefaultValue": 0,
                    "DependendFieldValue": 0,
                    "PickLists": [
                        {
                            "key": 0,
                            "value": "template"
                        }
                    ]
                }
            ]
        }
    ]
}