{
    "ObjectFields": [
        {
            "TermsSection": {
                "PicklistUrl": "Term",
                "PicklistDisplayText": "Section",
                "PicklistSearchFields": "Section",
                "Multiple": false,
                "PicklistSelection": "Id",
                "PicklistTitle": "Section",
                "Label": "Section*",
                "Width": 360,
                "AddNew": true,
                "SLno":1,
                "PlaceHolder":"Enter Section",
                "MaxLength": 10,
                "ColumnWidth": "200,300",
                "ColumnType": "string,string",
                "isKeyField": true
            }
        },
        {
            "Name": "TermsId",
            "Type": "number",
            "Required": true,
            "ValidRegEx": "",
            "PostData": true,
            "DefaultValue": 0
        },
        {
            "Name": "TermsSection",
            "Type": "string",
            "Label": "Section*",
            "Required": true,
            "ValidRegEx": "",
            "PostData": true,
            "DefaultValue": ""
    
        },
        {
            "Name": "TermsDescription",
            "Type": "string",
            "Label": "Description*",
            "Placeholder":"Enter Description",
            "Required": true,
            "ValidRegEx": "",
            "PostData": true,
            "DefaultValue": "",
            "LabelWidth":82,
            "Width":360,
            "MaxLength":450
        },
        {
            "Name": "TermsType",
            "Type": "number",
            "Label": "Type",
            "DefaultValue": 0,
            "Required": false,
            "PostData": true,
            "LabelWidth":90,
            "ValidRegEx": "",
            "PickLists": [
                {
                    "key": 0,
                    "value": "Template"
                },
                {
                    "key": 1,
                    "value": "Document Sepcific"
                }
            ]
        },
        {
            "Name": "TermsType",
            "Type": "number",
            "Required": false,
            "PostData": true,
            "ValidRegEx": "",
            "Label": "",
            "DefaultValue": 0
        },
        {
            "Name": "TermsCreatedOn",
            "Type": "string",
            "Required": false,
            "ValidRegEx": "",
            "PostData": true,
            "DefaultValue": "/Date(1418272292000)/",
            "width": 100
        },
        {
            "Name": "TermsModifiedOn",
            "Type": "string",
            "Required": false,
            "ValidRegEx": "",
            "PostData": true,
            "DefaultValue": "/Date(1697702245000)/",
            "width": 100
        },
        {
            "Name": "TermsCreatedByName",
            "Type": "string",
            "Required": false,
            "ValidRegEx": "",
            "PostData": true,
            "DefaultValue": "ADMIN",
            "width": 100
        },
        {
            "Name": "TermsModifiedByName",
            "Type": "string",
            "Required": false,
            "ValidRegEx": "",
            "PostData": true,
            "DefaultValue": "ADMIN",
            "width": 100
        },
        {
            "Name": "TermsCreatedById",
            "Type": "number",
            "Required": false,
            "PostData": true,
            "ValidRegEx": "",
            "DefaultValue": -1,
            "width": 100
        },
        {
            "Name": "TermsStatus",
            "Type": "string",
            "Required": false,
            "PostData": true,
            "ValidRegEx": "",
            "DefaultValue": 1
        },
        {
            "Name": "TermsVersion",
            "Type": "string",
            "Required": false,
            "PostData": true,
            "ValidRegEx": "",
            "DefaultValue": 1
        },
        {
            "Name": "TermsSortOrder",
            "Type": "string",
            "Required": false,
            "PostData": true,
            "ValidRegEx": "",
            "DefaultValue": 0
        }
    ]
}