{
    "ObjectFields": [
        {
            "WorkCenterCode": {
                "PicklistUrl": "WorkCenter",
                "PicklistDisplayText": "Code,Name",
                "PicklistSearchFields": "Code,Name",
                "Multiple": false,
                "PicklistSelection": "Id",
                "PicklistTitle": "Code",
                "PlaceHolder":"Enter Code",
                "SLno":1,
                "Label": "Code*",
                "Width": 160,
                "AddNew": true,
                "Required":true,
                "MaxLength": 10,
                "ColumnWidth": "200,300",
                "ColumnType": "string,string",
                "isKeyField": true
            },
            "WorkCenterName": {
                "PicklistUrl": "WorkCenter",
                "PicklistDisplayText": "Code,Name",
                "PicklistSearchFields": "Code,Name",
                "Multiple": false,
                "PicklistSelection": "Id",
                "PicklistTitle": "Name",
                "Label": "Name*",
                "Width": 360,
                "AddNew": true,
                "PlaceHolder":"Enter Name",
                "Required":true,
                "MaxLength": 50,
                "ColumnWidth": "200,300",
                "ColumnType": "string,string",
                "isKeyField": true
            },
            "OrganizationUnitName": {
                "PicklistUrl": "OrgUnit",
                "PicklistDisplayText": "Code,Name",
                "PicklistSearchFields": "Code,Name",
                "Multiple": false,
                "PicklistSelection": "Id",
                "LabelWidth":136,
                "LinkId": "OrganizationUnitId",
                "PicklistTitle": "Name",
                "PlaceHolder":"Select Org Unit",
                "Label": "Org Unit*",
                "Required":true,
                "Width": 200,
                "AddNew": false,
                "MaxLength": 20,
                "ColumnWidth": "200,300",
                "ColumnType": "string,string"
            },
            "DepartmentName": {
                "PicklistUrl": "Department",
                "PicklistDisplayText": "Code,Name",
                "PicklistSearchFields": "Code,Name",
                "Multiple": false,
                "PicklistSelection": "Id",
                "LinkId": "DepartmentId",
                "LabelWidth":136,
                "PicklistTitle": "Name",
                "PlaceHolder":"Select Department",
                "Label": "Department*",
                "Required":true,
                "Width": 200,
                "AddNew": false,
                "MaxLength": 20,
                "ColumnWidth": "200,300",
                "ColumnType": "string,string"
            },
            "ProcessName": {
                "PicklistUrl": "Process",
                "PicklistDisplayText": "Code,Name",
                "PicklistSearchFields": "Code,Name",
                "Multiple": false,
                "PicklistSelection": "Id",
                "LinkId": "ProcessId",
                "PicklistTitle": "Name",
                "PlaceHolder":"Select Process",
                "LabelWidth":136,
                "Label": "Process*",
                "Required":true,
                "Width": 200,
                "AddNew": false,
                "MaxLength": 20,
                "ColumnWidth": "200,300",
                "ColumnType": "string,string"
            },
            "UOMName": {
                "PicklistUrl": "UOM",
                "PicklistDisplayText": "Code,Name",
                "PicklistSearchFields": "Code,Name",
                "Multiple": false,
                "PicklistSelection": "Id",
                "LinkId": "UOMId",
                "PicklistTitle": "Name",
                "PlaceHolder":"Select UOM",
                "LabelWidth":136,
                "Label": "UOM*",
                "Required":true,
                "Width": 200,
                "AddNew": false,
                "MaxLength": 20,
                "ColumnWidth": "200,300",
                "ColumnType": "string,string"
            },
            "InchargeName": {
                "PicklistUrl": "Employee",
                "PicklistDisplayText": "Code,Name",
                "PicklistSearchFields": "Code,Name",
                "Multiple": false,
                "PicklistSelection": "Id",
                "LinkId": "InchargeId",
                "PicklistTitle": "Name",
                "LabelWidth":136,
                "PlaceHolder":"Select Incharge",
                "Label": "Incharge*",
                "Required":true,
                "Width": 200,
                "AddNew": false,
                "MaxLength": 20,
                "ColumnWidth": "200,300",
                "ColumnType": "string,string"
            },
            "CostCenterName": {
                "PicklistUrl": "CostCenter",
                "PicklistDisplayText": "Code,Name",
                "PicklistSearchFields": "Code,Name",
                "Multiple": false,
                "PicklistSelection": "Id",
                "LinkId": "CostCenterId",
                "LabelWidth":136,
                "PicklistTitle": "Name",
                "PlaceHolder":"Select Cost Center",
                "Label": "Cost Center*",
                "Required":true,
                "Width": 200,
                "AddNew": false,
                "MaxLength": 20,
                "ColumnWidth": "200,300",
                "ColumnType": "string,string"
            },
            "CalendarName": {
                "PicklistUrl": "Calendar",
                "PicklistDisplayText": "Code,Name",
                "PicklistSearchFields": "Code,Name",
                "Multiple": false,
                "PicklistSelection": "Id",
                "LabelWidth":136,
                "LinkId": "CalendarId",
                "PicklistTitle": "Name",
                "PlaceHolder":"Select Calendar",
                "Label": "Calendar *",
                "Required":true,
                "Width": 200,
                "AddNew": false,
                "MaxLength": 20,
                "ColumnWidth": "200,300",
                "ColumnType": "string,string"
            }
        },
        {
            "Name": "WorkCenterId",
            "Type": "number",
            "Required": true,
            "ValidRegEx": "",
            "DefaultValue": 0,
            "width": 100
        },
        {
            "Name": "WorkCenterCode",
            "Type": "string",
            "Label": "Code*",
            "Required":true,
            "PostData": true,
            "ValidRegEx": "",
            "DefaultValue": "",
            "Width": 200
        },
        {
            "Name": "WorkCenterName",
            "Type": "string",
            "Required": true,
            "PostData": true,
            "Label":"Name*",
            "ValidRegEx": "",
            "DefaultValue": "",
            "Width": 200
        },
        {
            "Name": "OrganizationUnitId",
            "Type": "number",
            "Required": false,
            "Label":"Org Unit*",
            "ValidRegEx": "",
            "DefaultValue": -1,
            "width": 100
        },
        {
            "Name": "OrganizationUnitName",
            "Type": "string",
            "Required": true,
            "PostData":true,
            "Label":"Org Unit*",
            "ValidRegEx": "",
            "DefaultValue": "",
            "width": 100
        },
        {
            "Name": "DepartmentId",
            "Type": "number",
            "Required": false,
            "Label":"Department*",
            "ValidRegEx": "",
            "DefaultValue": -1,
            "width": 100
        },
        {
            "Name": "DepartmentName",
            "Type": "string",
            "Required": true,
            "PostData":true,
            "Label":"Department*",
            "ValidRegEx": "",
            "DefaultValue": "",
            "width": 100
        },
        {
            "Name": "ProcessId",
            "Type": "number",
            "Required": false,
            "Label":"Process*",
            "ValidRegEx": "",
            "DefaultValue": -1,
            "width": 100
        },
        {
            "Name": "ProcessName",
            "Type": "string",
            "Required": true,
            "PostData":true,
            "Label":"Process*",
            "ValidRegEx": "",
            "DefaultValue": "",
            "width": 100
        },
        {
            "Name": "WorkCenterNumberOfUnits",
            "Type": "number",
            "Required": true,
            "Label":"No of Units*",
            "MaxLength":4,
            "Placeholder":"Value of Units",
            "LabelWidth":136,
            "ValidRegEx": "",
            "DefaultValue": "",
            "Width": 200
        },
        {
            "Name": "WorkCenterAvailableCapacity",
            "Type": "string",
            "Required": true,
            "Label":"Available Capacity*",
            "MaxLength":14,
            "Mask":"0000000000000.",
            "LabelWidth":136,
            "Placeholder":"Enter Available Capacity",
            "ValidRegEx": "",
            "DefaultValue": "",
            "Width": 200
        },
        {
            "Name": "UOMId",
            "Type": "number",
            "Required": false,
            "Label":"UOM*",
            "ValidRegEx": "",
            "DefaultValue": -1,
            "width": 100
        },
        {
            "Name": "UOMName",
            "Type": "string",
            "Required": true,
            "PostData":true,
            "Label":"UOM*",
            "ValidRegEx": "",
            "DefaultValue": "",
            "width": 100
        },
        {
            "Name": "WorkCenterWorkingMinutes",
            "Type": "number",
            "Required": true,
            "Label":"Working Minutes*",
            "MaxLength":4,
            "Placeholder":"Enter Working Min",
            "LabelWidth":136,
            "ValidRegEx": "",
            "DefaultValue": "",
            "Width": 200
        },
        {
            "Name": "WorkCenterUtilizationPercentage",
            "Type": "number",
            "Required": true,
            "Label":"Utilization %*",
            "MaxLength":3,
            "Placeholder":"Enter  Utilization",
            "ValidRegEx": "",
            "LabelWidth":136,
            "DefaultValue": "",
            "Width": 200
        },
        {
            "Name": "WorkCenterEfficiencyPercentage",
            "Type": "number",
            "Required": true,
            "Label":"Efficiency %*",
            "MaxLength":3,
            "Placeholder":"Enter Efficiency %",
            "LabelWidth":136,
            "ValidRegEx": "",
            "DefaultValue": "",
            "Width": 200
        },
        {
            "Name": "StartTime",
            "Type": "number",
            "Label":"StartTime",
            "Placeholder":"",
            "ValidRegEx": "",
            "PostData":false,
            "MaxLength":4,
            "DefaultValue": "00:00",
            "LabelWidth":136,
            "Width": 100,
            "LinkId": "WorkCenterStartTime"
        },
        {
            "Name": "WorkCenterStartTime",
            "Type": "number",
            "Label":"StartTime",
            "Placeholder":"",
            "PostData":true,
            "ValidRegEx": "",
            "MaxLength":4,
            "DefaultValue": "00:00",
            "LabelWidth":136,
            "Width": 100
        },
        {
            "Name": "CostCenterId",
            "Type": "number",
            "Required": false,
            "Label":"Cost Center*",
            "ValidRegEx": "",
            "DefaultValue": -1,
            "width": 100
        },
        {
            "Name": "CostCenterName",
            "Type": "string",
            "Required": true,
            "PostData":true,
            "Label":"Cost Center*",
            "ValidRegEx": "",
            "DefaultValue": "",
            "width": 100
        },
        {
            "Name": "InchargeId",
            "Type": "number",
            "Required": false,
            "Label":"Incharge*",
            "ValidRegEx": "",
            "DefaultValue": -1,
            "width": 100
        },
        {
            "Name": "InchargeName",
            "Type": "string",
            "Required": true,
            "PostData":true,
            "Label":"Incharge*",
            "ValidRegEx": "",
            "DefaultValue": "",
            "Width": 100
        },
        {
            "Name": "CalendarId",
            "Type": "number",
            "Required": false,
            "Label":"Calendar *",
            "ValidRegEx": "",
            "DefaultValue": 0,
            "width": 100
        },
       
        {
            "Name": "CalendarName",
            "Type": "string",
            "Required": true,
            "PostData":true,
            "Label":"Calendar *",
            "ValidRegEx": "",
            "DefaultValue": "",
            "width": 100
        },
        {
            "Name": "WorkCenterCreatedByName",
            "Type": "string",
            "Required": false,
            "ValidRegEx": "",
            "DefaultValue": "ADMIN",
            "width": 100
        },
        {
            "Name": "WorkCenterCreatedOn",
            "Type": "string",
            "Required": false,
            "ValidRegEx": "",
            "DefaultValue": "/Date(1704475560000)/",
            "width": 100
        },
        
        {
            "Name": "WorkCenterModifiedByName",
            "Type": "string",
            "Required": false,
            "ValidRegEx": "",
            "DefaultValue": "ADMIN",
            "width": 100
        },
        {
            "Name": "WorkCenterModifiedOn",
            "Type": "string",
            "Required": false,
            "ValidRegEx": "",
            "DefaultValue": "/Date(1704475560000)/",
            "width": 100
        },
        {
            "Name": "WorkCenterSortOrder",
            "Type": "number",
            "Required": false,
            "ValidRegEx": "",
            "DefaultValue": 0
        },
        {
            "Name": "WorkCenterStatus",
            "Type": "number",
            "Label":"Status",
            "Placeholder":"",
            "Required": false,
            "LabelWidth":136,
            "ValidRegEx": "",
            "DefaultValue": 2,
            "Width": 100,
            "PickLists": [
                {
                    "key":0,
                    "value":"--Please Select--"
                },
                {
                    "key":1,
                    "value":"Pending"
                },
                {
                    "key":2,
                    "value":"Active"
                },
                {
                    "key":3,
                    "value":"Deleted"
                },
                {
                    "key":4,
                    "value":"Amended"
                },
                {
                    "key":5,
                    "value":"Inactive"
                },
                {
                    "key":6,
                    "value":"Archived"
                }
            ]
        },
        {
            "Name": "WorkCenterVersion",
            "Type": "number",
            "Required": false,
            "ValidRegEx": "",
            "DefaultValue": 1
        },
        {
            "Name": "WorkCenterSourceType",
            "Type": "number",
            "Required": false,
            "ValidRegEx": "",
            "DefaultValue": 5
        }
    ]
}