[
    {
        "Id": -1500000000,
        "Code": "Item1",
        "Name": "Item1"
    },
    {
        "Id": "",
        "Code": "Item1",
        "Name": "Item1"
    },
    {
        "Id": "",
        "Code": "",
        "Name": "Item1"
    },
    {
        "Id": "",
        "Code": "",
        "Name": ""
    }
]