[
    {
        "series": [
            {
                "name": "Credit",
                "data": ""
            },
            {
                "name": "Debit",
                "data": ""
            }
        ],
        "chart": {
            "type": "line",
            "toolbar": {
                "show": true
            }
        },
        "title": {
            "text": "Cashbook",
            "align": "center"
        },
        "label": "VoucherNumber",
        "labels": ""
    }
]