[
    {
        "headerName": "Name",
        "field": "JobdefineName"
    },
    {
        "headerName": "Scheduler",
        "field": "SchedulerName"
    },
    {
        "headerName": "WebService Name",
        "field": "WebServiceName"
    },
    {
        "headerName": "Criteria Config",
        "field": "CriteriaConfigName"
    },
    {
        "headerName": "Date",
        "field": "JobdefineLastRunTime"
    }
]