[
    {
      "headerName": "Number",
      "field": "Number",
      "sortable": true,
      "filter": "agTextColumnFilter",
      "checkboxSelection": true,
      "resizable": true,
      "editable": true,
      "pinned": "left",
      "flex": 1,
      "minWidth": 50,
      "enableRowGroup": true,
      "enablePivot": true,
      "enableValue": true,
      "paginationAutoPageSize": true,
      "pagination": true,
      "routingpath": "..",
      "routingparams": "Id"
    },
    {
      "headerName": "EmployeeCode",
      "field": "EmployeeCode",
      "sortable": true,
      "filter": "agTextColumnFilter",
      "resizable": true,
      "editable": true,
      "routingpath": "..",
      "routingparams": "Id"
    },
    {
      "headerName": "EmployeeName",
      "field": "EmployeeName",
      "sortable": true,
      "filter": "agTextColumnFilter",
      "resizable": true,
      "editable": true,
      "routingpath": "..",
      "routingparams": "Id"
    },
    {
        "headerName": "PermissionType",
        "field": "PermissionType",
        "sortable": true,
        "filter": "agTextColumnFilter",
        "resizable": true,
        "editable": true,
        "routingpath": "..",
        "routingparams": "Id"
      }
  ]