[
    {
        "headerName": "Code",
        "field": "Code"
    },
    {
        "headerName": "Name",
        "field": "Name"
    },
    {
        "headerName": "Total",
        "field": "Quantity"
    },
    {
        "headerName": "Good",
        "field": "GoodQuantity"
    },
    {
        "headerName": "Rejected",
        "field": "RejectedQuantity"
    },
    {
        "headerName": "Rework",
        "field": "ReworkQuantity"
    },
    {
        "headerName": "Others",
        "field": "OtherQuantity"
    },
    {
        "headerName": "Value",
        "field": "PostedValue"
    }
]