{
    "ID": "SC0017",
    "Name": "Material Group",
    "ObjectFields": [
      {
        "Name": "MaterialGroupId",
        "Type": "string",
        "Label": "ID",
        "Tooltip": "",
        "Placeholder": "",
        "Required": true,
        "DefaultValue":0
      },
      {
        "Name": "MaterialGroupStatus",
        "Type": "string",
        "ValidRegEx": "",
        "DefaultValue": 1
      },
      {
        "Name": "MaterialGroupVersion",
        "Type": "string",
        "ValidRegEx": "",
        "DefaultValue": 1
      },
      {
        "Name": "MaterialGroupCode",
        "Type": "string",
        "Label": "Code",
        "Tooltip": "",
        "Placeholder": "",
        "Required": false,
        "DefaultValue":"",
        "ValidRegEx": "",
        "PickLists": [
          "Test1",
          "Test2",
          "Test3"
        ]
      },
      {
        "Name": "MaterialGroupName",
        "Type": "string",
        "Label": "Code",
        "Tooltip": "",
        "Placeholder": "",
        "Required": false,
        "DefaultValue":"",
        "ValidRegEx": "",
        "PickLists": [
          "Test1",
          "Test2",
          "Test3"
        ]
      }
    ]
  }